This is BibTeX, Version 0.99d (TeX Live 2015/Debian)
Capacity: max_strings=35307, hash_size=35307, hash_prime=30011
The top-level auxiliary file: rapport.aux
The style file: alpha.bst
Database file #1: biblio.bib
You've used 21 entries,
            2543 wiz_defined-function locations,
            694 strings with 9500 characters,
and the built_in function-call counts, 11494 in all, are:
= -- 1083
> -- 845
< -- 6
+ -- 323
- -- 316
* -- 1011
:= -- 1987
add.period$ -- 65
call.type$ -- 21
change.case$ -- 208
chr.to.int$ -- 21
cite$ -- 21
duplicate$ -- 330
empty$ -- 630
format.name$ -- 325
if$ -- 2217
int.to.chr$ -- 1
int.to.str$ -- 0
missing$ -- 22
newline$ -- 109
num.names$ -- 63
pop$ -- 172
preamble$ -- 1
purify$ -- 230
quote$ -- 0
skip$ -- 285
stack$ -- 0
substring$ -- 584
swap$ -- 54
text.length$ -- 6
text.prefix$ -- 2
top$ -- 0
type$ -- 164
warning$ -- 0
while$ -- 93
width$ -- 23
write$ -- 276
