\relax 
\citation{chen2015reduced}
\citation{ibc}
\babel@aux{english}{}
\@writefile{toc}{\contentsline {section}{\numberline {1}Methods}{1}}
\@writefile{toc}{\contentsline {section}{\numberline {2}Results}{1}}
\citation{abraham2014machine}
\citation{beck2009ista}
\citation{beck2009mfista}
\citation{becker2011templates}
\citation{brainiak}
\citation{brett2002problem}
\citation{chen2015reduced}
\citation{chen2016convolutional}
\citation{dohmatob2016learning}
\citation{fischl2012freesurfer}
\citation{gorgolewski2015neurovault}
\citation{guntupalli2016model}
\citation{halko2009finding}
\citation{hanke2014high}
\citation{ibc}
\citation{mairal2009online}
\citation{manning2014topographic}
\citation{mensch2016compressed}
\citation{nishimoto2011reconstructing}
\citation{pedregosa2011scikit}
\citation{pinho2018individual}
\citation{poldrack2013toward}
\citation{scikitlearn}
\citation{shvartsman2017matrix}
\citation{spacenet}
\citation{varoquaux2011multi}
\bibstyle{apacite}
\bibdata{biblio}
\bibcite{abraham2014machine}{\citeauthoryear {Abraham\ \BOthers {.}}{Abraham\ \BOthers {.}}{{\APACyear {2014}}}}
\APACbibcite{abraham2014machine}{\citeauthoryear {Abraham\ \BOthers {.}}{Abraham\ \BOthers {.}}{{\APACyear {2014}}}}
\bibcite{beck2009mfista}{\citeauthoryear {Beck\ \BBA{} Teboulle}{Beck\ \BBA{} Teboulle}{{\APACyear {2009}}{\APACexlab {{\BCnt {1}}}}}}
\APACbibcite{beck2009mfista}{\citeauthoryear {Beck\ \BBA{} Teboulle}{Beck\ \BBA{} Teboulle}{{\APACyear {2009}}{\APACexlab {{\BCnt {1}}}}}}
\bibcite{beck2009ista}{\citeauthoryear {Beck\ \BBA{} Teboulle}{Beck\ \BBA{} Teboulle}{{\APACyear {2009}}{\APACexlab {{\BCnt {2}}}}}}
\APACbibcite{beck2009ista}{\citeauthoryear {Beck\ \BBA{} Teboulle}{Beck\ \BBA{} Teboulle}{{\APACyear {2009}}{\APACexlab {{\BCnt {2}}}}}}
\bibcite{becker2011templates}{\citeauthoryear {Becker, Cand{\`e}s,{}\ \BBA{} Grant}{Becker\ \BOthers {.}}{{\APACyear {2011}}}}
\APACbibcite{becker2011templates}{\citeauthoryear {Becker, Cand{\`e}s,{}\ \BBA{} Grant}{Becker\ \BOthers {.}}{{\APACyear {2011}}}}
\bibcite{brainiak}{\citeauthoryear {{\em  Brain Imaging Analysis Kit\/}}{{\em  Brain Imaging Analysis Kit\/}}{{\APACyear {{\bibnodate {}}}}}}
\APACbibcite{brainiak}{\citeauthoryear {{\em  Brain Imaging Analysis Kit\/}}{{\em  Brain Imaging Analysis Kit\/}}{{\APACyear {{\bibnodate {}}}}}}
\bibcite{brett2002problem}{\citeauthoryear {Brett, Johnsrude,{}\ \BBA{} Owen}{Brett\ \BOthers {.}}{{\APACyear {2002}}}}
\APACbibcite{brett2002problem}{\citeauthoryear {Brett, Johnsrude,{}\ \BBA{} Owen}{Brett\ \BOthers {.}}{{\APACyear {2002}}}}
\bibcite{chen2016convolutional}{\citeauthoryear {P\BHBI  H.~Chen\ \BOthers {.}}{P\BHBI  H.~Chen\ \BOthers {.}}{{\APACyear {2016}}}}
\APACbibcite{chen2016convolutional}{\citeauthoryear {P\BHBI  H.~Chen\ \BOthers {.}}{P\BHBI  H.~Chen\ \BOthers {.}}{{\APACyear {2016}}}}
\bibcite{chen2015reduced}{\citeauthoryear {P\BHBI  H\BPBI  C.~Chen\ \BOthers {.}}{P\BHBI  H\BPBI  C.~Chen\ \BOthers {.}}{{\APACyear {2015}}}}
\APACbibcite{chen2015reduced}{\citeauthoryear {P\BHBI  H\BPBI  C.~Chen\ \BOthers {.}}{P\BHBI  H\BPBI  C.~Chen\ \BOthers {.}}{{\APACyear {2015}}}}
\bibcite{spacenet}{\citeauthoryear {Dohmatob, Eickenberg, Thirion,{}\ \BBA{} Varoquaux}{Dohmatob\ \BOthers {.}}{{\APACyear {2015}}}}
\APACbibcite{spacenet}{\citeauthoryear {Dohmatob, Eickenberg, Thirion,{}\ \BBA{} Varoquaux}{Dohmatob\ \BOthers {.}}{{\APACyear {2015}}}}
\bibcite{dohmatob2016learning}{\citeauthoryear {Dohmatob, Mensch, Varoquaux,{}\ \BBA{} Thirion}{Dohmatob\ \BOthers {.}}{{\APACyear {2016}}}}
\APACbibcite{dohmatob2016learning}{\citeauthoryear {Dohmatob, Mensch, Varoquaux,{}\ \BBA{} Thirion}{Dohmatob\ \BOthers {.}}{{\APACyear {2016}}}}
\bibcite{fischl2012freesurfer}{\citeauthoryear {Fischl}{Fischl}{{\APACyear {2012}}}}
\APACbibcite{fischl2012freesurfer}{\citeauthoryear {Fischl}{Fischl}{{\APACyear {2012}}}}
\bibcite{gorgolewski2015neurovault}{\citeauthoryear {Gorgolewski\ \BOthers {.}}{Gorgolewski\ \BOthers {.}}{{\APACyear {2015}}}}
\APACbibcite{gorgolewski2015neurovault}{\citeauthoryear {Gorgolewski\ \BOthers {.}}{Gorgolewski\ \BOthers {.}}{{\APACyear {2015}}}}
\@writefile{toc}{\contentsline {section}{\numberline {3}Discussion}{2}}
\@writefile{toc}{\contentsline {section}{\numberline {4}figures}{2}}
\@writefile{toc}{\contentsline {section}{References}{2}}
\@writefile{lof}{\contentsline {figure}{\numberline {1}{\ignorespaces Performance, Sparsity and Smoothness of ISRM, PCA, ProbSRM and FastDetSRM: We see that ISRM achieves best performance for a large range of parameters. We can see that for a good choice of parameters such as $\alpha = 10$ and $\beta = 1000$ ISRM beats all other algorithms both in interpretability and performance.}}{3}}
\newlabel{fig:parameter_landscape}{{1}{3}}
\@writefile{lof}{\contentsline {figure}{\numberline {2}{\ignorespaces Forrest Dataset: Comparing performance (higher is better) of ProbSRM, PCA, ISRM with no constrains (only positivity constrains), ISRM with sparsity and smoothness constrains ($\alpha = 10.$ and $\beta =100.$) on IBC dataset (top) and Forrest dataset (bottom). ISRM outperforms ProbSRM and DetSRM on both datasets and is competitive with online PCA. Additional plots (not included) show that ISRM also gives sparser, smoother and positive spatial maps.}}{4}}
\newlabel{fig:forrest_roi_results}{{2}{4}}
\@writefile{lof}{\contentsline {figure}{\numberline {3}{\ignorespaces IBC dataset: Comparing performance (top, higher is better), sparsity (middle, higher is better) and smoothness (bottom, lower is better) of ProbSRM, PCA, ISRM with no constrains (only positivity constrains), ISRM with sparsity and smoothness constrains ($\alpha = 10.$ and $\beta =100.$) on IBC dataset (top) and Forrest dataset (bottom). ISRM outperforms all other algorithm in terms of performance and interpretability. Note that we did not compute the smoothness of PCA because the differences in the norm of the spatial maps makes the comparison unfair.}}{5}}
\newlabel{fig:ibc_roi_results}{{3}{5}}
\bibcite{guntupalli2016model}{\citeauthoryear {Guntupalli\ \BOthers {.}}{Guntupalli\ \BOthers {.}}{{\APACyear {2016}}}}
\APACbibcite{guntupalli2016model}{\citeauthoryear {Guntupalli\ \BOthers {.}}{Guntupalli\ \BOthers {.}}{{\APACyear {2016}}}}
\bibcite{halko2009finding}{\citeauthoryear {Halko, Martinsson,{}\ \BBA{} Tropp}{Halko\ \BOthers {.}}{{\APACyear {2009}}}}
\APACbibcite{halko2009finding}{\citeauthoryear {Halko, Martinsson,{}\ \BBA{} Tropp}{Halko\ \BOthers {.}}{{\APACyear {2009}}}}
\bibcite{hanke2014high}{\citeauthoryear {Hanke\ \BOthers {.}}{Hanke\ \BOthers {.}}{{\APACyear {2014}}}}
\APACbibcite{hanke2014high}{\citeauthoryear {Hanke\ \BOthers {.}}{Hanke\ \BOthers {.}}{{\APACyear {2014}}}}
\bibcite{mairal2009online}{\citeauthoryear {Mairal, Bach, Ponce,{}\ \BBA{} Sapiro}{Mairal\ \BOthers {.}}{{\APACyear {2009}}}}
\APACbibcite{mairal2009online}{\citeauthoryear {Mairal, Bach, Ponce,{}\ \BBA{} Sapiro}{Mairal\ \BOthers {.}}{{\APACyear {2009}}}}
\bibcite{manning2014topographic}{\citeauthoryear {Manning, Ranganath, Norman,{}\ \BBA{} Blei}{Manning\ \BOthers {.}}{{\APACyear {2014}}}}
\APACbibcite{manning2014topographic}{\citeauthoryear {Manning, Ranganath, Norman,{}\ \BBA{} Blei}{Manning\ \BOthers {.}}{{\APACyear {2014}}}}
\bibcite{mensch2016compressed}{\citeauthoryear {Mensch, Varoquaux,{}\ \BBA{} Thirion}{Mensch\ \BOthers {.}}{{\APACyear {2016}}}}
\APACbibcite{mensch2016compressed}{\citeauthoryear {Mensch, Varoquaux,{}\ \BBA{} Thirion}{Mensch\ \BOthers {.}}{{\APACyear {2016}}}}
\bibcite{nishimoto2011reconstructing}{\citeauthoryear {Nishimoto\ \BOthers {.}}{Nishimoto\ \BOthers {.}}{{\APACyear {2011}}}}
\APACbibcite{nishimoto2011reconstructing}{\citeauthoryear {Nishimoto\ \BOthers {.}}{Nishimoto\ \BOthers {.}}{{\APACyear {2011}}}}
\bibcite{pedregosa2011scikit}{\citeauthoryear {Pedregosa\ \BOthers {.}}{Pedregosa\ \BOthers {.}}{{\APACyear {2011}}{\APACexlab {{\BCnt {1}}}}}}
\APACbibcite{pedregosa2011scikit}{\citeauthoryear {Pedregosa\ \BOthers {.}}{Pedregosa\ \BOthers {.}}{{\APACyear {2011}}{\APACexlab {{\BCnt {1}}}}}}
\bibcite{scikitlearn}{\citeauthoryear {Pedregosa\ \BOthers {.}}{Pedregosa\ \BOthers {.}}{{\APACyear {2011}}{\APACexlab {{\BCnt {2}}}}}}
\APACbibcite{scikitlearn}{\citeauthoryear {Pedregosa\ \BOthers {.}}{Pedregosa\ \BOthers {.}}{{\APACyear {2011}}{\APACexlab {{\BCnt {2}}}}}}
\bibcite{ibc}{\citeauthoryear {A.~Pinho\ \BOthers {.}}{A.~Pinho\ \BOthers {.}}{{\APACyear {2018}}}}
\APACbibcite{ibc}{\citeauthoryear {A.~Pinho\ \BOthers {.}}{A.~Pinho\ \BOthers {.}}{{\APACyear {2018}}}}
\bibcite{pinho2018individual}{\citeauthoryear {A\BPBI  L.~Pinho\ \BOthers {.}}{A\BPBI  L.~Pinho\ \BOthers {.}}{{\APACyear {2018}}}}
\APACbibcite{pinho2018individual}{\citeauthoryear {A\BPBI  L.~Pinho\ \BOthers {.}}{A\BPBI  L.~Pinho\ \BOthers {.}}{{\APACyear {2018}}}}
\bibcite{poldrack2013toward}{\citeauthoryear {Poldrack\ \BOthers {.}}{Poldrack\ \BOthers {.}}{{\APACyear {2013}}}}
\APACbibcite{poldrack2013toward}{\citeauthoryear {Poldrack\ \BOthers {.}}{Poldrack\ \BOthers {.}}{{\APACyear {2013}}}}
\bibcite{shvartsman2017matrix}{\citeauthoryear {Shvartsman\ \BOthers {.}}{Shvartsman\ \BOthers {.}}{{\APACyear {2017}}}}
\APACbibcite{shvartsman2017matrix}{\citeauthoryear {Shvartsman\ \BOthers {.}}{Shvartsman\ \BOthers {.}}{{\APACyear {2017}}}}
\bibcite{varoquaux2011multi}{\citeauthoryear {Varoquaux, Gramfort, Pedregosa, Michel,{}\ \BBA{} Thirion}{Varoquaux\ \BOthers {.}}{{\APACyear {2011}}}}
\APACbibcite{varoquaux2011multi}{\citeauthoryear {Varoquaux, Gramfort, Pedregosa, Michel,{}\ \BBA{} Thirion}{Varoquaux\ \BOthers {.}}{{\APACyear {2011}}}}
