This is BibTeX, Version 0.99dThe top-level auxiliary file: main.aux
The style file: apacite.bst
Database file #1: biblio.bib
Warning--entry type for "brainiak" isn't style-file defined
--line 129 of file biblio.bib
Warning--entry type for "ibc" isn't style-file defined
--line 134 of file biblio.bib
apacite.bst [2013/07/21 v6.03 APA bibliography style]
(There were 2 warnings)
