\relax 
\providecommand\hyper@newdestlabel[2]{}
\providecommand\HyperFirstAtBeginDocument{\AtBeginDocument}
\HyperFirstAtBeginDocument{\ifx\hyper@anchor\@undefined
\global\let\oldcontentsline\contentsline
\gdef\contentsline#1#2#3#4{\oldcontentsline{#1}{#2}{#3}}
\global\let\oldnewlabel\newlabel
\gdef\newlabel#1#2{\newlabelxx{#1}#2}
\gdef\newlabelxx#1#2#3#4#5#6{\oldnewlabel{#1}{{#2}{#3}}}
\AtEndDocument{\ifx\hyper@anchor\@undefined
\let\contentsline\oldcontentsline
\let\newlabel\oldnewlabel
\fi}
\fi}
\global\let\hyper@last\relax 
\gdef\HyperFirstAtBeginDocument#1{#1}
\providecommand\HyField@AuxAddToFields[1]{}
\providecommand\HyField@AuxAddToCoFields[2]{}
\citation{chen2015reduced}
\citation{vodrahalli2018mapping}
\citation{chen2015reduced}
\citation{anderson2016enabling}
\citation{guntupalli2016model}
\citation{chen2016convolutional}
\citation{shvartsman2017matrix}
\citation{turek2018capturing}
\citation{turek2017semi}
\citation{mensch2018extracting}
\citation{bellec2010multi}
\citation{schaefer2017local}
\babel@aux{english}{}
\@writefile{toc}{\contentsline {section}{\numberline {1}Introduction}{1}{section.1}}
\@writefile{toc}{\contentsline {section}{\numberline {2}Related work}{1}{section.2}}
\@writefile{toc}{\contentsline {section}{\numberline {3}The shared response model (SRM)}{2}{section.3}}
\@writefile{lof}{\contentsline {figure}{\numberline {1}{\ignorespaces The raw fmri data are seen as a weighted combination of subject specific spatial maps with additive noise. The weights are shared between subjects and constitute the shared response to the stimuli.}}{3}{figure.1}}
\newlabel{fig:conceptual_figure1}{{1}{3}{The raw fmri data are seen as a weighted combination of subject specific spatial maps with additive noise. The weights are shared between subjects and constitute the shared response to the stimuli}{figure.1}{}}
\@writefile{toc}{\contentsline {subsection}{\numberline {3.1}Deterministic SRM model (DetSRM)}{3}{subsection.3.1}}
\citation{anderson2016enabling}
\citation{brainiak}
\@writefile{toc}{\contentsline {subsection}{\numberline {3.2}Probabilistic SRM model (ProbSRM)}{4}{subsection.3.2}}
\@writefile{toc}{\contentsline {section}{\numberline {4}FastSRM model}{4}{section.4}}
\citation{ibc}
\citation{hanke2014high}
\citation{poldrack2013toward}
\citation{nishimoto2011reconstructing}
\@writefile{toc}{\contentsline {section}{\numberline {5}Experiments}{5}{section.5}}
\@writefile{toc}{\contentsline {subsection}{\numberline {5.1}Dataset}{5}{subsection.5.1}}
\@writefile{toc}{\contentsline {paragraph}{SHERLOCK Dataset}{5}{section*.1}}
\@writefile{toc}{\contentsline {paragraph}{RAIDERS Dataset}{5}{section*.2}}
\@writefile{toc}{\contentsline {paragraph}{GALLANT Dataset}{5}{section*.3}}
\@writefile{toc}{\contentsline {paragraph}{FORREST Dataset}{5}{section*.4}}
\@writefile{toc}{\contentsline {subsection}{\numberline {5.2}fMRI reconstruction: Evaluate the ability to recover brain activations in a co-smoothing setting}{5}{subsection.5.2}}
\@writefile{lof}{\contentsline {figure}{\numberline {2}{\ignorespaces In a first step, data are projected onto an atlas. In a second step we apply an SRM algorithm on reduced data to compute the shared response. If needed spatial maps can be recovered from the shared response using the full data.}}{6}{figure.2}}
\newlabel{fig:conceptual_figure2}{{2}{6}{In a first step, data are projected onto an atlas. In a second step we apply an SRM algorithm on reduced data to compute the shared response. If needed spatial maps can be recovered from the shared response using the full data}{figure.2}{}}
\@writefile{lof}{\contentsline {figure}{\numberline {3}{\ignorespaces All sessions but one (red $A, B, C$) are used to compute spatial maps $W$ for every subjects (bottom left). The unused session of all subjects but one (blue $A, B$) and corresponding spatial maps (red $W_a$ and $W_b$) are used to compute the shared response for the unused session (blue $S^4$ top right). Then using the spatial maps of the left-out subject ($W_c$) and the shared response of the unused session ($\setbox \z@ \hbox {\frozen@everymath \@emptytoks \mathsurround \z@ $\textstyle S$}\mathaccent "0362{S}^4$) we compute a prediction for the data of the left-out subject during the unused session (violet $\setbox \z@ \hbox {\frozen@everymath \@emptytoks \mathsurround \z@ $\textstyle C$}\mathaccent "0362{C}^4$). The performance of the model is measured by comparing the prediction $\setbox \z@ \hbox {\frozen@everymath \@emptytoks \mathsurround \z@ $\textstyle C$}\mathaccent "0362{C}^4$ and true data $C^4$ using the coefficient of determination.}}{7}{figure.3}}
\newlabel{fig:experiment}{{3}{7}{All sessions but one (red $A, B, C$) are used to compute spatial maps $W$ for every subjects (bottom left). The unused session of all subjects but one (blue $A, B$) and corresponding spatial maps (red $W_a$ and $W_b$) are used to compute the shared response for the unused session (blue $S^4$ top right). Then using the spatial maps of the left-out subject ($W_c$) and the shared response of the unused session ($\widehat {S}^4$) we compute a prediction for the data of the left-out subject during the unused session (violet $\widehat {C}^4$). The performance of the model is measured by comparing the prediction $\widehat {C}^4$ and true data $C^4$ using the coefficient of determination}{figure.3}{}}
\bibstyle{apacite}
\bibdata{biblio}
\bibcite{anderson2016enabling}{\citeauthoryear {Anderson\ \BOthers {.}}{Anderson\ \BOthers {.}}{{\APACyear {2016}}}}
\APACbibcite{anderson2016enabling}{\citeauthoryear {Anderson\ \BOthers {.}}{Anderson\ \BOthers {.}}{{\APACyear {2016}}}}
\bibcite{bellec2010multi}{\citeauthoryear {Bellec, Rosa-Neto, Lyttelton, Benali,{}\ \BBA{} Evans}{Bellec\ \BOthers {.}}{{\APACyear {2010}}}}
\APACbibcite{bellec2010multi}{\citeauthoryear {Bellec, Rosa-Neto, Lyttelton, Benali,{}\ \BBA{} Evans}{Bellec\ \BOthers {.}}{{\APACyear {2010}}}}
\bibcite{brainiak}{\citeauthoryear {{\em  Brain Imaging Analysis Kit\/}}{{\em  Brain Imaging Analysis Kit\/}}{{\APACyear {{\bibnodate {}}}}}}
\APACbibcite{brainiak}{\citeauthoryear {{\em  Brain Imaging Analysis Kit\/}}{{\em  Brain Imaging Analysis Kit\/}}{{\APACyear {{\bibnodate {}}}}}}
\bibcite{chen2016convolutional}{\citeauthoryear {P\BHBI  H.~Chen\ \BOthers {.}}{P\BHBI  H.~Chen\ \BOthers {.}}{{\APACyear {2016}}}}
\APACbibcite{chen2016convolutional}{\citeauthoryear {P\BHBI  H.~Chen\ \BOthers {.}}{P\BHBI  H.~Chen\ \BOthers {.}}{{\APACyear {2016}}}}
\bibcite{chen2015reduced}{\citeauthoryear {P\BHBI  H\BPBI  C.~Chen\ \BOthers {.}}{P\BHBI  H\BPBI  C.~Chen\ \BOthers {.}}{{\APACyear {2015}}}}
\APACbibcite{chen2015reduced}{\citeauthoryear {P\BHBI  H\BPBI  C.~Chen\ \BOthers {.}}{P\BHBI  H\BPBI  C.~Chen\ \BOthers {.}}{{\APACyear {2015}}}}
\bibcite{guntupalli2016model}{\citeauthoryear {Guntupalli\ \BOthers {.}}{Guntupalli\ \BOthers {.}}{{\APACyear {2016}}}}
\APACbibcite{guntupalli2016model}{\citeauthoryear {Guntupalli\ \BOthers {.}}{Guntupalli\ \BOthers {.}}{{\APACyear {2016}}}}
\bibcite{hanke2014high}{\citeauthoryear {Hanke\ \BOthers {.}}{Hanke\ \BOthers {.}}{{\APACyear {2014}}}}
\APACbibcite{hanke2014high}{\citeauthoryear {Hanke\ \BOthers {.}}{Hanke\ \BOthers {.}}{{\APACyear {2014}}}}
\@writefile{toc}{\contentsline {section}{\numberline {6}Results}{8}{section.6}}
\@writefile{toc}{\contentsline {section}{\numberline {7}Discussion}{8}{section.7}}
\@writefile{toc}{\contentsline {section}{References}{8}{section*.5}}
\@writefile{lof}{\contentsline {figure}{\numberline {4}{\ignorespaces We compare the performance (measured in terms of average r2 score) of ProbSRM and FastSRM with different atlases in function of the number of components used. Atlases tested are MODL with 512 and 1024 regions, Basc with 444 regions and Shaeffer with 800 regions. Datasets tested are FORREST (top left), GALLANT (bottom left), RAIDERS (top right) and SHERLOCK (bottom right). As we can see, no matter which atlas is chosen, FastSRM is competitive with ProbSRM.}}{9}{figure.4}}
\newlabel{fig:experiment}{{4}{9}{We compare the performance (measured in terms of average r2 score) of ProbSRM and FastSRM with different atlases in function of the number of components used. Atlases tested are MODL with 512 and 1024 regions, Basc with 444 regions and Shaeffer with 800 regions. Datasets tested are FORREST (top left), GALLANT (bottom left), RAIDERS (top right) and SHERLOCK (bottom right). As we can see, no matter which atlas is chosen, FastSRM is competitive with ProbSRM}{figure.4}{}}
\@writefile{lof}{\contentsline {figure}{\numberline {5}{\ignorespaces We compare the fitting time of ProbSRM and FastSRM with different atlases in function of the number of components used. Atlases tested are MODL with 512 and 1024 regions, Basc with 444 regions and Shaeffer with 800 regions. Datasets tested are GALLANT, FORREST, SHERLOCK and RAIDERS. \textbf  {Left}: Fitting time (as a fraction of ProbSRM fitting time) averaged over the four datasets \textbf  {Right}: Fitting time (in seconds) for each of the four different datasets. FastSRM is up to 12 times faster than ProbSRM on average.}}{10}{figure.5}}
\newlabel{fig:fit_time}{{5}{10}{We compare the fitting time of ProbSRM and FastSRM with different atlases in function of the number of components used. Atlases tested are MODL with 512 and 1024 regions, Basc with 444 regions and Shaeffer with 800 regions. Datasets tested are GALLANT, FORREST, SHERLOCK and RAIDERS. \textbf {Left}: Fitting time (as a fraction of ProbSRM fitting time) averaged over the four datasets \textbf {Right}: Fitting time (in seconds) for each of the four different datasets. FastSRM is up to 12 times faster than ProbSRM on average}{figure.5}{}}
\@writefile{lof}{\contentsline {figure}{\numberline {6}{\ignorespaces We compare the memory usage of ProbSRM and FastSRM with different atlases in function of the number of components used. Atlases tested are MODL with 512 and 1024 regions, Basc with 444 regions and Shaeffer with 800 regions. Datasets tested are SHERLOCK, GALLANT, FORREST and RAIDERS. \textbf  {Left}: Memory usage (as a fraction of ProbSRM memory usage) averaged over the four datasets \textbf  {Right}: Memory usage (in Mo) for each of the four different datasets. FastSRM uses up to 6 times less memory than ProbSRM making it possible to compute a shared response on a large dataset using a modern laptop.}}{11}{figure.6}}
\newlabel{fig:memory_usage}{{6}{11}{We compare the memory usage of ProbSRM and FastSRM with different atlases in function of the number of components used. Atlases tested are MODL with 512 and 1024 regions, Basc with 444 regions and Shaeffer with 800 regions. Datasets tested are SHERLOCK, GALLANT, FORREST and RAIDERS. \textbf {Left}: Memory usage (as a fraction of ProbSRM memory usage) averaged over the four datasets \textbf {Right}: Memory usage (in Mo) for each of the four different datasets. FastSRM uses up to 6 times less memory than ProbSRM making it possible to compute a shared response on a large dataset using a modern laptop}{figure.6}{}}
\bibcite{mensch2018extracting}{\citeauthoryear {Mensch, Mairal, Thirion,{}\ \BBA{} Varoquaux}{Mensch\ \BOthers {.}}{{\APACyear {2018}}}}
\APACbibcite{mensch2018extracting}{\citeauthoryear {Mensch, Mairal, Thirion,{}\ \BBA{} Varoquaux}{Mensch\ \BOthers {.}}{{\APACyear {2018}}}}
\bibcite{nishimoto2011reconstructing}{\citeauthoryear {Nishimoto\ \BOthers {.}}{Nishimoto\ \BOthers {.}}{{\APACyear {2011}}}}
\APACbibcite{nishimoto2011reconstructing}{\citeauthoryear {Nishimoto\ \BOthers {.}}{Nishimoto\ \BOthers {.}}{{\APACyear {2011}}}}
\bibcite{ibc}{\citeauthoryear {Pinho\ \BOthers {.}}{Pinho\ \BOthers {.}}{{\APACyear {2018}}}}
\APACbibcite{ibc}{\citeauthoryear {Pinho\ \BOthers {.}}{Pinho\ \BOthers {.}}{{\APACyear {2018}}}}
\bibcite{poldrack2013toward}{\citeauthoryear {Poldrack\ \BOthers {.}}{Poldrack\ \BOthers {.}}{{\APACyear {2013}}}}
\APACbibcite{poldrack2013toward}{\citeauthoryear {Poldrack\ \BOthers {.}}{Poldrack\ \BOthers {.}}{{\APACyear {2013}}}}
\bibcite{schaefer2017local}{\citeauthoryear {Schaefer\ \BOthers {.}}{Schaefer\ \BOthers {.}}{{\APACyear {2017}}}}
\APACbibcite{schaefer2017local}{\citeauthoryear {Schaefer\ \BOthers {.}}{Schaefer\ \BOthers {.}}{{\APACyear {2017}}}}
\bibcite{shvartsman2017matrix}{\citeauthoryear {Shvartsman\ \BOthers {.}}{Shvartsman\ \BOthers {.}}{{\APACyear {2017}}}}
\APACbibcite{shvartsman2017matrix}{\citeauthoryear {Shvartsman\ \BOthers {.}}{Shvartsman\ \BOthers {.}}{{\APACyear {2017}}}}
\bibcite{turek2018capturing}{\citeauthoryear {Turek, Ellis, Skalaban, Turk-Browne,{}\ \BBA{} Willke}{Turek\ \BOthers {.}}{{\APACyear {2018}}}}
\APACbibcite{turek2018capturing}{\citeauthoryear {Turek, Ellis, Skalaban, Turk-Browne,{}\ \BBA{} Willke}{Turek\ \BOthers {.}}{{\APACyear {2018}}}}
\bibcite{turek2017semi}{\citeauthoryear {Turek, Willke, Chen,{}\ \BBA{} Ramadge}{Turek\ \BOthers {.}}{{\APACyear {2017}}}}
\APACbibcite{turek2017semi}{\citeauthoryear {Turek, Willke, Chen,{}\ \BBA{} Ramadge}{Turek\ \BOthers {.}}{{\APACyear {2017}}}}
\bibcite{vodrahalli2018mapping}{\citeauthoryear {Vodrahalli\ \BOthers {.}}{Vodrahalli\ \BOthers {.}}{{\APACyear {2018}}}}
\APACbibcite{vodrahalli2018mapping}{\citeauthoryear {Vodrahalli\ \BOthers {.}}{Vodrahalli\ \BOthers {.}}{{\APACyear {2018}}}}
\@writefile{lof}{\contentsline {figure}{\numberline {7}{\ignorespaces The stimuli in the forrest dataset is purely auditive. We show the full brain r2 score obtained with ProbSRM (top) and FastSRM (bottom) using the deterministic atlas of Shaeffer (with 800 regions) with 20 components. As expected the voxels that are better reconstructed are in the auditive cortex.}}{12}{figure.7}}
\newlabel{fig:example_r2}{{7}{12}{The stimuli in the forrest dataset is purely auditive. We show the full brain r2 score obtained with ProbSRM (top) and FastSRM (bottom) using the deterministic atlas of Shaeffer (with 800 regions) with 20 components. As expected the voxels that are better reconstructed are in the auditive cortex}{figure.7}{}}
