\relax 
\citation{chen2015reduced}
\citation{brett2002problem}
\citation{gorgolewski2015neurovault}
\citation{guntupalli2016model}
\citation{chen2016convolutional}
\citation{shvartsman2017matrix}
\citation{chen2016convolutional}
\citation{manning2014topographic}
\citation{varoquaux2011multi}
\citation{spacenet}
\citation{dohmatob2016learning}
\babel@aux{english}{}
\@writefile{toc}{\contentsline {section}{\numberline {1}Introduction}{1}}
\@writefile{toc}{\contentsline {section}{\numberline {2}Related work}{1}}
\@writefile{toc}{\contentsline {section}{\numberline {3}The shared response model (SRM)}{2}}
\@writefile{toc}{\contentsline {subsection}{\numberline {3.1}Deterministic SRM model (DetSRM)}{2}}
\citation{chen2015reduced}
\@writefile{lof}{\contentsline {figure}{\numberline {1}{\ignorespaces  \textbf  {A}: The raw fmri data are seen as a weighted combination of subject specific spatial maps with additive noise. The weights are shared between subjects and constitute the shared response to the stimuli. \textbf  {B}: The sparsity and smoothness of each spatial maps are controlled by parameters $\alpha $ and $\beta $. In our case the noise $\epsilon $ follows a normal law with mean 0 and identity covariance ($\sigma _{\epsilon }$ is the identity matrix).}}{3}}
\newlabel{fig:conceptual_figure1}{{1}{3}}
\@writefile{toc}{\contentsline {subsection}{\numberline {3.2}Probabilistic SRM model (ProbSRM)}{3}}
\@writefile{toc}{\contentsline {section}{\numberline {4}Interpretable SRM (ISRM) model}{3}}
\newlabel{srm_pen}{{1}{3}}
\citation{brainiak}
\citation{halko2009finding}
\citation{scikitlearn}
\@writefile{lof}{\contentsline {figure}{\numberline {2}{\ignorespaces The sparsity and smoothness of each spatial maps are controlled by parameters $\alpha $ and $\beta $. In our case the noise $\epsilon $ follows a normal law with mean 0 and identity covariance ($\sigma _{\epsilon }$ is the identity matrix).}}{4}}
\newlabel{fig:conceptual_figure2}{{2}{4}}
\@writefile{toc}{\contentsline {subsection}{\numberline {4.1}A fast deterministic shared response model FastSRM is used to find the shared response}{4}}
\@writefile{toc}{\contentsline {subsection}{\numberline {4.2}Optimization}{4}}
\newlabel{w_iopt}{{2}{4}}
\citation{ibc}
\citation{nishimoto2011reconstructing}
\citation{ibc}
\citation{hanke2014high}
\citation{poldrack2013toward}
\@writefile{toc}{\contentsline {section}{\numberline {5}Experiments}{5}}
\@writefile{toc}{\contentsline {subsection}{\numberline {5.1}Dataset}{5}}
\@writefile{toc}{\contentsline {paragraph}{IBC Dataset}{5}}
\@writefile{toc}{\contentsline {paragraph}{FORREST Dataset}{5}}
\@writefile{toc}{\contentsline {subsection}{\numberline {5.2}fMRI reconstruction: Evaluate the ability to recover brain activations in a co-smoothing setting}{5}}
\@writefile{lof}{\contentsline {figure}{\numberline {3}{\ignorespaces All sessions but one (red $X$) are used to compute spatial maps $W$ for every subjects (bottom left). The unused session of all subjects but one (blue $X^4_1$, $X^4_2$) and corresponding spatial maps (red $W_1$ and $W_2$) are used to compute the shared response for the unused session (blue $S^4$ top right). Then using the spatial maps of the left-out subject ($W_3$) and the shared response of the unused session ($S^4$) we compute a prediction for the data of the left-out subject during the unused session (violet $\setbox \z@ \hbox {\frozen@everymath \@emptytoks \mathsurround \z@ $\textstyle X$}\mathaccent "0362{X}^4_3$). The performance of the model is measured by comparing the prediction $\setbox \z@ \hbox {\frozen@everymath \@emptytoks \mathsurround \z@ $\textstyle X$}\mathaccent "0362{X}^4_3$ and true data $X^4_3$ using the coefficient of determination.}}{6}}
\newlabel{fig:experiment}{{3}{6}}
\@writefile{toc}{\contentsline {section}{\numberline {6}Results}{6}}
\@writefile{toc}{\contentsline {subsection}{\numberline {6.1}Reconstruction error and spatial maps in regions of interest using Forrest dataset: influence of each parameters}{6}}
\bibstyle{apacite}
\bibdata{biblio}
\bibcite{brainiak}{\citeauthoryear {{\em  Brain Imaging Analysis Kit\/}}{{\em  Brain Imaging Analysis Kit\/}}{{\APACyear {{\bibnodate {}}}}}}
\APACbibcite{brainiak}{\citeauthoryear {{\em  Brain Imaging Analysis Kit\/}}{{\em  Brain Imaging Analysis Kit\/}}{{\APACyear {{\bibnodate {}}}}}}
\bibcite{brett2002problem}{\citeauthoryear {Brett, Johnsrude,{}\ \BBA{} Owen}{Brett\ \BOthers {.}}{{\APACyear {2002}}}}
\APACbibcite{brett2002problem}{\citeauthoryear {Brett, Johnsrude,{}\ \BBA{} Owen}{Brett\ \BOthers {.}}{{\APACyear {2002}}}}
\bibcite{chen2016convolutional}{\citeauthoryear {P\BHBI  H.~Chen\ \BOthers {.}}{P\BHBI  H.~Chen\ \BOthers {.}}{{\APACyear {2016}}}}
\APACbibcite{chen2016convolutional}{\citeauthoryear {P\BHBI  H.~Chen\ \BOthers {.}}{P\BHBI  H.~Chen\ \BOthers {.}}{{\APACyear {2016}}}}
\bibcite{chen2015reduced}{\citeauthoryear {P\BHBI  H\BPBI  C.~Chen\ \BOthers {.}}{P\BHBI  H\BPBI  C.~Chen\ \BOthers {.}}{{\APACyear {2015}}}}
\APACbibcite{chen2015reduced}{\citeauthoryear {P\BHBI  H\BPBI  C.~Chen\ \BOthers {.}}{P\BHBI  H\BPBI  C.~Chen\ \BOthers {.}}{{\APACyear {2015}}}}
\bibcite{spacenet}{\citeauthoryear {Dohmatob, Eickenberg, Thirion,{}\ \BBA{} Varoquaux}{Dohmatob\ \BOthers {.}}{{\APACyear {2015}}}}
\APACbibcite{spacenet}{\citeauthoryear {Dohmatob, Eickenberg, Thirion,{}\ \BBA{} Varoquaux}{Dohmatob\ \BOthers {.}}{{\APACyear {2015}}}}
\bibcite{dohmatob2016learning}{\citeauthoryear {Dohmatob, Mensch, Varoquaux,{}\ \BBA{} Thirion}{Dohmatob\ \BOthers {.}}{{\APACyear {2016}}}}
\APACbibcite{dohmatob2016learning}{\citeauthoryear {Dohmatob, Mensch, Varoquaux,{}\ \BBA{} Thirion}{Dohmatob\ \BOthers {.}}{{\APACyear {2016}}}}
\@writefile{toc}{\contentsline {subsection}{\numberline {6.2}Benchmark of ISRM and ProbSRM on Forrest and IBC dataset in terms of reconstruction error using regions of interest}{7}}
\@writefile{toc}{\contentsline {section}{\numberline {7}Discussion}{7}}
\@writefile{toc}{\contentsline {section}{References}{7}}
\@writefile{lof}{\contentsline {figure}{\numberline {4}{\ignorespaces Performance, Sparsity and Smoothness of ISRM, PCA, ProbSRM and FastDetSRM: We see that ISRM achieves best performance for a large range of parameters. We can see that for a good choice of parameters such as $\alpha = \beta = 1000$ ISRM beats all other algorithms both in interpretability and performance.}}{8}}
\newlabel{fig:parameter_landscape}{{4}{8}}
\@writefile{lof}{\contentsline {figure}{\numberline {5}{\ignorespaces IBC dataset: Comparing performance (top, higher is better), sparsity (middle, higher is better) and smoothness (bottom, lower is better) of ProbSRM, PCA, ISRM with no constrains (only positivity constrains), ISRM with sparsity and smoothness constrains ($\alpha = 10.$ and $\beta =100.$) on IBC dataset (top) and Forrest dataset (bottom). ISRM outperforms all other algorithm in terms of performance and interpretability. Note that we did not compute the smoothness of PCA because the differences in the norm of the spatial maps makes the comparison unfair.}}{9}}
\newlabel{fig:ibc_roi_results}{{5}{9}}
\@writefile{lof}{\contentsline {figure}{\numberline {6}{\ignorespaces Forrest Dataset: Comparing performance (top, higher is better), sparsity (middle, higher is better) and smoothness (bottom, lower is better) of ProbSRM, PCA, ISRM with no constrains (only positivity constrains), ISRM with sparsity and smoothness constrains ($\alpha = 10.$ and $\beta =100.$) on IBC dataset (top) and Forrest dataset (bottom). ISRM outperforms all other algorithm in terms of performance and interpretability. Note that we did not compute the smoothness of PCA because the differences in the norm of the spatial maps makes the comparison unfair.}}{10}}
\newlabel{fig:forrest_roi_results}{{6}{10}}
\bibcite{gorgolewski2015neurovault}{\citeauthoryear {Gorgolewski\ \BOthers {.}}{Gorgolewski\ \BOthers {.}}{{\APACyear {2015}}}}
\APACbibcite{gorgolewski2015neurovault}{\citeauthoryear {Gorgolewski\ \BOthers {.}}{Gorgolewski\ \BOthers {.}}{{\APACyear {2015}}}}
\bibcite{guntupalli2016model}{\citeauthoryear {Guntupalli\ \BOthers {.}}{Guntupalli\ \BOthers {.}}{{\APACyear {2016}}}}
\APACbibcite{guntupalli2016model}{\citeauthoryear {Guntupalli\ \BOthers {.}}{Guntupalli\ \BOthers {.}}{{\APACyear {2016}}}}
\bibcite{halko2009finding}{\citeauthoryear {Halko, Martinsson,{}\ \BBA{} Tropp}{Halko\ \BOthers {.}}{{\APACyear {2009}}}}
\APACbibcite{halko2009finding}{\citeauthoryear {Halko, Martinsson,{}\ \BBA{} Tropp}{Halko\ \BOthers {.}}{{\APACyear {2009}}}}
\bibcite{hanke2014high}{\citeauthoryear {Hanke\ \BOthers {.}}{Hanke\ \BOthers {.}}{{\APACyear {2014}}}}
\APACbibcite{hanke2014high}{\citeauthoryear {Hanke\ \BOthers {.}}{Hanke\ \BOthers {.}}{{\APACyear {2014}}}}
\bibcite{manning2014topographic}{\citeauthoryear {Manning, Ranganath, Norman,{}\ \BBA{} Blei}{Manning\ \BOthers {.}}{{\APACyear {2014}}}}
\APACbibcite{manning2014topographic}{\citeauthoryear {Manning, Ranganath, Norman,{}\ \BBA{} Blei}{Manning\ \BOthers {.}}{{\APACyear {2014}}}}
\bibcite{nishimoto2011reconstructing}{\citeauthoryear {Nishimoto\ \BOthers {.}}{Nishimoto\ \BOthers {.}}{{\APACyear {2011}}}}
\APACbibcite{nishimoto2011reconstructing}{\citeauthoryear {Nishimoto\ \BOthers {.}}{Nishimoto\ \BOthers {.}}{{\APACyear {2011}}}}
\bibcite{scikitlearn}{\citeauthoryear {Pedregosa\ \BOthers {.}}{Pedregosa\ \BOthers {.}}{{\APACyear {2011}}}}
\APACbibcite{scikitlearn}{\citeauthoryear {Pedregosa\ \BOthers {.}}{Pedregosa\ \BOthers {.}}{{\APACyear {2011}}}}
\bibcite{ibc}{\citeauthoryear {Pinho\ \BOthers {.}}{Pinho\ \BOthers {.}}{{\APACyear {2018}}}}
\APACbibcite{ibc}{\citeauthoryear {Pinho\ \BOthers {.}}{Pinho\ \BOthers {.}}{{\APACyear {2018}}}}
\bibcite{poldrack2013toward}{\citeauthoryear {Poldrack\ \BOthers {.}}{Poldrack\ \BOthers {.}}{{\APACyear {2013}}}}
\APACbibcite{poldrack2013toward}{\citeauthoryear {Poldrack\ \BOthers {.}}{Poldrack\ \BOthers {.}}{{\APACyear {2013}}}}
\bibcite{shvartsman2017matrix}{\citeauthoryear {Shvartsman\ \BOthers {.}}{Shvartsman\ \BOthers {.}}{{\APACyear {2017}}}}
\APACbibcite{shvartsman2017matrix}{\citeauthoryear {Shvartsman\ \BOthers {.}}{Shvartsman\ \BOthers {.}}{{\APACyear {2017}}}}
\bibcite{varoquaux2011multi}{\citeauthoryear {Varoquaux, Gramfort, Pedregosa, Michel,{}\ \BBA{} Thirion}{Varoquaux\ \BOthers {.}}{{\APACyear {2011}}}}
\APACbibcite{varoquaux2011multi}{\citeauthoryear {Varoquaux, Gramfort, Pedregosa, Michel,{}\ \BBA{} Thirion}{Varoquaux\ \BOthers {.}}{{\APACyear {2011}}}}
