This is BibTeX, Version 0.99dThe top-level auxiliary file: main.aux
The style file: apacite.bst
Database file #1: biblio.bib
Warning--entry type for "brainiak" isn't style-file defined
--line 59 of file biblio.bib
Warning--entry type for "ibc" isn't style-file defined
--line 64 of file biblio.bib
apacite.bst [2013/07/21 v6.03 APA bibliography style]
Warning--No journal in spacenet
Warning--No journal in halko2009finding
(There were 4 warnings)
