<?xml version="1.0" encoding="UTF-8" standalone="no"?>
<!-- Created with Inkscape (http://www.inkscape.org/) -->

<svg
   xmlns:ns0="http://sodipodi.sourceforge.net/DTD/inkex-0.dtd"
   xmlns:dc="http://purl.org/dc/elements/1.1/"
   xmlns:cc="http://creativecommons.org/ns#"
   xmlns:rdf="http://www.w3.org/1999/02/22-rdf-syntax-ns#"
   xmlns:svg="http://www.w3.org/2000/svg"
   xmlns="http://www.w3.org/2000/svg"
   xmlns:sodipodi="http://sodipodi.sourceforge.net/DTD/sodipodi-0.dtd"
   xmlns:inkscape="http://www.inkscape.org/namespaces/inkscape"
   version="1.1"
   id="svg2"
   xml:space="preserve"
   width="1035.5906"
   height="725.66925"
   viewBox="0 0 1035.5906 725.66925"
   sodipodi:docname="conceptual_figure1.svg"
   enable-background="new"
   inkscape:version="0.92.3 (unknown)"><sodipodi:namedview
     pagecolor="#ffffff"
     bordercolor="#666666"
     borderopacity="1"
     objecttolerance="10"
     gridtolerance="10"
     guidetolerance="10"
     inkscape:pageopacity="0"
     inkscape:pageshadow="2"
     inkscape:window-width="1855"
     inkscape:window-height="1056"
     id="namedview4"
     showgrid="false"
     inkscape:zoom="0.91985267"
     inkscape:cx="571.81044"
     inkscape:cy="332.38244"
     inkscape:window-x="65"
     inkscape:window-y="24"
     inkscape:window-maximized="1"
     inkscape:current-layer="g10" /><metadata
     id="metadata8"><rdf:RDF><cc:Work
         rdf:about=""><dc:format>image/svg+xml</dc:format><dc:type
           rdf:resource="http://purl.org/dc/dcmitype/StillImage" /><dc:title></dc:title></cc:Work></rdf:RDF></metadata><defs
     id="defs6"><clipPath
   id="clipPath950"
   clipPathUnits="userSpaceOnUse"><path
     inkscape:connector-curvature="0"
     id="path948"
     d="M 3,2.251953 H 212 V 542.25195 H 3 Z" /></clipPath><mask
   id="mask952"
   height="1"
   width="1"
   y="0"
   x="0"
   maskUnits="userSpaceOnUse"><g
     id="g958"><g
       id="g956"
       clip-path="url(#clipPath950)"><path
         inkscape:connector-curvature="0"
         id="path954"
         style="fill:#000000;fill-opacity:0.14800002;fill-rule:nonzero;stroke:none"
         d="M 3,2.251953 H 212 V 542.25195 H 3 Z" /></g></g></mask><clipPath
   id="clipPath966"
   clipPathUnits="userSpaceOnUse"><path
     inkscape:connector-curvature="0"
     id="path964"
     d="M 3,2.251953 H 212 V 542.25195 H 3 Z" /></clipPath><clipPath
   id="clipPath970"
   clipPathUnits="userSpaceOnUse"><path
     inkscape:connector-curvature="0"
     id="path968"
     d="M 3,3 H 212 V 543 H 3 Z" /></clipPath><clipPath
   id="clipPath994"
   clipPathUnits="userSpaceOnUse"><path
     inkscape:connector-curvature="0"
     id="path992"
     d="M 281,2.251953 H 450 V 542.25195 H 281 Z" /></clipPath><mask
   id="mask996"
   height="1"
   width="1"
   y="0"
   x="0"
   maskUnits="userSpaceOnUse"><g
     id="g1002"><g
       id="g1000"
       clip-path="url(#clipPath994)"><path
         inkscape:connector-curvature="0"
         id="path998"
         style="fill:#000000;fill-opacity:0.14800002;fill-rule:nonzero;stroke:none"
         d="M 281,2.251953 H 450 V 542.25195 H 281 Z" /></g></g></mask><clipPath
   id="clipPath1010"
   clipPathUnits="userSpaceOnUse"><path
     inkscape:connector-curvature="0"
     id="path1008"
     d="M 281,2.251953 H 450 V 542.25195 H 281 Z" /></clipPath><clipPath
   id="clipPath1014"
   clipPathUnits="userSpaceOnUse"><path
     inkscape:connector-curvature="0"
     id="path1012"
     d="M 281,3 H 450 V 543 H 281 Z" /></clipPath><clipPath
   id="clipPath1038"
   clipPathUnits="userSpaceOnUse"><path
     inkscape:connector-curvature="0"
     id="path1036"
     d="M 472,3.251953 H 641 V 541.25195 H 472 Z" /></clipPath><mask
   id="mask1040"
   height="1"
   width="1"
   y="0"
   x="0"
   maskUnits="userSpaceOnUse"><g
     id="g1046"><g
       id="g1044"
       clip-path="url(#clipPath1038)"><path
         inkscape:connector-curvature="0"
         id="path1042"
         style="fill:#000000;fill-opacity:0.14800002;fill-rule:nonzero;stroke:none"
         d="M 472,3.251953 H 641 V 541.25195 H 472 Z" /></g></g></mask><clipPath
   id="clipPath1054"
   clipPathUnits="userSpaceOnUse"><path
     inkscape:connector-curvature="0"
     id="path1052"
     d="M 472,3.251953 H 641 V 541.25195 H 472 Z" /></clipPath><clipPath
   id="clipPath1058"
   clipPathUnits="userSpaceOnUse"><path
     inkscape:connector-curvature="0"
     id="path1056"
     d="M 472,4 H 641 V 542 H 472 Z" /></clipPath>















</defs><g
     transform="matrix(1.3333333,0,0,-1.3333333,0,725.66927)"
     inkscape:label="conceptual_figure1"
     inkscape:groupmode="layer"
     id="g10">











<text
   y="-477.51086"
   x="52.375137"
   transform="scale(1.0000001,-0.99999991)"
   style="font-variant:normal;font-weight:normal;font-size:31.99999428px;font-family:'DejaVu Sans';-inkscape-font-specification:DejaVuSans;writing-mode:lr-tb;fill:#000000;fill-opacity:1;fill-rule:nonzero;stroke:none"
   id="text900"><tspan
     x="52.375137 72.663132 92.919128 113.20712 122.07112 141.75111 159.31912 171.86313"
     y="-477.51086"
     sodipodi:role="line"
     id="tspan898">Subjects</tspan></text>






<g
   id="g946" /><text
   y="-242.02992"
   x="736.43475"
   transform="scale(1.0000001,-0.99999991)"
   style="font-variant:normal;font-weight:normal;font-size:31.99999428px;font-family:'DejaVu Sans';-inkscape-font-specification:DejaVuSans;writing-mode:lr-tb;fill:#000000;fill-opacity:1;fill-rule:nonzero;stroke:none"
   id="text1078"><tspan
     x="736.43475"
     y="-242.02992"
     id="tspan1076">ε</tspan></text>






<text
   transform="scale(1,-1)"
   id="text3015"
   y="-340.00012"
   x="225.03606"
   style="font-style:normal;font-weight:normal;font-size:30px;line-height:1.25;font-family:sans-serif;letter-spacing:0px;word-spacing:0px;fill:#000000;fill-opacity:1;stroke:none;stroke-width:0.75"
   xml:space="preserve"><tspan
     style="stroke-width:0.75"
     y="-313.45715"
     x="225.03606"
     id="tspan3013"
     sodipodi:role="line" /></text>






















<text
   transform="scale(1,-1)"
   id="text3019"
   y="-314.72437"
   x="212.9677"
   style="font-style:normal;font-weight:normal;font-size:30px;line-height:1.25;font-family:sans-serif;letter-spacing:0px;word-spacing:0px;fill:#000000;fill-opacity:1;stroke:none;stroke-width:0.75"
   xml:space="preserve"><tspan
     style="stroke-width:0.75"
     y="-314.72437"
     x="212.9677"
     id="tspan3017"
     sodipodi:role="line">X<tspan
   id="tspan3021"
   style="font-size:64.99999762%;baseline-shift:sub">1</tspan></tspan></text>
<text
   transform="scale(1,-1)"
   id="text3025"
   y="-139.44969"
   x="213.04387"
   style="font-style:normal;font-weight:normal;font-size:30px;line-height:1.25;font-family:sans-serif;letter-spacing:0px;word-spacing:0px;fill:#000000;fill-opacity:1;stroke:none;stroke-width:0.75"
   xml:space="preserve"><tspan
     style="stroke-width:0.75"
     y="-139.44969"
     x="213.04387"
     id="tspan3023"
     sodipodi:role="line">X<tspan
   style="font-size:64.99999762%;baseline-shift:sub"
   id="tspan4407">N</tspan></tspan></text>




<text
   transform="scale(1,-1)"
   id="text3019-9"
   y="-313.31207"
   x="556.34082"
   style="font-style:normal;font-weight:normal;font-size:30px;line-height:1.25;font-family:sans-serif;letter-spacing:0px;word-spacing:0px;fill:#000000;fill-opacity:1;stroke:none;stroke-width:0.75"
   xml:space="preserve"><tspan
     style="stroke-width:0.75"
     y="0"
     x="0"
     id="tspan3017-2"
     sodipodi:role="line"><tspan
       id="tspan3021-0"
       style="font-size:19.5px;baseline-shift:sub;stroke-width:0.75" /></tspan></text>






<text
   transform="scale(1,-1)"
   id="text5243"
   y="-314.72437"
   x="427.55429"
   style="font-style:normal;font-weight:normal;font-size:30px;line-height:1.25;font-family:sans-serif;letter-spacing:0px;word-spacing:0px;fill:#000000;fill-opacity:1;stroke:none;stroke-width:0.75"
   xml:space="preserve"><tspan
     style="stroke-width:0.75"
     y="-314.72437"
     x="427.55429"
     id="tspan5241"
     sodipodi:role="line">W<tspan
   id="tspan5245"
   style="font-size:64.99999762%;baseline-shift:sub">1</tspan></tspan></text>






<text
   transform="scale(1,-1)"
   id="text5249"
   y="-140.26505"
   x="424.36908"
   style="font-style:normal;font-weight:normal;font-size:30px;line-height:1.25;font-family:sans-serif;letter-spacing:0px;word-spacing:0px;fill:#000000;fill-opacity:1;stroke:none;stroke-width:0.75"
   xml:space="preserve"><tspan
     style="stroke-width:0.75"
     y="-140.26505"
     x="424.36908"
     id="tspan5247"
     sodipodi:role="line">W<tspan
   style="font-size:65%;baseline-shift:sub"
   id="tspan4409">N</tspan></tspan></text>






<text
   transform="scale(1,-1)"
   id="text5255"
   y="-152.18617"
   x="331.07446"
   style="font-style:normal;font-weight:normal;font-size:30px;line-height:1.25;font-family:sans-serif;letter-spacing:0px;word-spacing:0px;fill:#000000;fill-opacity:1;stroke:none;stroke-width:0.75"
   xml:space="preserve"><tspan
     style="stroke-width:0.75"
     y="-152.18617"
     x="331.07446"
     id="tspan5253"
     sodipodi:role="line">S</tspan></text>






<text
   transform="scale(1,-1)"
   id="text5259"
   y="-496.81256"
   x="342.5575"
   style="font-style:normal;font-weight:normal;font-size:30px;line-height:1.25;font-family:sans-serif;letter-spacing:0px;word-spacing:0px;fill:#000000;fill-opacity:1;stroke:none;stroke-width:0.75"
   xml:space="preserve"><tspan
     style="font-style:normal;font-variant:normal;font-weight:normal;font-stretch:normal;font-size:30px;font-family:sans-serif;-inkscape-font-specification:'sans-serif, Normal';font-variant-ligatures:normal;font-variant-caps:normal;font-variant-numeric:normal;font-feature-settings:normal;text-align:center;writing-mode:lr-tb;text-anchor:middle;stroke-width:0.75"
     y="-496.81256"
     x="347.33289"
     id="tspan5257"
     sodipodi:role="line">Shared </tspan><tspan
     id="tspan5261"
     style="font-style:normal;font-variant:normal;font-weight:normal;font-stretch:normal;font-size:30px;font-family:sans-serif;-inkscape-font-specification:'sans-serif, Normal';font-variant-ligatures:normal;font-variant-caps:normal;font-variant-numeric:normal;font-feature-settings:normal;text-align:center;writing-mode:lr-tb;text-anchor:middle;stroke-width:0.75"
     y="-459.31256"
     x="342.5575"
     sodipodi:role="line">response</tspan></text>






<text
   transform="scale(1,-1)"
   id="text5265"
   y="-478.06256"
   x="458.06372"
   style="font-style:normal;font-weight:normal;font-size:30px;line-height:1.25;font-family:sans-serif;letter-spacing:0px;word-spacing:0px;fill:#000000;fill-opacity:1;stroke:none;stroke-width:0.75"
   xml:space="preserve"><tspan
     style="stroke-width:0.75"
     y="-478.06256"
     x="458.06372"
     id="tspan5263"
     sodipodi:role="line">Spatial maps</tspan></text>












<text
   transform="scale(1,-1)"
   id="text5273"
   y="-236.88243"
   x="259.89694"
   style="font-style:normal;font-weight:normal;font-size:30px;line-height:1.25;font-family:sans-serif;letter-spacing:0px;word-spacing:0px;fill:#000000;fill-opacity:1;stroke:none;stroke-width:0.75"
   xml:space="preserve"><tspan
     style="stroke-width:0.75"
     y="-236.88243"
     x="259.89694"
     id="tspan5271"
     sodipodi:role="line">=</tspan></text>










<text
   xml:space="preserve"
   style="font-style:normal;font-weight:normal;font-size:30px;line-height:1.25;font-family:sans-serif;letter-spacing:0px;word-spacing:0px;fill:#000000;fill-opacity:1;stroke:none;stroke-width:0.75"
   x="407.67398"
   y="-116.59476"
   id="text2653"
   transform="scale(1,-1)"><tspan
     sodipodi:role="line"
     x="407.67398"
     y="-90.051788"
     style="stroke-width:0.75"
     id="tspan2657" /></text>


<g
   id="g3629"
   transform="translate(7.5,63.000002)"><text
     id="text404-2"
     style="font-variant:normal;font-weight:normal;font-size:16.38947868px;font-family:'DejaVu Sans';-inkscape-font-specification:DejaVuSans;writing-mode:lr-tb;fill:#000000;fill-opacity:1;fill-rule:nonzero;stroke:none"
     transform="matrix(0,1.0000001,0.99999991,0,0,0)"
     x="42.920395"
     y="17.268152"><tspan
       id="tspan402-9"
       sodipodi:role="line"
       y="17.268152"
       x="42.920395 49.345078 53.88496 69.848312 79.927841 85.696945 92.433029 102.46336 118.42675 128.45708">timeframes</tspan></text>
<g
     id="g3593"><g
       id="g722"
       transform="matrix(0,-1,-1,0,566.54286,180.42059)"><path
         d="M 27.066,372.156 V 534.102"
         style="fill:none;stroke:#000000;stroke-width:0.54519099;stroke-linecap:butt;stroke-linejoin:miter;stroke-miterlimit:4;stroke-dasharray:none;stroke-opacity:1"
         id="path724"
         inkscape:connector-curvature="0" /></g><g
       id="g726"
       transform="matrix(-1,0,0,1,566.54286,180.42059)"><path
         d="m 377.606,-27.066 2.179,-2.18 -7.629,2.18 7.629,2.183 z"
         style="fill:#000000;fill-opacity:1;fill-rule:evenodd;stroke:#000000;stroke-width:0.54519099;stroke-linecap:butt;stroke-linejoin:miter;stroke-miterlimit:4;stroke-dasharray:none;stroke-opacity:1"
         id="path728"
         inkscape:connector-curvature="0" /></g><g
       id="g730"
       transform="matrix(1,0,0,-1,566.54286,180.42059)"><path
         d="m -528.649,27.066 2.18,-2.183 -7.633,2.183 7.633,2.18 z"
         style="fill:#000000;fill-opacity:1;fill-rule:evenodd;stroke:#000000;stroke-width:0.54519099;stroke-linecap:butt;stroke-linejoin:miter;stroke-miterlimit:4;stroke-dasharray:none;stroke-opacity:1"
         id="path732"
         inkscape:connector-curvature="0" /></g><text
       y="-161.55473"
       x="87.791969"
       transform="scale(0.99999991,-1.0000001)"
       style="font-variant:normal;font-weight:normal;font-size:16.38947868px;font-family:'DejaVu Sans';-inkscape-font-specification:DejaVuSans;writing-mode:lr-tb;fill:#000000;fill-opacity:1;fill-rule:nonzero;stroke:none"
       id="text736"><tspan
         x="87.791969 97.478149 106.93488 116.11299 126.19252 130.73239"
         y="-161.55473"
         sodipodi:role="line"
         id="tspan734">voxels</tspan></text>
<path
       inkscape:connector-curvature="0"
       id="path392-7"
       style="fill:none;stroke:#000000;stroke-width:0.46405101;stroke-linecap:butt;stroke-linejoin:miter;stroke-miterlimit:4;stroke-dasharray:none;stroke-opacity:1"
       d="M 20.82109,28.606538 V 145.93454" /><path
       inkscape:connector-curvature="0"
       id="path400-6"
       style="fill:#000000;fill-opacity:1;fill-rule:evenodd;stroke:#000000;stroke-width:0.46405101;stroke-linecap:butt;stroke-linejoin:miter;stroke-miterlimit:4;stroke-dasharray:none;stroke-opacity:1"
       d="m 20.82109,141.29454 1.855,-1.856 -1.855,6.496 -1.86,-6.496 z" /><rect
       ns0:table-id="inkscape-table4"
       ns0:row="0"
       ns0:column="0"
       y="32.140602"
       x="30.509907"
       width="32.092918"
       style="fill:none;stroke:#000000;stroke-width:1.68406332px;stroke-miterlimit:4;stroke-dasharray:none;stroke-opacity:1"
       id="inkscape-table4"
       height="27.73737" /><rect
       ns0:table-id="inkscape-table4"
       ns0:row="0"
       ns0:column="1"
       y="32.140602"
       x="62.602825"
       width="32.092918"
       style="fill:none;stroke:#000000;stroke-width:1.68406332px;stroke-miterlimit:4;stroke-dasharray:none;stroke-opacity:1"
       id="inkscape-table4b"
       height="27.73737" /><rect
       ns0:table-id="inkscape-table4"
       ns0:row="0"
       ns0:column="2"
       y="32.140602"
       x="94.69574"
       width="32.092918"
       style="fill:none;stroke:#000000;stroke-width:1.68406332px;stroke-miterlimit:4;stroke-dasharray:none;stroke-opacity:1"
       id="inkscape-table4r"
       height="27.73737" /><rect
       ns0:table-id="inkscape-table4"
       ns0:row="0"
       ns0:column="3"
       y="32.140602"
       x="126.78866"
       width="32.092918"
       style="fill:none;stroke:#000000;stroke-width:1.68406332px;stroke-miterlimit:4;stroke-dasharray:none;stroke-opacity:1"
       id="inkscape-table4rj"
       height="27.73737" /><rect
       ns0:table-id="inkscape-table4"
       ns0:row="0"
       ns0:column="4"
       y="32.140602"
       x="158.88158"
       width="32.092918"
       style="fill:none;stroke:#000000;stroke-width:1.68406332px;stroke-miterlimit:4;stroke-dasharray:none;stroke-opacity:1"
       id="inkscape-table4m"
       height="27.73737" /><rect
       ns0:table-id="inkscape-table4"
       ns0:row="1"
       ns0:column="0"
       y="59.877975"
       x="30.509907"
       width="32.092918"
       style="fill:none;stroke:#000000;stroke-width:1.68406332px;stroke-miterlimit:4;stroke-dasharray:none;stroke-opacity:1"
       id="inkscape-table4a"
       height="27.73737" /><rect
       ns0:table-id="inkscape-table4"
       ns0:row="1"
       ns0:column="1"
       y="59.877975"
       x="62.602825"
       width="32.092918"
       style="fill:none;stroke:#000000;stroke-width:1.68406332px;stroke-miterlimit:4;stroke-dasharray:none;stroke-opacity:1"
       id="inkscape-table4I"
       height="27.73737" /><rect
       ns0:table-id="inkscape-table4"
       ns0:row="1"
       ns0:column="2"
       y="59.877975"
       x="94.69574"
       width="32.092918"
       style="fill:none;stroke:#000000;stroke-width:1.68406332px;stroke-miterlimit:4;stroke-dasharray:none;stroke-opacity:1"
       id="inkscape-table4j"
       height="27.73737" /><rect
       ns0:table-id="inkscape-table4"
       ns0:row="1"
       ns0:column="3"
       y="59.877975"
       x="126.78866"
       width="32.092918"
       style="fill:none;stroke:#000000;stroke-width:1.68406332px;stroke-miterlimit:4;stroke-dasharray:none;stroke-opacity:1"
       id="inkscape-table4A"
       height="27.73737" /><rect
       ns0:table-id="inkscape-table4"
       ns0:row="1"
       ns0:column="4"
       y="59.877975"
       x="158.88158"
       width="32.092918"
       style="fill:none;stroke:#000000;stroke-width:1.68406332px;stroke-miterlimit:4;stroke-dasharray:none;stroke-opacity:1"
       id="inkscape-table4N"
       height="27.73737" /><rect
       ns0:table-id="inkscape-table4"
       ns0:row="2"
       ns0:column="0"
       y="87.615334"
       x="30.509907"
       width="32.092918"
       style="fill:none;stroke:#000000;stroke-width:1.68406332px;stroke-miterlimit:4;stroke-dasharray:none;stroke-opacity:1"
       id="inkscape-table45"
       height="27.73737" /><rect
       ns0:table-id="inkscape-table4"
       ns0:row="2"
       ns0:column="1"
       y="87.615334"
       x="62.602825"
       width="32.092918"
       style="fill:none;stroke:#000000;stroke-width:1.68406332px;stroke-miterlimit:4;stroke-dasharray:none;stroke-opacity:1"
       id="inkscape-table4mx"
       height="27.73737" /><rect
       ns0:table-id="inkscape-table4"
       ns0:row="2"
       ns0:column="2"
       y="87.615334"
       x="94.69574"
       width="32.092918"
       style="fill:none;stroke:#000000;stroke-width:1.68406332px;stroke-miterlimit:4;stroke-dasharray:none;stroke-opacity:1"
       id="inkscape-table4G"
       height="27.73737" /><rect
       ns0:table-id="inkscape-table4"
       ns0:row="2"
       ns0:column="3"
       y="87.615334"
       x="126.78866"
       width="32.092918"
       style="fill:none;stroke:#000000;stroke-width:1.68406332px;stroke-miterlimit:4;stroke-dasharray:none;stroke-opacity:1"
       id="inkscape-table4d"
       height="27.73737" /><rect
       ns0:table-id="inkscape-table4"
       ns0:row="2"
       ns0:column="4"
       y="87.615334"
       x="158.88158"
       width="32.092918"
       style="fill:none;stroke:#000000;stroke-width:1.68406332px;stroke-miterlimit:4;stroke-dasharray:none;stroke-opacity:1"
       id="inkscape-table4Ir"
       height="27.73737" /><rect
       ns0:table-id="inkscape-table4"
       ns0:row="3"
       ns0:column="0"
       y="115.35272"
       x="30.509907"
       width="32.092918"
       style="fill:none;stroke:#000000;stroke-width:1.68406332px;stroke-miterlimit:4;stroke-dasharray:none;stroke-opacity:1"
       id="inkscape-table4W"
       height="27.73737" /><rect
       ns0:table-id="inkscape-table4"
       ns0:row="3"
       ns0:column="1"
       y="115.35272"
       x="62.602825"
       width="32.092918"
       style="fill:none;stroke:#000000;stroke-width:1.68406332px;stroke-miterlimit:4;stroke-dasharray:none;stroke-opacity:1"
       id="inkscape-table4B"
       height="27.73737" /><rect
       ns0:table-id="inkscape-table4"
       ns0:row="3"
       ns0:column="2"
       y="115.35272"
       x="94.69574"
       width="32.092918"
       style="fill:none;stroke:#000000;stroke-width:1.68406332px;stroke-miterlimit:4;stroke-dasharray:none;stroke-opacity:1"
       id="inkscape-table4s"
       height="27.73737" /><rect
       ns0:table-id="inkscape-table4"
       ns0:row="3"
       ns0:column="3"
       y="115.35272"
       x="126.78866"
       width="32.092918"
       style="fill:none;stroke:#000000;stroke-width:1.68406332px;stroke-miterlimit:4;stroke-dasharray:none;stroke-opacity:1"
       id="inkscape-table4jT"
       height="27.73737" /><rect
       ns0:table-id="inkscape-table4"
       ns0:row="3"
       ns0:column="4"
       y="115.35272"
       x="158.88158"
       width="32.092918"
       style="fill:none;stroke:#000000;stroke-width:1.68406332px;stroke-miterlimit:4;stroke-dasharray:none;stroke-opacity:1"
       id="inkscape-table4Q"
       height="27.73737" /><path
       inkscape:connector-curvature="0"
       id="path400-6-9"
       style="fill:#000000;fill-opacity:1;fill-rule:evenodd;stroke:#000000;stroke-width:0.46405101;stroke-linecap:butt;stroke-linejoin:miter;stroke-miterlimit:4;stroke-dasharray:none;stroke-opacity:1"
       d="m 20.82109,33.246538 1.855,1.856 -1.855,-6.496 -1.86,6.496 z" /></g></g><g
   id="g4165"
   transform="translate(7.5,19.5)"><text
     id="text404-2-8"
     style="font-variant:normal;font-weight:normal;font-size:16.38947868px;font-family:'DejaVu Sans';-inkscape-font-specification:DejaVuSans;writing-mode:lr-tb;fill:#000000;fill-opacity:1;fill-rule:nonzero;stroke:none"
     transform="matrix(0,1.0000001,0.99999991,0,0,0)"
     x="264.69507"
     y="17.268152"><tspan
       id="tspan402-9-1"
       sodipodi:role="line"
       y="17.268152"
       x="264.69507 271.11975 275.65961 291.62299 301.70251 307.47162 314.2077 324.23804 340.20142 350.23175">timeframes</tspan></text>
<g
     transform="matrix(0,-1,-1,0,566.54286,402.19527)"
     id="g722-9"><path
       inkscape:connector-curvature="0"
       id="path724-7"
       style="fill:none;stroke:#000000;stroke-width:0.54519099;stroke-linecap:butt;stroke-linejoin:miter;stroke-miterlimit:4;stroke-dasharray:none;stroke-opacity:1"
       d="M 27.066,372.156 V 534.102" /></g><g
     transform="matrix(-1,0,0,1,566.54286,402.19527)"
     id="g726-8"><path
       inkscape:connector-curvature="0"
       id="path728-2"
       style="fill:#000000;fill-opacity:1;fill-rule:evenodd;stroke:#000000;stroke-width:0.54519099;stroke-linecap:butt;stroke-linejoin:miter;stroke-miterlimit:4;stroke-dasharray:none;stroke-opacity:1"
       d="m 377.606,-27.066 2.179,-2.18 -7.629,2.18 7.629,2.183 z" /></g><g
     transform="matrix(1,0,0,-1,566.54286,402.19527)"
     id="g730-5"><path
       inkscape:connector-curvature="0"
       id="path732-3"
       style="fill:#000000;fill-opacity:1;fill-rule:evenodd;stroke:#000000;stroke-width:0.54519099;stroke-linecap:butt;stroke-linejoin:miter;stroke-miterlimit:4;stroke-dasharray:none;stroke-opacity:1"
       d="m -528.649,27.066 2.18,-2.183 -7.633,2.183 7.633,2.18 z" /></g><text
     id="text736-4"
     style="font-variant:normal;font-weight:normal;font-size:16.38947868px;font-family:'DejaVu Sans';-inkscape-font-specification:DejaVuSans;writing-mode:lr-tb;fill:#000000;fill-opacity:1;fill-rule:nonzero;stroke:none"
     transform="scale(0.99999991,-1.0000001)"
     x="87.791969"
     y="-383.32941"><tspan
       id="tspan734-9"
       sodipodi:role="line"
       y="-383.32941"
       x="87.791969 97.478149 106.93488 116.11299 126.19252 130.73239">voxels</tspan></text>
<path
     d="m 20.82109,250.38122 v 117.328"
     style="fill:none;stroke:#000000;stroke-width:0.46405101;stroke-linecap:butt;stroke-linejoin:miter;stroke-miterlimit:4;stroke-dasharray:none;stroke-opacity:1"
     id="path392-7-0"
     inkscape:connector-curvature="0" /><path
     d="m 20.82109,363.06922 1.855,-1.856 -1.855,6.496 -1.86,-6.496 z"
     style="fill:#000000;fill-opacity:1;fill-rule:evenodd;stroke:#000000;stroke-width:0.46405101;stroke-linecap:butt;stroke-linejoin:miter;stroke-miterlimit:4;stroke-dasharray:none;stroke-opacity:1"
     id="path400-6-2"
     inkscape:connector-curvature="0" /><rect
     height="27.73737"
     id="inkscape-table4-0"
     style="fill:none;stroke:#000000;stroke-width:1.68406332px;stroke-miterlimit:4;stroke-dasharray:none;stroke-opacity:1"
     width="32.092918"
     x="30.509907"
     y="253.91528"
     ns0:column="0"
     ns0:row="0"
     ns0:table-id="inkscape-table4" /><rect
     height="27.73737"
     id="inkscape-table4b-1"
     style="fill:none;stroke:#000000;stroke-width:1.68406332px;stroke-miterlimit:4;stroke-dasharray:none;stroke-opacity:1"
     width="32.092918"
     x="62.602825"
     y="253.91528"
     ns0:column="1"
     ns0:row="0"
     ns0:table-id="inkscape-table4" /><rect
     height="27.73737"
     id="inkscape-table4r-9"
     style="fill:none;stroke:#000000;stroke-width:1.68406332px;stroke-miterlimit:4;stroke-dasharray:none;stroke-opacity:1"
     width="32.092918"
     x="94.69574"
     y="253.91528"
     ns0:column="2"
     ns0:row="0"
     ns0:table-id="inkscape-table4" /><rect
     height="27.73737"
     id="inkscape-table4rj-6"
     style="fill:none;stroke:#000000;stroke-width:1.68406332px;stroke-miterlimit:4;stroke-dasharray:none;stroke-opacity:1"
     width="32.092918"
     x="126.78866"
     y="253.91528"
     ns0:column="3"
     ns0:row="0"
     ns0:table-id="inkscape-table4" /><rect
     height="27.73737"
     id="inkscape-table4m-2"
     style="fill:none;stroke:#000000;stroke-width:1.68406332px;stroke-miterlimit:4;stroke-dasharray:none;stroke-opacity:1"
     width="32.092918"
     x="158.88158"
     y="253.91528"
     ns0:column="4"
     ns0:row="0"
     ns0:table-id="inkscape-table4" /><rect
     height="27.73737"
     id="inkscape-table4a-1"
     style="fill:none;stroke:#000000;stroke-width:1.68406332px;stroke-miterlimit:4;stroke-dasharray:none;stroke-opacity:1"
     width="32.092918"
     x="30.509907"
     y="281.65265"
     ns0:column="0"
     ns0:row="1"
     ns0:table-id="inkscape-table4" /><rect
     height="27.73737"
     id="inkscape-table4I-2"
     style="fill:none;stroke:#000000;stroke-width:1.68406332px;stroke-miterlimit:4;stroke-dasharray:none;stroke-opacity:1"
     width="32.092918"
     x="62.602825"
     y="281.65265"
     ns0:column="1"
     ns0:row="1"
     ns0:table-id="inkscape-table4" /><rect
     height="27.73737"
     id="inkscape-table4j-0"
     style="fill:none;stroke:#000000;stroke-width:1.68406332px;stroke-miterlimit:4;stroke-dasharray:none;stroke-opacity:1"
     width="32.092918"
     x="94.69574"
     y="281.65265"
     ns0:column="2"
     ns0:row="1"
     ns0:table-id="inkscape-table4" /><rect
     height="27.73737"
     id="inkscape-table4A-7"
     style="fill:none;stroke:#000000;stroke-width:1.68406332px;stroke-miterlimit:4;stroke-dasharray:none;stroke-opacity:1"
     width="32.092918"
     x="126.78866"
     y="281.65265"
     ns0:column="3"
     ns0:row="1"
     ns0:table-id="inkscape-table4" /><rect
     height="27.73737"
     id="inkscape-table4N-3"
     style="fill:none;stroke:#000000;stroke-width:1.68406332px;stroke-miterlimit:4;stroke-dasharray:none;stroke-opacity:1"
     width="32.092918"
     x="158.88158"
     y="281.65265"
     ns0:column="4"
     ns0:row="1"
     ns0:table-id="inkscape-table4" /><rect
     height="27.73737"
     id="inkscape-table45-1"
     style="fill:none;stroke:#000000;stroke-width:1.68406332px;stroke-miterlimit:4;stroke-dasharray:none;stroke-opacity:1"
     width="32.092918"
     x="30.509907"
     y="309.39001"
     ns0:column="0"
     ns0:row="2"
     ns0:table-id="inkscape-table4" /><rect
     height="27.73737"
     id="inkscape-table4mx-1"
     style="fill:none;stroke:#000000;stroke-width:1.68406332px;stroke-miterlimit:4;stroke-dasharray:none;stroke-opacity:1"
     width="32.092918"
     x="62.602825"
     y="309.39001"
     ns0:column="1"
     ns0:row="2"
     ns0:table-id="inkscape-table4" /><rect
     height="27.73737"
     id="inkscape-table4G-9"
     style="fill:none;stroke:#000000;stroke-width:1.68406332px;stroke-miterlimit:4;stroke-dasharray:none;stroke-opacity:1"
     width="32.092918"
     x="94.69574"
     y="309.39001"
     ns0:column="2"
     ns0:row="2"
     ns0:table-id="inkscape-table4" /><rect
     height="27.73737"
     id="inkscape-table4d-0"
     style="fill:none;stroke:#000000;stroke-width:1.68406332px;stroke-miterlimit:4;stroke-dasharray:none;stroke-opacity:1"
     width="32.092918"
     x="126.78866"
     y="309.39001"
     ns0:column="3"
     ns0:row="2"
     ns0:table-id="inkscape-table4" /><rect
     height="27.73737"
     id="inkscape-table4Ir-5"
     style="fill:none;stroke:#000000;stroke-width:1.68406332px;stroke-miterlimit:4;stroke-dasharray:none;stroke-opacity:1"
     width="32.092918"
     x="158.88158"
     y="309.39001"
     ns0:column="4"
     ns0:row="2"
     ns0:table-id="inkscape-table4" /><rect
     height="27.73737"
     id="inkscape-table4W-6"
     style="fill:none;stroke:#000000;stroke-width:1.68406332px;stroke-miterlimit:4;stroke-dasharray:none;stroke-opacity:1"
     width="32.092918"
     x="30.509907"
     y="337.12741"
     ns0:column="0"
     ns0:row="3"
     ns0:table-id="inkscape-table4" /><rect
     height="27.73737"
     id="inkscape-table4B-7"
     style="fill:none;stroke:#000000;stroke-width:1.68406332px;stroke-miterlimit:4;stroke-dasharray:none;stroke-opacity:1"
     width="32.092918"
     x="62.602825"
     y="337.12741"
     ns0:column="1"
     ns0:row="3"
     ns0:table-id="inkscape-table4" /><rect
     height="27.73737"
     id="inkscape-table4s-7"
     style="fill:none;stroke:#000000;stroke-width:1.68406332px;stroke-miterlimit:4;stroke-dasharray:none;stroke-opacity:1"
     width="32.092918"
     x="94.69574"
     y="337.12741"
     ns0:column="2"
     ns0:row="3"
     ns0:table-id="inkscape-table4" /><rect
     height="27.73737"
     id="inkscape-table4jT-4"
     style="fill:none;stroke:#000000;stroke-width:1.68406332px;stroke-miterlimit:4;stroke-dasharray:none;stroke-opacity:1"
     width="32.092918"
     x="126.78866"
     y="337.12741"
     ns0:column="3"
     ns0:row="3"
     ns0:table-id="inkscape-table4" /><rect
     height="27.73737"
     id="inkscape-table4Q-0"
     style="fill:none;stroke:#000000;stroke-width:1.68406332px;stroke-miterlimit:4;stroke-dasharray:none;stroke-opacity:1"
     width="32.092918"
     x="158.88158"
     y="337.12741"
     ns0:column="4"
     ns0:row="3"
     ns0:table-id="inkscape-table4" /><path
     d="m 20.82109,255.02122 1.855,1.856 -1.855,-6.496 -1.86,6.496 z"
     style="fill:#000000;fill-opacity:1;fill-rule:evenodd;stroke:#000000;stroke-width:0.46405101;stroke-linecap:butt;stroke-linejoin:miter;stroke-miterlimit:4;stroke-dasharray:none;stroke-opacity:1"
     id="path400-6-9-6"
     inkscape:connector-curvature="0" /></g><g
   id="g14"
   transform="matrix(0,-0.18497568,-0.99932209,0,668.33862,918.01855)"><path
     d="m 3285.456,289.66 h 161.746 v 32.355 h -161.746 z"
     style="fill:none;stroke:#000000;stroke-width:0.45648801;stroke-linecap:butt;stroke-linejoin:miter;stroke-miterlimit:4;stroke-dasharray:none;stroke-opacity:1"
     id="path16"
     inkscape:connector-curvature="0" /></g><g
   id="g18"
   transform="matrix(0,-0.18497568,-0.99932209,0,668.33862,918.01855)"><path
     d="m 3447.202,289.66 h 161.771 v 32.355 h -161.771 z"
     style="fill:none;stroke:#000000;stroke-width:0.45648801;stroke-linecap:butt;stroke-linejoin:miter;stroke-miterlimit:4;stroke-dasharray:none;stroke-opacity:1"
     id="path20"
     inkscape:connector-curvature="0" /></g><g
   id="g22"
   transform="matrix(0,-0.18497568,-0.99932209,0,668.33862,918.01855)"><path
     d="m 3608.973,289.66 h 161.746 v 32.355 h -161.746 z"
     style="fill:none;stroke:#000000;stroke-width:0.45648801;stroke-linecap:butt;stroke-linejoin:miter;stroke-miterlimit:4;stroke-dasharray:none;stroke-opacity:1"
     id="path24"
     inkscape:connector-curvature="0" /></g><g
   id="g26"
   transform="matrix(0,-0.18497568,-0.99932209,0,668.33862,918.01855)"><path
     d="m 3770.718,289.66 h 161.746 v 32.355 h -161.746 z"
     style="fill:none;stroke:#000000;stroke-width:0.45648801;stroke-linecap:butt;stroke-linejoin:miter;stroke-miterlimit:4;stroke-dasharray:none;stroke-opacity:1"
     id="path28"
     inkscape:connector-curvature="0" /></g><g
   id="g34"
   transform="matrix(0,-0.18497568,-0.99932209,0,668.33862,918.01855)"><path
     d="m 3285.456,322.016 h 161.746 v 32.348 h -161.746 z"
     style="fill:none;stroke:#000000;stroke-width:0.45648801;stroke-linecap:butt;stroke-linejoin:miter;stroke-miterlimit:4;stroke-dasharray:none;stroke-opacity:1"
     id="path36"
     inkscape:connector-curvature="0" /></g><g
   id="g38"
   transform="matrix(0,-0.18497568,-0.99932209,0,668.33862,918.01855)"><path
     d="m 3447.202,322.016 h 161.771 v 32.348 h -161.771 z"
     style="fill:none;stroke:#000000;stroke-width:0.45648801;stroke-linecap:butt;stroke-linejoin:miter;stroke-miterlimit:4;stroke-dasharray:none;stroke-opacity:1"
     id="path40"
     inkscape:connector-curvature="0" /></g><g
   id="g42"
   transform="matrix(0,-0.18497568,-0.99932209,0,668.33862,918.01855)"><path
     d="m 3608.973,322.016 h 161.746 v 32.348 h -161.746 z"
     style="fill:none;stroke:#000000;stroke-width:0.45648801;stroke-linecap:butt;stroke-linejoin:miter;stroke-miterlimit:4;stroke-dasharray:none;stroke-opacity:1"
     id="path44"
     inkscape:connector-curvature="0" /></g><g
   id="g46"
   transform="matrix(0,-0.18497568,-0.99932209,0,668.33862,918.01855)"><path
     d="m 3770.718,322.016 h 161.746 v 32.348 h -161.746 z"
     style="fill:none;stroke:#000000;stroke-width:0.45648801;stroke-linecap:butt;stroke-linejoin:miter;stroke-miterlimit:4;stroke-dasharray:none;stroke-opacity:1"
     id="path48"
     inkscape:connector-curvature="0" /></g><g
   id="g54"
   transform="matrix(0,-1.2063736,-0.99932209,0,668.33862,918.01855)"><path
     d="m 503.766,289.66 h 24.801 v 32.355 h -24.801 z"
     style="fill:none;stroke:#000000;stroke-width:0.17874999;stroke-linecap:butt;stroke-linejoin:miter;stroke-miterlimit:4;stroke-dasharray:none;stroke-opacity:1"
     id="path56"
     inkscape:connector-curvature="0" /></g><g
   id="g58"
   transform="matrix(0,-1.2063736,-0.99932209,0,668.33862,918.01855)"><path
     d="m 528.566,289.66 h 24.805 v 32.355 h -24.805 z"
     style="fill:#646464;fill-opacity:1;fill-rule:nonzero;stroke:#000000;stroke-width:0.178645;stroke-linecap:butt;stroke-linejoin:miter;stroke-miterlimit:4;stroke-dasharray:none;stroke-opacity:1"
     id="path60"
     inkscape:connector-curvature="0" /></g><g
   id="g62"
   transform="matrix(0,-1.2063736,-0.99932209,0,668.33862,918.01855)"><path
     d="m 553.371,289.66 h 24.801 v 32.355 h -24.801 z"
     style="fill:none;stroke:#000000;stroke-width:0.17874999;stroke-linecap:butt;stroke-linejoin:miter;stroke-miterlimit:4;stroke-dasharray:none;stroke-opacity:1"
     id="path64"
     inkscape:connector-curvature="0" /></g><g
   id="g66"
   transform="matrix(0,-1.2063736,-0.99932209,0,668.33862,918.01855)"><path
     d="m 578.172,289.66 h 24.801 v 32.355 h -24.801 z"
     style="fill:none;stroke:#000000;stroke-width:0.17874999;stroke-linecap:butt;stroke-linejoin:miter;stroke-miterlimit:4;stroke-dasharray:none;stroke-opacity:1"
     id="path68"
     inkscape:connector-curvature="0" /></g><g
   id="g74"
   transform="matrix(0,-1.2063736,-0.99932209,0,668.33862,918.01855)"><path
     d="m 503.766,322.016 h 24.801 v 32.348 h -24.801 z"
     style="fill:none;stroke:#000000;stroke-width:0.17874999;stroke-linecap:butt;stroke-linejoin:miter;stroke-miterlimit:4;stroke-dasharray:none;stroke-opacity:1"
     id="path76"
     inkscape:connector-curvature="0" /></g><g
   id="g78"
   transform="matrix(0,-1.2063736,-0.99932209,0,668.33862,918.01855)"><path
     d="m 528.566,322.016 h 24.805 v 32.348 h -24.805 z"
     style="fill:none;stroke:#000000;stroke-width:0.17874999;stroke-linecap:butt;stroke-linejoin:miter;stroke-miterlimit:4;stroke-dasharray:none;stroke-opacity:1"
     id="path80"
     inkscape:connector-curvature="0" /></g><g
   id="g82"
   transform="matrix(0,-1.2063736,-0.99932209,0,668.33862,918.01855)"><path
     d="m 553.371,322.016 h 24.801 v 32.348 h -24.801 z"
     style="fill:none;stroke:#000000;stroke-width:0.17874999;stroke-linecap:butt;stroke-linejoin:miter;stroke-miterlimit:4;stroke-dasharray:none;stroke-opacity:1"
     id="path84"
     inkscape:connector-curvature="0" /></g><g
   id="g86"
   transform="matrix(0,-1.2063736,-0.99932209,0,668.33862,918.01855)"><path
     d="m 578.172,322.016 h 24.801 v 32.348 h -24.801 z"
     style="fill:none;stroke:#000000;stroke-width:0.17874999;stroke-linecap:butt;stroke-linejoin:miter;stroke-miterlimit:4;stroke-dasharray:none;stroke-opacity:1"
     id="path88"
     inkscape:connector-curvature="0" /></g><g
   id="g94"
   transform="matrix(0,-1,-1,0,668.55692,814.96622)"><path
     d="m 496.523,292.309 v 62.504"
     style="fill:none;stroke:#000000;stroke-width:0.338698;stroke-linecap:butt;stroke-linejoin:miter;stroke-miterlimit:4;stroke-dasharray:none;stroke-opacity:1"
     id="path96"
     inkscape:connector-curvature="0" /></g><g
   id="g98"
   transform="matrix(-1,0,0,1,668.55692,814.96622)"><path
     d="m 295.695,-496.523 1.356,-1.356 -4.742,1.356 4.742,1.355 z"
     style="fill:#000000;fill-opacity:1;fill-rule:evenodd;stroke:#000000;stroke-width:0.338698;stroke-linecap:butt;stroke-linejoin:miter;stroke-miterlimit:4;stroke-dasharray:none;stroke-opacity:1"
     id="path100"
     inkscape:connector-curvature="0" /></g><g
   id="g102"
   transform="matrix(1,0,0,-1,668.55692,814.96622)"><path
     d="m -351.426,496.523 1.356,-1.355 -4.743,1.355 4.743,1.356 z"
     style="fill:#000000;fill-opacity:1;fill-rule:evenodd;stroke:#000000;stroke-width:0.338698;stroke-linecap:butt;stroke-linejoin:miter;stroke-miterlimit:4;stroke-dasharray:none;stroke-opacity:1"
     id="path104"
     inkscape:connector-curvature="0" /></g><text
   y="-323.45569"
   x="297.61581"
   transform="scale(0.99999991,-1.0000001)"
   style="font-variant:normal;font-weight:normal;font-size:16.38947868px;font-family:'DejaVu Sans';-inkscape-font-specification:DejaVuSans;writing-mode:lr-tb;fill:#000000;fill-opacity:1;fill-rule:nonzero;stroke:none"
   id="text108"><tspan
     x="297.61581 306.61365 316.62762 332.59097 342.93274 352.94672 363.32126 373.40079 383.77533 390.19998"
     y="-323.45569"
     sodipodi:role="line"
     id="tspan106">components</tspan></text>
<g
   id="g126"
   transform="matrix(0,-1.2063736,-0.99932209,0,668.33862,918.01855)"><path
     d="m 504.078,305.77 v -15.172 h 24.274 v 30.34 h -24.274 z"
     style="fill:#000000;fill-opacity:1;fill-rule:nonzero;stroke:#000000;stroke-width:1.01124704;stroke-linecap:butt;stroke-linejoin:miter;stroke-miterlimit:4;stroke-dasharray:none;stroke-opacity:1"
     id="path128"
     inkscape:connector-curvature="0" /></g><g
   id="g130"
   transform="matrix(0,-1.2063736,-0.99932209,0,668.33862,918.01855)"><path
     d="m 529.363,338.129 v -15.176 h 23.258 v 30.344 h -23.258 z"
     style="fill:#666666;fill-opacity:1;fill-rule:nonzero;stroke:#000000;stroke-width:1.01124704;stroke-linecap:butt;stroke-linejoin:miter;stroke-miterlimit:4;stroke-dasharray:none;stroke-opacity:1"
     id="path132"
     inkscape:connector-curvature="0" /></g><g
   id="g134"
   transform="matrix(0,-1.2063736,-0.99932209,0,668.33862,918.01855)"><path
     d="m 529.363,306.273 v -15.675 h 23.258 v 31.351 h -23.258 z"
     style="fill:#666666;fill-opacity:1;fill-rule:nonzero;stroke:#000000;stroke-width:1.01124704;stroke-linecap:butt;stroke-linejoin:miter;stroke-miterlimit:4;stroke-dasharray:none;stroke-opacity:1"
     id="path136"
     inkscape:connector-curvature="0" /></g><g
   id="g138"
   transform="matrix(0,-1.2063736,-0.99932209,0,668.33862,918.01855)"><path
     d="m 553.633,305.77 v -15.172 h 24.269 v 30.34 h -24.269 z"
     style="fill:#000000;fill-opacity:1;fill-rule:nonzero;stroke:#000000;stroke-width:1.01124704;stroke-linecap:butt;stroke-linejoin:miter;stroke-miterlimit:4;stroke-dasharray:none;stroke-opacity:1"
     id="path140"
     inkscape:connector-curvature="0" /></g><g
   id="g142"
   transform="matrix(0,-1.2063736,-0.99932209,0,668.33862,918.01855)"><path
     d="m 530.371,306.273 v -14.664 h 21.238 v 29.329 h -21.238 z"
     style="fill:#000000;fill-opacity:1;fill-rule:nonzero;stroke:#000000;stroke-width:1.01124704;stroke-linecap:butt;stroke-linejoin:miter;stroke-miterlimit:4;stroke-dasharray:none;stroke-opacity:1"
     id="path144"
     inkscape:connector-curvature="0" /></g><g
   id="g146"
   transform="matrix(0,-1.2063736,-0.99932209,0,668.33862,918.01855)"><path
     d="m 530.371,338.129 v -14.16 h 21.238 v 28.316 h -21.238 z"
     style="fill:#000000;fill-opacity:1;fill-rule:nonzero;stroke:#000000;stroke-width:1.01124704;stroke-linecap:butt;stroke-linejoin:miter;stroke-miterlimit:4;stroke-dasharray:none;stroke-opacity:1"
     id="path148"
     inkscape:connector-curvature="0" /></g><g
   id="g150"
   transform="matrix(0,-1.2063736,-0.99932209,0,668.33862,918.01855)"><path
     d="m 578.914,338.129 v -15.176 h 23.258 v 30.344 h -23.258 z"
     style="fill:#4d4d4d;fill-opacity:1;fill-rule:nonzero;stroke:#000000;stroke-width:1.01124704;stroke-linecap:butt;stroke-linejoin:miter;stroke-miterlimit:4;stroke-dasharray:none;stroke-opacity:1"
     id="path152"
     inkscape:connector-curvature="0" /></g><g
   id="g158"
   transform="matrix(0,-1.2063736,-0.99932209,0,668.33862,918.01855)"><path
     d="m 579.926,338.129 v -14.16 h 21.234 v 28.316 h -21.234 z"
     style="fill:#000000;fill-opacity:1;fill-rule:nonzero;stroke:#000000;stroke-width:1.01124704;stroke-linecap:butt;stroke-linejoin:miter;stroke-miterlimit:4;stroke-dasharray:none;stroke-opacity:1"
     id="path160"
     inkscape:connector-curvature="0" /></g><text
   y="304.08865"
   x="207.22548"
   transform="matrix(0,1,1,0,0,0)"
   style="font-variant:normal;font-weight:normal;font-size:16.38947868px;font-family:'DejaVu Sans';-inkscape-font-specification:DejaVuSans;writing-mode:lr-tb;fill:#000000;fill-opacity:1;fill-rule:nonzero;stroke:none;stroke-width:0.99999994"
   id="text404-2-8-4"><tspan
     style="stroke-width:0.99999994"
     x="207.22548 213.65016 218.19002 234.1534 244.23293 250.00203 256.73813 266.76846 282.73181 292.76215"
     y="304.08865"
     sodipodi:role="line"
     id="tspan402-9-1-6">timeframes</tspan></text>
<path
   inkscape:connector-curvature="0"
   id="path392-7-0-2"
   style="fill:none;stroke:#000000;stroke-width:0.46405101;stroke-linecap:butt;stroke-linejoin:miter;stroke-miterlimit:4;stroke-dasharray:none;stroke-opacity:1"
   d="m 307.64159,192.91161 v 117.328" /><path
   inkscape:connector-curvature="0"
   id="path400-6-2-8"
   style="fill:#000000;fill-opacity:1;fill-rule:evenodd;stroke:#000000;stroke-width:0.46405101;stroke-linecap:butt;stroke-linejoin:miter;stroke-miterlimit:4;stroke-dasharray:none;stroke-opacity:1"
   d="m 307.64159,305.59961 1.855,-1.856 -1.855,6.496 -1.86,-6.496 z" /><path
   inkscape:connector-curvature="0"
   id="path400-6-9-6-9"
   style="fill:#000000;fill-opacity:1;fill-rule:evenodd;stroke:#000000;stroke-width:0.46405101;stroke-linecap:butt;stroke-linejoin:miter;stroke-miterlimit:4;stroke-dasharray:none;stroke-opacity:1"
   d="m 307.64159,197.55161 1.855,1.856 -1.855,-6.496 -1.86,6.496 z" /><text
   xml:space="preserve"
   style="font-style:normal;font-variant:normal;font-weight:normal;font-stretch:normal;font-size:30px;line-height:1.25;font-family:sans-serif;-inkscape-font-specification:'sans-serif, Normal';font-variant-ligatures:normal;font-variant-caps:normal;font-variant-numeric:normal;font-feature-settings:normal;text-align:center;letter-spacing:0px;word-spacing:0px;writing-mode:lr-tb;text-anchor:middle;fill:#000000;fill-opacity:1;stroke:none;stroke-width:0.75"
   x="703.37189"
   y="-241.36778"
   id="text4001"
   transform="scale(1,-1)"><tspan
     sodipodi:role="line"
     id="tspan3999"
     x="703.37189"
     y="-241.36778"
     style="stroke-width:0.75">+</tspan></text>
<text
   xml:space="preserve"
   style="font-style:normal;font-variant:normal;font-weight:normal;font-stretch:normal;font-size:30px;line-height:1.25;font-family:sans-serif;-inkscape-font-specification:'sans-serif, Normal';font-variant-ligatures:normal;font-variant-caps:normal;font-variant-numeric:normal;font-feature-settings:normal;text-align:center;letter-spacing:0px;word-spacing:0px;writing-mode:lr-tb;text-anchor:middle;fill:#000000;fill-opacity:1;stroke:none;stroke-width:0.75"
   x="728.10577"
   y="-475.15485"
   id="text4005"
   transform="scale(1,-1)"><tspan
     sodipodi:role="line"
     id="tspan4003"
     x="728.10577"
     y="-475.15485"
     style="stroke-width:0.75">Noise</tspan></text>
<g
   id="g4312"
   transform="translate(30.574188,-69.358847)"><g
     transform="translate(-31.275788,5.7074361)"
     id="g4034"><g
       id="g166"
       transform="matrix(0,-1,-1,0,767.63747,750.91968)"><path
         d="M 388.812,122.637 H 326.309"
         style="fill:none;stroke:#000000;stroke-width:0.338698;stroke-linecap:butt;stroke-linejoin:miter;stroke-miterlimit:4;stroke-dasharray:none;stroke-opacity:1"
         id="path168"
         inkscape:connector-curvature="0" /></g><g
       id="g174"
       transform="matrix(0,-1,-1,0,767.63747,750.91968)"><path
         d="m 329.695,122.637 1.356,-1.356 -4.742,1.356 4.742,1.355 z"
         style="fill:#000000;fill-opacity:1;fill-rule:evenodd;stroke:#000000;stroke-width:0.338698;stroke-linecap:butt;stroke-linejoin:miter;stroke-miterlimit:4;stroke-dasharray:none;stroke-opacity:1"
         id="path176"
         inkscape:connector-curvature="0" /></g><text
       y="-651.86597"
       x="-441.70856"
       transform="matrix(0,-1.0000001,-0.99999991,0,0,0)"
       style="font-variant:normal;font-weight:normal;font-size:16.38947868px;font-family:'DejaVu Sans';-inkscape-font-specification:DejaVuSans;writing-mode:lr-tb;fill:#000000;fill-opacity:1;fill-rule:nonzero;stroke:none"
       id="text180"><tspan
         x="-441.70856 -432.71072 -422.69675 -406.7334 -396.39166 -386.37769 -376.00314 -365.92361 -355.54907 -349.12439"
         y="-651.86597"
         sodipodi:role="line"
         id="tspan178">components</tspan></text>
<g
       id="g170"
       transform="matrix(0,1,1,0,767.52203,747.77032)"><path
         d="m -385.422,-122.637 1.352,-1.355 -4.742,1.355 4.742,1.356 z"
         style="fill:#000000;fill-opacity:1;fill-rule:evenodd;stroke:#000000;stroke-width:0.338698;stroke-linecap:butt;stroke-linejoin:miter;stroke-miterlimit:4;stroke-dasharray:none;stroke-opacity:1"
         id="path172"
         inkscape:connector-curvature="0" /></g><g
       id="g5124-3"
       transform="translate(442.65565,38.827696)"><g
   transform="matrix(-1,0,0,1,319.00482,418.39305)"
   id="g378-6"><path
     inkscape:connector-curvature="0"
     id="path380-0"
     style="fill:#000000;fill-opacity:1;fill-rule:evenodd;stroke:#000000;stroke-width:0.54519099;stroke-linecap:butt;stroke-linejoin:miter;stroke-miterlimit:4;stroke-dasharray:none;stroke-opacity:1"
     d="m 130.074,-25.637 2.18,-2.179 -7.637,2.179 7.637,2.18 z" /></g><g
   transform="matrix(1,0,0,-1,319.00482,418.39305)"
   id="g382-6"><path
     inkscape:connector-curvature="0"
     id="path384-2"
     style="fill:#000000;fill-opacity:1;fill-rule:evenodd;stroke:#000000;stroke-width:0.54519099;stroke-linecap:butt;stroke-linejoin:miter;stroke-miterlimit:4;stroke-dasharray:none;stroke-opacity:1"
     d="m -281.117,25.637 2.183,-2.18 -7.632,2.18 7.632,2.179 z" /></g><g
   transform="matrix(0,-1,-1,0,319.00482,418.39305)"
   id="g374-6"><path
     inkscape:connector-curvature="0"
     id="path376-1"
     style="fill:none;stroke:#000000;stroke-width:0.54519099;stroke-linecap:butt;stroke-linejoin:miter;stroke-miterlimit:4;stroke-dasharray:none;stroke-opacity:1"
     d="M 25.637,124.617 V 286.566" /></g><text
   id="text388-8"
   style="font-variant:normal;font-weight:normal;font-size:16.38947868px;font-family:'DejaVu Sans';-inkscape-font-specification:DejaVuSans;writing-mode:lr-tb;fill:#000000;fill-opacity:1;fill-rule:nonzero;stroke:none"
   transform="scale(0.99999991,-1.0000001)"
   x="87.787277"
   y="-400.95593"><tspan
     id="tspan386-7"
     sodipodi:role="line"
     y="-400.95593"
     x="87.787277 97.473465 106.93018 116.10833 126.18784 130.72775">voxels</tspan></text>






</g><rect
       height="30.385468"
       id="inkscape-table3"
       style="fill:none;stroke:#000000;stroke-width:1.7532593px;stroke-miterlimit:4;stroke-dasharray:none;stroke-opacity:1"
       width="31.752943"
       x="475.72449"
       y="359.06738"
       ns0:column="0"
       ns0:row="0"
       ns0:table-id="inkscape-table3" /><rect
       height="30.385468"
       id="inkscape-table3P"
       style="fill:none;stroke:#000000;stroke-width:1.7532593px;stroke-miterlimit:4;stroke-dasharray:none;stroke-opacity:1"
       width="31.752943"
       x="507.47748"
       y="359.06738"
       ns0:column="1"
       ns0:row="0"
       ns0:table-id="inkscape-table3" /><rect
       height="30.385468"
       id="inkscape-table36"
       style="fill:none;stroke:#000000;stroke-width:1.7532593px;stroke-miterlimit:4;stroke-dasharray:none;stroke-opacity:1"
       width="31.752943"
       x="539.23041"
       y="359.06738"
       ns0:column="2"
       ns0:row="0"
       ns0:table-id="inkscape-table3" /><rect
       height="30.385468"
       id="inkscape-table3D"
       style="fill:none;stroke:#000000;stroke-width:1.7532593px;stroke-miterlimit:4;stroke-dasharray:none;stroke-opacity:1"
       width="31.752943"
       x="570.98334"
       y="359.06738"
       ns0:column="3"
       ns0:row="0"
       ns0:table-id="inkscape-table3" /><rect
       height="30.385468"
       id="inkscape-table3c"
       style="fill:none;stroke:#000000;stroke-width:1.7532593px;stroke-miterlimit:4;stroke-dasharray:none;stroke-opacity:1"
       width="31.752943"
       x="602.73621"
       y="359.06738"
       ns0:column="4"
       ns0:row="0"
       ns0:table-id="inkscape-table3" /><rect
       height="30.385468"
       id="inkscape-table33"
       style="fill:none;stroke:#000000;stroke-width:1.7532593px;stroke-miterlimit:4;stroke-dasharray:none;stroke-opacity:1"
       width="31.752943"
       x="475.72449"
       y="389.45288"
       ns0:column="0"
       ns0:row="1"
       ns0:table-id="inkscape-table3" /><rect
       height="30.385468"
       id="inkscape-table3t"
       style="fill:none;stroke:#000000;stroke-width:1.7532593px;stroke-miterlimit:4;stroke-dasharray:none;stroke-opacity:1"
       width="31.752943"
       x="507.47748"
       y="389.45288"
       ns0:column="1"
       ns0:row="1"
       ns0:table-id="inkscape-table3" /><rect
       height="30.385468"
       id="inkscape-table3y"
       style="fill:none;stroke:#000000;stroke-width:1.7532593px;stroke-miterlimit:4;stroke-dasharray:none;stroke-opacity:1"
       width="31.752943"
       x="539.23041"
       y="389.45288"
       ns0:column="2"
       ns0:row="1"
       ns0:table-id="inkscape-table3" /><rect
       height="30.385468"
       id="inkscape-table3K"
       style="fill:none;stroke:#000000;stroke-width:1.7532593px;stroke-miterlimit:4;stroke-dasharray:none;stroke-opacity:1"
       width="31.752943"
       x="570.98334"
       y="389.45288"
       ns0:column="3"
       ns0:row="1"
       ns0:table-id="inkscape-table3" /><rect
       height="30.385468"
       id="inkscape-table3X"
       style="fill:none;stroke:#000000;stroke-width:1.7532593px;stroke-miterlimit:4;stroke-dasharray:none;stroke-opacity:1"
       width="31.752943"
       x="602.73621"
       y="389.45288"
       ns0:column="4"
       ns0:row="1"
       ns0:table-id="inkscape-table3" /></g><path
     inkscape:connector-curvature="0"
     id="path4250"
     d="m 477.21996,410.44639 v 13.86092 h 14.67626 14.67627 v -13.86092 -13.86091 h -14.67627 -14.67626 z"
     style="opacity:1;fill:#ff0000;fill-opacity:1;stroke:none;stroke-width:3.08163047;stroke-miterlimit:4;stroke-dasharray:none;stroke-opacity:1" /><path
     inkscape:connector-curvature="0"
     id="path4252"
     d="m 540.8171,410.44639 v 13.86092 h 14.67626 14.67627 V 410.44639 396.58548 H 555.49336 540.8171 Z"
     style="opacity:1;fill:#ff0000;fill-opacity:1;stroke:none;stroke-width:3.08163047;stroke-miterlimit:4;stroke-dasharray:none;stroke-opacity:1" /><path
     inkscape:connector-curvature="0"
     id="path4254"
     d="m 572.61568,410.44639 v 13.86092 h 14.67626 14.67626 v -13.86092 -13.86091 h -14.67626 -14.67626 z"
     style="opacity:1;fill:#ff0000;fill-opacity:1;stroke:none;stroke-width:3.08163047;stroke-miterlimit:4;stroke-dasharray:none;stroke-opacity:1" /><path
     inkscape:connector-curvature="0"
     id="path4256"
     d="m 445.42139,380.27852 v 13.86092 h 14.67626 14.67626 v -13.86092 -13.86091 h -14.67626 -14.67626 z"
     style="opacity:1;fill:#00ff00;fill-opacity:1;stroke:none;stroke-width:3.08163047;stroke-miterlimit:4;stroke-dasharray:none;stroke-opacity:1" /><path
     inkscape:connector-curvature="0"
     id="path4258"
     d="m 509.01853,380.27852 v 13.86092 h 14.67627 14.67626 V 380.27852 366.41761 H 523.6948 509.01853 Z"
     style="opacity:1;fill:#00ff00;fill-opacity:1;stroke:none;stroke-width:3.08163047;stroke-miterlimit:4;stroke-dasharray:none;stroke-opacity:1" /><path
     inkscape:connector-curvature="0"
     id="path4260"
     d="m 540.8171,380.27852 v 13.86092 h 14.67626 14.67627 V 380.27852 366.41761 H 555.49336 540.8171 Z"
     style="opacity:1;fill:#00ff00;fill-opacity:1;stroke:none;stroke-width:3.08163047;stroke-miterlimit:4;stroke-dasharray:none;stroke-opacity:1" /></g><g
   id="g4348"
   transform="translate(36.366923,87.242234)"><g
     id="g4034-3"
     transform="translate(-34.622479,-333.21367)"><g
       id="g166-7"
       transform="matrix(0,-1,-1,0,767.63747,750.91968)"><path
         d="M 388.812,122.637 H 326.309"
         style="fill:none;stroke:#000000;stroke-width:0.338698;stroke-linecap:butt;stroke-linejoin:miter;stroke-miterlimit:4;stroke-dasharray:none;stroke-opacity:1"
         id="path168-9"
         inkscape:connector-curvature="0" /></g><g
       id="g174-3"
       transform="matrix(0,-1,-1,0,767.63747,750.91968)"><path
         d="m 329.695,122.637 1.356,-1.356 -4.742,1.356 4.742,1.355 z"
         style="fill:#000000;fill-opacity:1;fill-rule:evenodd;stroke:#000000;stroke-width:0.338698;stroke-linecap:butt;stroke-linejoin:miter;stroke-miterlimit:4;stroke-dasharray:none;stroke-opacity:1"
         id="path176-7"
         inkscape:connector-curvature="0" /></g><text
       y="-651.86597"
       x="-441.70856"
       transform="matrix(0,-1.0000001,-0.99999991,0,0,0)"
       style="font-variant:normal;font-weight:normal;font-size:16.38947868px;font-family:'DejaVu Sans';-inkscape-font-specification:DejaVuSans;writing-mode:lr-tb;fill:#000000;fill-opacity:1;fill-rule:nonzero;stroke:none"
       id="text180-8"><tspan
         x="-441.70856 -432.71072 -422.69675 -406.7334 -396.39166 -386.37769 -376.00314 -365.92361 -355.54907 -349.12439"
         y="-651.86597"
         sodipodi:role="line"
         id="tspan178-7">components</tspan></text>
<g
       id="g170-4"
       transform="matrix(0,1,1,0,767.52203,747.77032)"><path
         d="m -385.422,-122.637 1.352,-1.355 -4.742,1.355 4.742,1.356 z"
         style="fill:#000000;fill-opacity:1;fill-rule:evenodd;stroke:#000000;stroke-width:0.338698;stroke-linecap:butt;stroke-linejoin:miter;stroke-miterlimit:4;stroke-dasharray:none;stroke-opacity:1"
         id="path172-1"
         inkscape:connector-curvature="0" /></g><g
       id="g5124-3-9"
       transform="translate(442.65565,38.827696)"><g
         transform="matrix(-1,0,0,1,319.00482,418.39305)"
         id="g378-6-0"><path
           inkscape:connector-curvature="0"
           id="path380-0-9"
           style="fill:#000000;fill-opacity:1;fill-rule:evenodd;stroke:#000000;stroke-width:0.54519099;stroke-linecap:butt;stroke-linejoin:miter;stroke-miterlimit:4;stroke-dasharray:none;stroke-opacity:1"
           d="m 130.074,-25.637 2.18,-2.179 -7.637,2.179 7.637,2.18 z" /></g><g
         transform="matrix(1,0,0,-1,319.00482,418.39305)"
         id="g382-6-8"><path
           inkscape:connector-curvature="0"
           id="path384-2-8"
           style="fill:#000000;fill-opacity:1;fill-rule:evenodd;stroke:#000000;stroke-width:0.54519099;stroke-linecap:butt;stroke-linejoin:miter;stroke-miterlimit:4;stroke-dasharray:none;stroke-opacity:1"
           d="m -281.117,25.637 2.183,-2.18 -7.632,2.18 7.632,2.179 z" /></g><g
         transform="matrix(0,-1,-1,0,319.00482,418.39305)"
         id="g374-6-5"><path
           inkscape:connector-curvature="0"
           id="path376-1-8"
           style="fill:none;stroke:#000000;stroke-width:0.54519099;stroke-linecap:butt;stroke-linejoin:miter;stroke-miterlimit:4;stroke-dasharray:none;stroke-opacity:1"
           d="M 25.637,124.617 V 286.566" /></g><text
         id="text388-8-4"
         style="font-variant:normal;font-weight:normal;font-size:16.38947868px;font-family:'DejaVu Sans';-inkscape-font-specification:DejaVuSans;writing-mode:lr-tb;fill:#000000;fill-opacity:1;fill-rule:nonzero;stroke:none"
         transform="scale(0.99999991,-1.0000001)"
         x="87.787277"
         y="-400.95593"><tspan
           id="tspan386-7-3"
           sodipodi:role="line"
           y="-400.95593"
           x="87.787277 97.473465 106.93018 116.10833 126.18784 130.72775">voxels</tspan></text>
</g><rect
       height="30.385468"
       id="inkscape-table3-7"
       style="fill:none;stroke:#000000;stroke-width:1.7532593px;stroke-miterlimit:4;stroke-dasharray:none;stroke-opacity:1"
       width="31.752943"
       x="475.72449"
       y="359.06738"
       ns0:column="0"
       ns0:row="0"
       ns0:table-id="inkscape-table3" /><rect
       height="30.385468"
       id="inkscape-table3P-1"
       style="fill:none;stroke:#000000;stroke-width:1.7532593px;stroke-miterlimit:4;stroke-dasharray:none;stroke-opacity:1"
       width="31.752943"
       x="507.47748"
       y="359.06738"
       ns0:column="1"
       ns0:row="0"
       ns0:table-id="inkscape-table3" /><rect
       height="30.385468"
       id="inkscape-table36-3"
       style="fill:none;stroke:#000000;stroke-width:1.7532593px;stroke-miterlimit:4;stroke-dasharray:none;stroke-opacity:1"
       width="31.752943"
       x="539.23041"
       y="359.06738"
       ns0:column="2"
       ns0:row="0"
       ns0:table-id="inkscape-table3" /><rect
       height="30.385468"
       id="inkscape-table3D-8"
       style="fill:none;stroke:#000000;stroke-width:1.7532593px;stroke-miterlimit:4;stroke-dasharray:none;stroke-opacity:1"
       width="31.752943"
       x="570.98334"
       y="359.06738"
       ns0:column="3"
       ns0:row="0"
       ns0:table-id="inkscape-table3" /><rect
       height="30.385468"
       id="inkscape-table3c-0"
       style="fill:none;stroke:#000000;stroke-width:1.7532593px;stroke-miterlimit:4;stroke-dasharray:none;stroke-opacity:1"
       width="31.752943"
       x="602.73621"
       y="359.06738"
       ns0:column="4"
       ns0:row="0"
       ns0:table-id="inkscape-table3" /><rect
       height="30.385468"
       id="inkscape-table33-9"
       style="fill:none;stroke:#000000;stroke-width:1.7532593px;stroke-miterlimit:4;stroke-dasharray:none;stroke-opacity:1"
       width="31.752943"
       x="475.72449"
       y="389.45288"
       ns0:column="0"
       ns0:row="1"
       ns0:table-id="inkscape-table3" /><rect
       height="30.385468"
       id="inkscape-table3t-7"
       style="fill:none;stroke:#000000;stroke-width:1.7532593px;stroke-miterlimit:4;stroke-dasharray:none;stroke-opacity:1"
       width="31.752943"
       x="507.47748"
       y="389.45288"
       ns0:column="1"
       ns0:row="1"
       ns0:table-id="inkscape-table3" /><rect
       height="30.385468"
       id="inkscape-table3y-9"
       style="fill:none;stroke:#000000;stroke-width:1.7532593px;stroke-miterlimit:4;stroke-dasharray:none;stroke-opacity:1"
       width="31.752943"
       x="539.23041"
       y="389.45288"
       ns0:column="2"
       ns0:row="1"
       ns0:table-id="inkscape-table3" /><rect
       height="30.385468"
       id="inkscape-table3K-9"
       style="fill:none;stroke:#000000;stroke-width:1.7532593px;stroke-miterlimit:4;stroke-dasharray:none;stroke-opacity:1"
       width="31.752943"
       x="570.98334"
       y="389.45288"
       ns0:column="3"
       ns0:row="1"
       ns0:table-id="inkscape-table3" /><rect
       height="30.385468"
       id="inkscape-table3X-3"
       style="fill:none;stroke:#000000;stroke-width:1.7532593px;stroke-miterlimit:4;stroke-dasharray:none;stroke-opacity:1"
       width="31.752943"
       x="602.73621"
       y="389.45288"
       ns0:column="4"
       ns0:row="1"
       ns0:table-id="inkscape-table3" /></g><path
     inkscape:connector-curvature="0"
     id="path4262"
     d="m 473.9274,71.261637 v 13.860916 h 14.67626 14.67626 V 71.261637 57.400722 H 488.60366 473.9274 Z"
     style="opacity:1;fill:#ff0000;fill-opacity:1;stroke:none;stroke-width:3.08163047;stroke-miterlimit:4;stroke-dasharray:none;stroke-opacity:1" /><path
     inkscape:connector-curvature="0"
     id="path4264"
     d="m 505.72597,71.261637 v 13.860916 h 14.67626 14.67626 V 71.261637 57.400722 h -14.67626 -14.67626 z"
     style="opacity:1;fill:#ff0000;fill-opacity:1;stroke:none;stroke-width:3.08163047;stroke-miterlimit:4;stroke-dasharray:none;stroke-opacity:1" /><path
     inkscape:connector-curvature="0"
     id="path4266"
     d="m 537.52454,71.261637 v 13.860916 h 14.67626 14.67627 V 71.261637 57.400722 H 552.2008 537.52454 Z"
     style="opacity:1;fill:#ff0000;fill-opacity:1;stroke:none;stroke-width:3.08163047;stroke-miterlimit:4;stroke-dasharray:none;stroke-opacity:1" /><path
     inkscape:connector-curvature="0"
     id="path4268"
     d="m 442.12882,41.093757 v 13.860915 h 14.67626 14.67627 V 41.093757 27.232841 h -14.67627 -14.67626 z"
     style="opacity:1;fill:#00ff00;fill-opacity:1;stroke:none;stroke-width:3.08163047;stroke-miterlimit:4;stroke-dasharray:none;stroke-opacity:1" /><path
     inkscape:connector-curvature="0"
     id="path4274"
     d="m 537.52454,41.093757 v 13.860915 h 14.67626 14.67627 V 41.093757 27.232841 H 552.2008 537.52454 Z"
     style="opacity:1;fill:#00ff00;fill-opacity:1;stroke:none;stroke-width:3.08163047;stroke-miterlimit:4;stroke-dasharray:none;stroke-opacity:1" /><path
     inkscape:connector-curvature="0"
     id="path4276"
     d="m 569.32311,41.093757 v 13.860915 h 14.67626 14.67627 V 41.093757 27.232841 h -14.67627 -14.67626 z"
     style="opacity:1;fill:#00ff00;fill-opacity:1;stroke:none;stroke-width:3.08163047;stroke-miterlimit:4;stroke-dasharray:none;stroke-opacity:1" /></g><path
   style="fill:none;stroke:#000000;stroke-width:1.80000007;stroke-linecap:butt;stroke-linejoin:miter;stroke-miterlimit:4;stroke-dasharray:none;stroke-opacity:1"
   d="M 33.173883,416.58049 H 7.275787 V 83.651121 h 25.636704"
   id="path4356"
   inkscape:connector-curvature="0"
   sodipodi:nodetypes="cccc" /><path
   style="fill:none;stroke:#000000;stroke-width:1.80000007;stroke-linecap:butt;stroke-linejoin:miter;stroke-miterlimit:4;stroke-dasharray:none;stroke-opacity:1"
   d="m 223.67388,416.58049 h 25.8981 V 83.65112 h -23.19066"
   id="path4356-0"
   inkscape:connector-curvature="0"
   sodipodi:nodetypes="cccc" /><path
   style="fill:none;stroke:#000000;stroke-width:1.80000007;stroke-linecap:butt;stroke-linejoin:miter;stroke-miterlimit:4;stroke-dasharray:none;stroke-opacity:1"
   d="M 446.47007,416.58049 H 420.57198 V 83.65112 h 25.6367"
   id="path4356-6"
   inkscape:connector-curvature="0"
   sodipodi:nodetypes="cccc" /><path
   style="fill:none;stroke:#000000;stroke-width:1.80000007;stroke-linecap:butt;stroke-linejoin:miter;stroke-miterlimit:4;stroke-dasharray:none;stroke-opacity:1"
   d="m 647.47007,416.58049 h 25.8981 V 83.65111 h -23.19066"
   id="path4356-0-5"
   inkscape:connector-curvature="0"
   sodipodi:nodetypes="cccc" /><text
   xml:space="preserve"
   style="font-style:normal;font-variant:normal;font-weight:normal;font-stretch:normal;font-size:70px;line-height:1.25;font-family:sans-serif;-inkscape-font-specification:'sans-serif, Normal';font-variant-ligatures:normal;font-variant-caps:normal;font-variant-numeric:normal;font-feature-settings:normal;text-align:center;letter-spacing:0px;word-spacing:0px;writing-mode:lr-tb;text-anchor:middle;fill:#000000;fill-opacity:1;stroke:none;stroke-width:0.75"
   x="324.50848"
   y="-58.705051"
   id="text4413"
   transform="scale(1,-1)"><tspan
     sodipodi:role="line"
     id="tspan4411"
     x="324.50848"
     y="3.2285423"
     style="stroke-width:0.75"></tspan></text>
<text
   xml:space="preserve"
   style="font-style:normal;font-variant:normal;font-weight:normal;font-stretch:normal;font-size:70px;line-height:1.25;font-family:sans-serif;-inkscape-font-specification:'sans-serif, Normal';font-variant-ligatures:normal;font-variant-caps:normal;font-variant-numeric:normal;font-feature-settings:normal;text-align:center;letter-spacing:0px;word-spacing:0px;writing-mode:lr-tb;text-anchor:middle;fill:#000000;fill-opacity:1;stroke:none;stroke-width:0.75"
   x="-235.00012"
   y="-227.14079"
   id="text4451"
   transform="matrix(0,-1,-1,0,0,0)"><tspan
     sodipodi:role="line"
     id="tspan4449"
     x="-235.00012"
     y="-227.14079"
     style="font-size:30px;stroke-width:0.75">...</tspan></text>
<text
   xml:space="preserve"
   style="font-style:normal;font-variant:normal;font-weight:normal;font-stretch:normal;font-size:70px;line-height:1.25;font-family:sans-serif;-inkscape-font-specification:'sans-serif, Normal';font-variant-ligatures:normal;font-variant-caps:normal;font-variant-numeric:normal;font-feature-settings:normal;text-align:center;letter-spacing:0px;word-spacing:0px;writing-mode:lr-tb;text-anchor:middle;fill:#000000;fill-opacity:1;stroke:none;stroke-width:0.75"
   x="-235.00012"
   y="-440.66254"
   id="text4451-9"
   transform="matrix(0,-1,-1,0,0,0)"><tspan
     sodipodi:role="line"
     id="tspan4449-1"
     x="-235.00012"
     y="-440.66254"
     style="font-size:30px;stroke-width:0.75">...</tspan></text>
<path
   style="opacity:1;fill:#00ff00;fill-opacity:1;stroke:none;stroke-width:2.60911369;stroke-miterlimit:4;stroke-dasharray:none;stroke-opacity:1"
   d="m 52.814285,231.41306 v -16.85052 h 19.568351 19.568351 v 16.85052 16.85053 H 72.382636 52.814285 Z"
   id="path4503"
   inkscape:connector-curvature="0"
   transform="matrix(0.75000002,0,0,-0.75000002,0,544.25197)" /><path
   style="opacity:1;fill:#00ff00;fill-opacity:1;stroke:none;stroke-width:2.60911369;stroke-miterlimit:4;stroke-dasharray:none;stroke-opacity:1"
   d="m 137.61047,231.41306 v -16.85052 h 20.11192 20.11192 v 16.85052 16.85053 h -20.11192 -20.11192 z"
   id="path4505"
   inkscape:connector-curvature="0"
   transform="matrix(0.75000002,0,0,-0.75000002,0,544.25197)" /><path
   style="opacity:1;fill:#00ff00;fill-opacity:1;stroke:none;stroke-width:2.60911369;stroke-miterlimit:4;stroke-dasharray:none;stroke-opacity:1"
   d="m 181.0957,231.41306 v -16.85052 h 19.56835 19.56835 v 16.85052 16.85053 H 200.66405 181.0957 Z"
   id="path4507"
   inkscape:connector-curvature="0"
   transform="matrix(0.75000002,0,0,-0.75000002,0,544.25197)" /><path
   style="opacity:1;fill:#00ff00;fill-opacity:1;stroke:none;stroke-width:2.60911369;stroke-miterlimit:4;stroke-dasharray:none;stroke-opacity:1"
   d="m 52.814285,268.37551 v -16.85053 h 19.568351 19.568351 v 16.85053 16.85052 H 72.382636 52.814285 Z"
   id="path4509"
   inkscape:connector-curvature="0"
   transform="matrix(0.75000002,0,0,-0.75000002,0,544.25197)" /><path
   style="opacity:1;fill:#00ff00;fill-opacity:1;stroke:none;stroke-width:2.60911369;stroke-miterlimit:4;stroke-dasharray:none;stroke-opacity:1"
   d="m 137.61047,268.37551 v -16.85053 h 20.11192 20.11192 v 16.85053 16.85052 h -20.11192 -20.11192 z"
   id="path4511"
   inkscape:connector-curvature="0"
   transform="matrix(0.75000002,0,0,-0.75000002,0,544.25197)" /><path
   style="opacity:1;fill:#ff0000;fill-opacity:1;stroke:none;stroke-width:2.60911369;stroke-miterlimit:4;stroke-dasharray:none;stroke-opacity:1"
   d="m 95.212379,268.37551 v -16.85053 h 19.568351 19.56835 v 16.85053 16.85052 H 114.78073 95.212379 Z"
   id="path4513"
   inkscape:connector-curvature="0"
   transform="matrix(0.75000002,0,0,-0.75000002,0,544.25197)" /><path
   style="opacity:1;fill:#ff0000;fill-opacity:1;stroke:none;stroke-width:2.60911369;stroke-miterlimit:4;stroke-dasharray:none;stroke-opacity:1"
   d="m 223.49379,268.37551 v -16.85053 h 19.56835 19.56835 v 16.85053 16.85052 h -19.56835 -19.56835 z"
   id="path4515"
   inkscape:connector-curvature="0"
   transform="matrix(0.75000002,0,0,-0.75000002,0,544.25197)" /><path
   style="opacity:1;fill:#ffff00;fill-opacity:1;stroke:none;stroke-width:2.60911369;stroke-miterlimit:4;stroke-dasharray:none;stroke-opacity:1"
   d="m 181.0957,268.37551 v -16.85053 h 19.56835 19.56835 v 16.85053 16.85052 H 200.66405 181.0957 Z"
   id="path4517"
   inkscape:connector-curvature="0"
   transform="matrix(0.75000002,0,0,-0.75000002,0,544.25197)" /><path
   style="opacity:1;fill:#ff0000;fill-opacity:1;stroke:none;stroke-width:2.60911369;stroke-miterlimit:4;stroke-dasharray:none;stroke-opacity:1"
   d="m 95.212379,305.33795 v -16.85053 h 19.568351 19.56835 v 16.85053 16.85052 H 114.78073 95.212379 Z"
   id="path4519"
   inkscape:connector-curvature="0"
   transform="matrix(0.75000002,0,0,-0.75000002,0,544.25197)" /><path
   style="opacity:1;fill:#ff0000;fill-opacity:1;stroke:none;stroke-width:2.60911369;stroke-miterlimit:4;stroke-dasharray:none;stroke-opacity:1"
   d="m 181.0957,305.33795 v -16.85053 h 19.56835 19.56835 v 16.85053 16.85052 H 200.66405 181.0957 Z"
   id="path4521"
   inkscape:connector-curvature="0"
   transform="matrix(0.75000002,0,0,-0.75000002,0,544.25197)" /><path
   style="opacity:1;fill:#ff0000;fill-opacity:1;stroke:none;stroke-width:2.60911369;stroke-miterlimit:4;stroke-dasharray:none;stroke-opacity:1"
   d="m 223.49379,305.33795 v -16.85053 h 19.56835 19.56835 v 16.85053 16.85052 h -19.56835 -19.56835 z"
   id="path4523"
   inkscape:connector-curvature="0"
   transform="matrix(0.75000002,0,0,-0.75000002,0,544.25197)" /><path
   style="opacity:1;fill:#ff0000;fill-opacity:1;stroke:none;stroke-width:2.60911369;stroke-miterlimit:4;stroke-dasharray:none;stroke-opacity:1"
   d="m 52.814285,342.30039 v -16.85053 h 19.568351 19.568351 v 16.85053 16.85052 H 72.382636 52.814285 Z"
   id="path4525"
   inkscape:connector-curvature="0"
   transform="matrix(0.75000002,0,0,-0.75000002,0,544.25197)" /><path
   style="opacity:1;fill:#ff0000;fill-opacity:1;stroke:none;stroke-width:2.60911369;stroke-miterlimit:4;stroke-dasharray:none;stroke-opacity:1"
   d="m 137.61047,342.30039 v -16.85053 h 20.11192 20.11192 v 16.85053 16.85052 h -20.11192 -20.11192 z"
   id="path4527"
   inkscape:connector-curvature="0"
   transform="matrix(0.75000002,0,0,-0.75000002,0,544.25197)" /><path
   style="opacity:1;fill:#00ff00;fill-opacity:1;stroke:none;stroke-width:2.60911369;stroke-miterlimit:4;stroke-dasharray:none;stroke-opacity:1"
   d="m 181.0957,342.30039 v -16.85053 h 19.56835 19.56835 v 16.85053 16.85052 H 200.66405 181.0957 Z"
   id="path4529"
   inkscape:connector-curvature="0"
   transform="matrix(0.75000002,0,0,-0.75000002,0,544.25197)" /><path
   style="opacity:1;fill:#00ff00;fill-opacity:1;stroke:none;stroke-width:2.60911369;stroke-miterlimit:4;stroke-dasharray:none;stroke-opacity:1"
   d="m 52.814285,342.30039 v -16.85053 h 19.568351 19.568351 v 16.85053 16.85052 H 72.382636 52.814285 Z"
   id="path4531"
   inkscape:connector-curvature="0"
   transform="matrix(0.75000002,0,0,-0.75000002,0,544.25197)" /><path
   style="opacity:1;fill:#00ff00;fill-opacity:1;stroke:none;stroke-width:2.60911369;stroke-miterlimit:4;stroke-dasharray:none;stroke-opacity:1"
   d="m 137.61047,342.30039 v -16.85053 h 20.11192 20.11192 v 16.85053 16.85052 h -20.11192 -20.11192 z"
   id="path4533"
   inkscape:connector-curvature="0"
   transform="matrix(0.75000002,0,0,-0.75000002,0,544.25197)" /><path
   style="opacity:1;fill:#00ff00;fill-opacity:1;stroke:none;stroke-width:2.60911369;stroke-miterlimit:4;stroke-dasharray:none;stroke-opacity:1"
   d="m 52.814285,469.49467 v -16.85053 h 19.568351 19.568351 v 16.85053 16.85052 H 72.382636 52.814285 Z"
   id="path4535"
   inkscape:connector-curvature="0"
   transform="matrix(0.75000002,0,0,-0.75000002,0,544.25197)" /><path
   style="opacity:1;fill:#00ff00;fill-opacity:1;stroke:none;stroke-width:2.60911369;stroke-miterlimit:4;stroke-dasharray:none;stroke-opacity:1"
   d="m 181.0957,469.49467 v -16.85053 h 19.56835 19.56835 v 16.85053 16.85052 H 200.66405 181.0957 Z"
   id="path4537"
   inkscape:connector-curvature="0"
   transform="matrix(0.75000002,0,0,-0.75000002,0,544.25197)" /><path
   style="opacity:1;fill:#00ff00;fill-opacity:1;stroke:none;stroke-width:2.60911369;stroke-miterlimit:4;stroke-dasharray:none;stroke-opacity:1"
   d="m 223.49379,469.49467 v -16.85053 h 19.56835 19.56835 v 16.85053 16.85052 h -19.56835 -19.56835 z"
   id="path4539"
   inkscape:connector-curvature="0"
   transform="matrix(0.75000002,0,0,-0.75000002,0,544.25197)" /><path
   style="opacity:1;fill:#00ff00;fill-opacity:1;stroke:none;stroke-width:2.60911369;stroke-miterlimit:4;stroke-dasharray:none;stroke-opacity:1"
   d="m 52.814285,580.38199 v -16.85052 h 19.568351 19.568351 v 16.85052 16.85053 H 72.382636 52.814285 Z"
   id="path4541"
   inkscape:connector-curvature="0"
   transform="matrix(0.75000002,0,0,-0.75000002,0,544.25197)" /><path
   style="opacity:1;fill:#00ff00;fill-opacity:1;stroke:none;stroke-width:2.60911369;stroke-miterlimit:4;stroke-dasharray:none;stroke-opacity:1"
   d="m 181.0957,580.38199 v -16.85052 h 19.56835 19.56835 v 16.85052 16.85053 H 200.66405 181.0957 Z"
   id="path4543"
   inkscape:connector-curvature="0"
   transform="matrix(0.75000002,0,0,-0.75000002,0,544.25197)" /><path
   style="opacity:1;fill:#00ff00;fill-opacity:1;stroke:none;stroke-width:2.60911369;stroke-miterlimit:4;stroke-dasharray:none;stroke-opacity:1"
   d="m 223.49379,580.38199 v -16.85052 h 19.56835 19.56835 v 16.85052 16.85053 h -19.56835 -19.56835 z"
   id="path4545"
   inkscape:connector-curvature="0"
   transform="matrix(0.75000002,0,0,-0.75000002,0,544.25197)" /></g><ns0:tables
     count="5"><ns0:table
       columns="4"
       rows="5"
       table-id="inkscape-table0" /><ns0:table
       table-id="inkscape-table1"
       rows="5"
       columns="4" /><ns0:table
       columns="4"
       rows="5"
       table-id="inkscape-table2" /><ns0:table
       table-id="inkscape-table3"
       rows="2"
       columns="5" /><ns0:table
       columns="5"
       rows="4"
       table-id="inkscape-table4" /></ns0:tables></svg>