<?xml version="1.0" encoding="UTF-8" standalone="no"?>
<!-- Created with Inkscape (http://www.inkscape.org/) -->

<svg
   xmlns:dc="http://purl.org/dc/elements/1.1/"
   xmlns:cc="http://creativecommons.org/ns#"
   xmlns:rdf="http://www.w3.org/1999/02/22-rdf-syntax-ns#"
   xmlns:svg="http://www.w3.org/2000/svg"
   xmlns="http://www.w3.org/2000/svg"
   xmlns:sodipodi="http://sodipodi.sourceforge.net/DTD/sodipodi-0.dtd"
   xmlns:inkscape="http://www.inkscape.org/namespaces/inkscape"
   version="1.1"
   id="svg2604"
   xml:space="preserve"
   width="793.70074"
   height="1122.5197"
   viewBox="0 0 793.70074 1122.5197"
   sodipodi:docname="memory_usage.svg"
   inkscape:version="0.92.4 (33fec40, 2019-01-16)"><metadata
     id="metadata2610"><rdf:RDF><cc:Work
         rdf:about=""><dc:format>image/svg+xml</dc:format><dc:type
           rdf:resource="http://purl.org/dc/dcmitype/StillImage" /><dc:title></dc:title></cc:Work></rdf:RDF></metadata><defs
     id="defs2608" /><sodipodi:namedview
     pagecolor="#ffffff"
     bordercolor="#666666"
     borderopacity="1"
     objecttolerance="10"
     gridtolerance="10"
     guidetolerance="10"
     inkscape:pageopacity="0"
     inkscape:pageshadow="2"
     inkscape:window-width="956"
     inkscape:window-height="1161"
     id="namedview2606"
     showgrid="false"
     inkscape:zoom="0.84096523"
     inkscape:cx="671.43888"
     inkscape:cy="642.21873"
     inkscape:window-x="2880"
     inkscape:window-y="18"
     inkscape:window-maximized="0"
     inkscape:current-layer="g2612" /><g
     id="g2612"
     inkscape:groupmode="layer"
     inkscape:label="memory_usage"
     transform="matrix(1.3333333,0,0,-1.3333333,0,1122.5197)"><path
       inkscape:connector-curvature="0"
       id="path2616"
       style="fill:#ffffff;fill-opacity:1;fill-rule:nonzero;stroke:none"
       d="M 79.215,730.788 H 344.969 V 212.999 H 79.215 Z" /><path
       inkscape:connector-curvature="0"
       id="path2618"
       style="fill:#1f77b4;fill-opacity:0.2;fill-rule:nonzero;stroke:none"
       d="m 91.297,656.776 v -97.078 l 12.715,-8.539 25.429,1.45 76.293,-3.11 127.157,-19.875 v 54.375 l -127.157,32.324 -76.293,25.977 -25.429,12.301 z" /><path
       d="m 91.297,656.77677 v -97.078 l 12.715,-8.539 25.429,1.449 76.293,-3.11 127.157,-19.875 v 54.375 l -127.157,32.325 -76.293,25.976 -25.429,12.301 z"
       style="fill:none;stroke:#1f77b4;stroke-width:1.42878199;stroke-linecap:butt;stroke-linejoin:round;stroke-miterlimit:10;stroke-dasharray:none;stroke-opacity:0.2"
       id="path2622"
       inkscape:connector-curvature="0" /><path
       inkscape:connector-curvature="0"
       id="path2624"
       style="fill:#ff7f0e;fill-opacity:0.2;fill-rule:nonzero;stroke:none"
       d="m 91.297,457.183 v -94.555 l 12.715,-0.812 25.429,-0.625 76.293,-11.926 127.157,5.707 v 59.804 l -127.157,19.188 -76.293,12.082 -25.429,6.879 z" /><path
       d="m 91.297,457.18277 v -94.555 l 12.715,-0.812 25.429,-0.625 76.293,-11.926 127.157,5.707 v 59.805 l -127.157,19.187 -76.293,12.082 -25.429,6.879 z"
       style="fill:none;stroke:#ff7f0e;stroke-width:1.42878199;stroke-linecap:butt;stroke-linejoin:round;stroke-miterlimit:10;stroke-dasharray:none;stroke-opacity:0.2"
       id="path2628"
       inkscape:connector-curvature="0" /><path
       inkscape:connector-curvature="0"
       id="path2630"
       style="fill:#2ca02c;fill-opacity:0.2;fill-rule:nonzero;stroke:none"
       d="m 91.297,450.796 v -95.973 l 12.715,-17.129 25.429,16.813 76.293,-2.926 127.157,0.328 v 57.653 l -127.157,18.695 -76.293,17.5 -25.429,2.09 z" /><path
       d="m 91.297,450.79577 v -95.972 l 12.715,-17.129 25.429,16.812 76.293,-2.926 127.157,0.329 v 57.652 l -127.157,18.695 -76.293,17.5 -25.429,2.09 z"
       style="fill:none;stroke:#2ca02c;stroke-width:1.42878199;stroke-linecap:butt;stroke-linejoin:round;stroke-miterlimit:10;stroke-dasharray:none;stroke-opacity:0.2"
       id="path2634"
       inkscape:connector-curvature="0" /><path
       inkscape:connector-curvature="0"
       id="path2636"
       style="fill:#d62728;fill-opacity:0.2;fill-rule:nonzero;stroke:none"
       d="m 91.297,753.355 v -91.52 l 12.715,-2.644 25.429,-7.731 76.293,-6.809 127.157,-15.07 v 51.86 l -127.157,32.757 -76.293,23.344 -25.429,11.602 z" /><path
       d="m 91.297,753.35477 v -91.52 l 12.715,-2.644 25.429,-7.731 76.293,-6.808 127.157,-15.071 v 51.86 l -127.157,32.758 -76.293,23.343 -25.429,11.602 z"
       style="fill:none;stroke:#d62728;stroke-width:1.42878199;stroke-linecap:butt;stroke-linejoin:round;stroke-miterlimit:10;stroke-dasharray:none;stroke-opacity:0.2"
       id="path2640"
       inkscape:connector-curvature="0" /><path
       d="M 91.297,633.49477 H 332.891 Z"
       style="fill:none;stroke:#9467bd;stroke-width:1.42878199;stroke-linecap:butt;stroke-linejoin:round;stroke-miterlimit:10;stroke-dasharray:none;stroke-opacity:0.2"
       id="path2644"
       inkscape:connector-curvature="0" /><path
       d="m 142.156,212.99877 v -8.574"
       style="fill:none;stroke:#000000;stroke-width:1.78597796;stroke-linecap:butt;stroke-linejoin:round;stroke-miterlimit:10;stroke-dasharray:none;stroke-opacity:1"
       id="path2648"
       inkscape:connector-curvature="0" /><text
       id="text2652"
       style="font-variant:normal;font-weight:normal;font-size:15.71660423px;font-family:'DejaVu Sans';-inkscape-font-specification:DejaVuSans;writing-mode:lr-tb;fill:#000000;fill-opacity:1;fill-rule:nonzero;stroke:none"
       transform="scale(1,-1)"
       x="132.15569"
       y="-188.78355"><tspan
         id="tspan2650"
         sodipodi:role="line"
         y="-188.78355"
         x="132.15569 142.15144">25</tspan></text>
<path
       d="m 205.734,212.99877 v -8.574"
       style="fill:none;stroke:#000000;stroke-width:1.78597796;stroke-linecap:butt;stroke-linejoin:round;stroke-miterlimit:10;stroke-dasharray:none;stroke-opacity:1"
       id="path2656"
       inkscape:connector-curvature="0" /><text
       id="text2660"
       style="font-variant:normal;font-weight:normal;font-size:15.71660423px;font-family:'DejaVu Sans';-inkscape-font-specification:DejaVuSans;writing-mode:lr-tb;fill:#000000;fill-opacity:1;fill-rule:nonzero;stroke:none"
       transform="scale(1,-1)"
       x="195.73306"
       y="-188.78355"><tspan
         id="tspan2658"
         sodipodi:role="line"
         y="-188.78355"
         x="195.73306 205.72884">50</tspan></text>
<path
       d="m 269.313,212.99877 v -8.574"
       style="fill:none;stroke:#000000;stroke-width:1.78597796;stroke-linecap:butt;stroke-linejoin:round;stroke-miterlimit:10;stroke-dasharray:none;stroke-opacity:1"
       id="path2664"
       inkscape:connector-curvature="0" /><text
       id="text2668"
       style="font-variant:normal;font-weight:normal;font-size:15.71660423px;font-family:'DejaVu Sans';-inkscape-font-specification:DejaVuSans;writing-mode:lr-tb;fill:#000000;fill-opacity:1;fill-rule:nonzero;stroke:none"
       transform="scale(1,-1)"
       x="259.31046"
       y="-188.78355"><tspan
         id="tspan2666"
         sodipodi:role="line"
         y="-188.78355"
         x="259.31046 269.30621">75</tspan></text>
<path
       d="m 332.891,212.99877 v -8.574"
       style="fill:none;stroke:#000000;stroke-width:1.78597796;stroke-linecap:butt;stroke-linejoin:round;stroke-miterlimit:10;stroke-dasharray:none;stroke-opacity:1"
       id="path2672"
       inkscape:connector-curvature="0" /><text
       id="text2676"
       style="font-variant:normal;font-weight:normal;font-size:15.71660423px;font-family:'DejaVu Sans';-inkscape-font-specification:DejaVuSans;writing-mode:lr-tb;fill:#000000;fill-opacity:1;fill-rule:nonzero;stroke:none"
       transform="scale(1,-1)"
       x="317.88705"
       y="-188.78355"><tspan
         id="tspan2674"
         sodipodi:role="line"
         y="-188.78355"
         x="317.88705 327.88281 337.87857">100</tspan></text>
<text
       id="text2680"
       style="font-variant:normal;font-weight:normal;font-size:17.14538765px;font-family:'DejaVu Sans';-inkscape-font-specification:DejaVuSans;writing-mode:lr-tb;fill:#000000;fill-opacity:1;fill-rule:nonzero;stroke:none"
       transform="scale(1,-1)"
       x="111.95847"
       y="-168.58714"><tspan
         id="tspan2678"
         sodipodi:role="line"
         y="-168.58714"
         x="111.95847 122.8115 133.66454 150.36414 161.23431 171.77873 178.82549 184.26056 194.7364 200.77158 206.20667 215.61948 226.09531 242.79491 253.66508 264.14093 274.99396 285.53836 296.39139 303.1124">number of components</tspan></text>
<path
       d="m 79.215,310.29177 h -8.57"
       style="fill:none;stroke:#000000;stroke-width:1.78597796;stroke-linecap:butt;stroke-linejoin:round;stroke-miterlimit:10;stroke-dasharray:none;stroke-opacity:1"
       id="path2684"
       inkscape:connector-curvature="0" /><text
       id="text2688"
       style="font-variant:normal;font-weight:normal;font-size:15.71660423px;font-family:'DejaVu Sans';-inkscape-font-specification:DejaVuSans;writing-mode:lr-tb;fill:#000000;fill-opacity:1;fill-rule:nonzero;stroke:none"
       transform="scale(1,-1)"
       x="30.160677"
       y="-304.65747"><tspan
         id="tspan2686"
         sodipodi:role="line"
         y="-304.65747"
         x="30.160677 40.156437">10</tspan></text>
<text
       id="text2692"
       style="font-variant:normal;font-weight:normal;font-size:11.00162411px;font-family:'DejaVu Sans';-inkscape-font-specification:DejaVuSans;writing-mode:lr-tb;fill:#000000;fill-opacity:1;fill-rule:nonzero;stroke:none"
       transform="scale(1,-1)"
       x="59.532562"
       y="-310.85629"><tspan
         id="tspan2690"
         y="-310.85629"
         x="59.532562">1</tspan></text>
<path
       inkscape:connector-curvature="0"
       id="path2694"
       style="fill:#000000;fill-opacity:1;fill-rule:nonzero;stroke:none"
       d="m 51.48,314.761 h 6.887 v -0.91 H 51.48 Z" /><path
       d="m 79.215,633.49477 h -8.57"
       style="fill:none;stroke:#000000;stroke-width:1.78597796;stroke-linecap:butt;stroke-linejoin:round;stroke-miterlimit:10;stroke-dasharray:none;stroke-opacity:1"
       id="path2698"
       inkscape:connector-curvature="0" /><text
       id="text2702"
       style="font-variant:normal;font-weight:normal;font-size:15.71660423px;font-family:'DejaVu Sans';-inkscape-font-specification:DejaVuSans;writing-mode:lr-tb;fill:#000000;fill-opacity:1;fill-rule:nonzero;stroke:none"
       transform="scale(1,-1)"
       x="39.68589"
       y="-627.70422"><tspan
         id="tspan2700"
         sodipodi:role="line"
         y="-627.70422"
         x="39.68589 49.681648">10</tspan></text>
<text
       id="text2706"
       style="font-variant:normal;font-weight:normal;font-size:11.00162411px;font-family:'DejaVu Sans';-inkscape-font-specification:DejaVuSans;writing-mode:lr-tb;fill:#000000;fill-opacity:1;fill-rule:nonzero;stroke:none"
       transform="scale(1,-1)"
       x="59.839622"
       y="-633.90308"><tspan
         id="tspan2704"
         y="-633.90308"
         x="59.839622">0</tspan></text>
<path
       d="M 79.215,212.99877 H 73.5"
       style="fill:none;stroke:#000000;stroke-width:1.42878199;stroke-linecap:butt;stroke-linejoin:round;stroke-miterlimit:10;stroke-dasharray:none;stroke-opacity:1"
       id="path2710"
       inkscape:connector-curvature="0" /><path
       d="M 79.215,238.58877 H 73.5"
       style="fill:none;stroke:#000000;stroke-width:1.42878199;stroke-linecap:butt;stroke-linejoin:round;stroke-miterlimit:10;stroke-dasharray:none;stroke-opacity:1"
       id="path2714"
       inkscape:connector-curvature="0" /><path
       d="M 79.215,260.22577 H 73.5"
       style="fill:none;stroke:#000000;stroke-width:1.42878199;stroke-linecap:butt;stroke-linejoin:round;stroke-miterlimit:10;stroke-dasharray:none;stroke-opacity:1"
       id="path2718"
       inkscape:connector-curvature="0" /><path
       d="M 79.215,278.97177 H 73.5"
       style="fill:none;stroke:#000000;stroke-width:1.42878199;stroke-linecap:butt;stroke-linejoin:round;stroke-miterlimit:10;stroke-dasharray:none;stroke-opacity:1"
       id="path2722"
       inkscape:connector-curvature="0" /><path
       d="M 79.215,295.50277 H 73.5"
       style="fill:none;stroke:#000000;stroke-width:1.42878199;stroke-linecap:butt;stroke-linejoin:round;stroke-miterlimit:10;stroke-dasharray:none;stroke-opacity:1"
       id="path2726"
       inkscape:connector-curvature="0" /><path
       d="M 79.215,407.58477 H 73.5"
       style="fill:none;stroke:#000000;stroke-width:1.42878199;stroke-linecap:butt;stroke-linejoin:round;stroke-miterlimit:10;stroke-dasharray:none;stroke-opacity:1"
       id="path2730"
       inkscape:connector-curvature="0" /><path
       d="M 79.215,464.49877 H 73.5"
       style="fill:none;stroke:#000000;stroke-width:1.42878199;stroke-linecap:butt;stroke-linejoin:round;stroke-miterlimit:10;stroke-dasharray:none;stroke-opacity:1"
       id="path2734"
       inkscape:connector-curvature="0" /><path
       d="M 79.215,504.87777 H 73.5"
       style="fill:none;stroke:#000000;stroke-width:1.42878199;stroke-linecap:butt;stroke-linejoin:round;stroke-miterlimit:10;stroke-dasharray:none;stroke-opacity:1"
       id="path2738"
       inkscape:connector-curvature="0" /><path
       d="M 79.215,536.20177 H 73.5"
       style="fill:none;stroke:#000000;stroke-width:1.42878199;stroke-linecap:butt;stroke-linejoin:round;stroke-miterlimit:10;stroke-dasharray:none;stroke-opacity:1"
       id="path2742"
       inkscape:connector-curvature="0" /><path
       d="M 79.215,561.79177 H 73.5"
       style="fill:none;stroke:#000000;stroke-width:1.42878199;stroke-linecap:butt;stroke-linejoin:round;stroke-miterlimit:10;stroke-dasharray:none;stroke-opacity:1"
       id="path2746"
       inkscape:connector-curvature="0" /><path
       d="M 79.215,583.42877 H 73.5"
       style="fill:none;stroke:#000000;stroke-width:1.42878199;stroke-linecap:butt;stroke-linejoin:round;stroke-miterlimit:10;stroke-dasharray:none;stroke-opacity:1"
       id="path2750"
       inkscape:connector-curvature="0" /><path
       d="M 79.215,602.17477 H 73.5"
       style="fill:none;stroke:#000000;stroke-width:1.42878199;stroke-linecap:butt;stroke-linejoin:round;stroke-miterlimit:10;stroke-dasharray:none;stroke-opacity:1"
       id="path2754"
       inkscape:connector-curvature="0" /><path
       d="M 79.215,618.70577 H 73.5"
       style="fill:none;stroke:#000000;stroke-width:1.42878199;stroke-linecap:butt;stroke-linejoin:round;stroke-miterlimit:10;stroke-dasharray:none;stroke-opacity:1"
       id="path2758"
       inkscape:connector-curvature="0" /><text
       id="text2762"
       style="font-variant:normal;font-weight:normal;font-size:17.14538765px;font-family:'DejaVu Sans';-inkscape-font-specification:DejaVuSans;writing-mode:lr-tb;fill:#000000;fill-opacity:1;fill-rule:nonzero;stroke:none"
       transform="matrix(0,1,1,0,0,0)"
       x="384.98364"
       y="49.517277"><tspan
         id="tspan2760"
         sodipodi:role="line"
         y="49.517277"
         x="384.98364 401.68323 412.22766 428.92725 439.40308 446.44983 456.58276 462.01785 472.87088 481.7865 492.27945 503.14963 513.69403 519.12915 526.1759 536.66888 543.38989 548.13916">memory usage ratio</tspan></text>
<path
       d="m 91.297,613.84677 12.715,-1 25.429,-6.148 76.293,-17.715 127.157,-28.239"
       style="fill:none;stroke:#1f77b4;stroke-width:2.14317298;stroke-linecap:square;stroke-linejoin:round;stroke-miterlimit:10;stroke-dasharray:none;stroke-opacity:1"
       id="path2766"
       inkscape:connector-curvature="0" /><path
       d="m 91.297,420.06977 12.715,-3.032 25.429,-4.144 76.293,-7.055 127.157,-12.043"
       style="fill:none;stroke:#ff7f0e;stroke-width:2.14317298;stroke-linecap:square;stroke-linejoin:round;stroke-miterlimit:10;stroke-dasharray:none;stroke-opacity:1"
       id="path2770"
       inkscape:connector-curvature="0" /><path
       d="m 91.297,413.54977 12.715,-1.797 25.429,-2.336 76.293,-9.476 127.157,-11.43"
       style="fill:none;stroke:#2ca02c;stroke-width:2.14317298;stroke-linecap:square;stroke-linejoin:round;stroke-miterlimit:10;stroke-dasharray:none;stroke-opacity:1"
       id="path2774"
       inkscape:connector-curvature="0" /><path
       d="m 91.297,715.08877 12.715,-3.996 25.429,-7.738 76.293,-18.625 127.157,-26.145"
       style="fill:none;stroke:#d62728;stroke-width:2.14317298;stroke-linecap:square;stroke-linejoin:round;stroke-miterlimit:10;stroke-dasharray:none;stroke-opacity:1"
       id="path2778"
       inkscape:connector-curvature="0" /><path
       d="M 91.297,633.49477 H 332.891"
       style="fill:none;stroke:#9467bd;stroke-width:2.14317298;stroke-linecap:square;stroke-linejoin:round;stroke-miterlimit:10;stroke-dasharray:none;stroke-opacity:1"
       id="path2782"
       inkscape:connector-curvature="0" /><path
       d="m 79.215,212.99877 v 546.368"
       style="fill:none;stroke:#000000;stroke-width:1.83459795;stroke-linecap:square;stroke-linejoin:miter;stroke-miterlimit:10;stroke-dasharray:none;stroke-opacity:1"
       id="path2786"
       inkscape:connector-curvature="0" /><path
       d="m 344.969,212.99877 v 546.368"
       style="fill:none;stroke:#000000;stroke-width:1.83459795;stroke-linecap:square;stroke-linejoin:miter;stroke-miterlimit:10;stroke-dasharray:none;stroke-opacity:1"
       id="path2790"
       inkscape:connector-curvature="0" /><path
       d="M 79.215,212.99877 H 344.969"
       style="fill:none;stroke:#000000;stroke-width:1.78597796;stroke-linecap:square;stroke-linejoin:miter;stroke-miterlimit:10;stroke-dasharray:none;stroke-opacity:1"
       id="path2794"
       inkscape:connector-curvature="0" /><path
       d="M 79.215,759.36677 H 344.969"
       style="fill:none;stroke:#000000;stroke-width:1.78597796;stroke-linecap:square;stroke-linejoin:miter;stroke-miterlimit:10;stroke-dasharray:none;stroke-opacity:1"
       id="path2798"
       inkscape:connector-curvature="0" /><path
       inkscape:connector-curvature="0"
       id="path2800"
       style="fill:#ffffff;fill-opacity:0.8;fill-rule:nonzero;stroke:none"
       d="m 194.965,1.327 h 228.117 c 2.098,0 3.145,1.047 3.145,3.145 v 141.453 c 0,2.098 -1.047,3.144 -3.145,3.144 H 194.965 c -2.094,0 -3.141,-1.046 -3.141,-3.144 V 4.472 c 0,-2.098 1.047,-3.145 3.141,-3.145 z" /><path
       d="m 194.965,1.32677 h 228.117 c 2.098,0 3.145,1.047 3.145,3.145 v 141.453 c 0,2.098 -1.047,3.145 -3.145,3.145 H 194.965 c -2.094,0 -3.141,-1.047 -3.141,-3.145 V 4.47177 c 0,-2.098 1.047,-3.145 3.141,-3.145 z"
       style="fill:none;stroke:#cccccc;stroke-width:1.42878199;stroke-linecap:butt;stroke-linejoin:miter;stroke-miterlimit:10;stroke-dasharray:none;stroke-opacity:0.8"
       id="path2804"
       inkscape:connector-curvature="0" /><text
       id="text2808"
       style="font-variant:normal;font-weight:normal;font-size:15.71660423px;font-family:'DejaVu Sans';-inkscape-font-specification:DejaVuSans;writing-mode:lr-tb;fill:#000000;fill-opacity:1;fill-rule:nonzero;stroke:none"
       transform="scale(1,-1)"
       x="242.11636"
       y="-130.47424"><tspan
         id="tspan2806"
         sodipodi:role="line"
         y="-130.47424"
         x="242.11636 251.73492 256.08844 266.05276">algo</tspan></text>
<path
       d="m 208.039,112.44477 h 9.524"
       style="fill:none;stroke:#1f77b4;stroke-width:4.28634691;stroke-linecap:square;stroke-linejoin:round;stroke-miterlimit:10;stroke-dasharray:none;stroke-opacity:1"
       id="path2812"
       inkscape:connector-curvature="0" /><text
       id="text2816"
       style="font-variant:normal;font-weight:normal;font-size:15.71660423px;font-family:'DejaVu Sans';-inkscape-font-specification:DejaVuSans;writing-mode:lr-tb;fill:#000000;fill-opacity:1;fill-rule:nonzero;stroke:none"
       transform="scale(1,-1)"
       x="242.11636"
       y="-106.94405"><tspan
         id="tspan2814"
         sodipodi:role="line"
         y="-106.94405"
         x="242.11636 251.15341 260.77197 268.94461 275.10553 285.06985 295.97717 309.52487 317.38318 332.69116 342.29401 352.25833 356.61182 364.47012 374.46588 384.46164">FastSRM_modl_512</tspan></text>
<path
       d="m 208.039,88.45177 h 9.524"
       style="fill:none;stroke:#ff7f0e;stroke-width:4.28634691;stroke-linecap:square;stroke-linejoin:round;stroke-miterlimit:10;stroke-dasharray:none;stroke-opacity:1"
       id="path2820"
       inkscape:connector-curvature="0" /><text
       id="text2824"
       style="font-variant:normal;font-weight:normal;font-size:15.71660423px;font-family:'DejaVu Sans';-inkscape-font-specification:DejaVuSans;writing-mode:lr-tb;fill:#000000;fill-opacity:1;fill-rule:nonzero;stroke:none"
       transform="scale(1,-1)"
       x="242.11636"
       y="-82.952415"><tspan
         id="tspan2822"
         sodipodi:role="line"
         y="-82.952415"
         x="242.11636 251.15341 260.77197 268.94461 275.10553 285.06985 295.97717 309.52487 317.38318 325.55582 335.50443 345.12299 354.7887 360.32095 365.85318 375.51892 381.97842 389.83673 399.83249 409.82825">FastSRM_shaeffer_800</tspan></text>
<path
       d="m 208.039,64.45977 h 9.524"
       style="fill:none;stroke:#2ca02c;stroke-width:4.28634691;stroke-linecap:square;stroke-linejoin:round;stroke-miterlimit:10;stroke-dasharray:none;stroke-opacity:1"
       id="path2828"
       inkscape:connector-curvature="0" /><text
       id="text2832"
       style="font-variant:normal;font-weight:normal;font-size:15.71660423px;font-family:'DejaVu Sans';-inkscape-font-specification:DejaVuSans;writing-mode:lr-tb;fill:#000000;fill-opacity:1;fill-rule:nonzero;stroke:none"
       transform="scale(1,-1)"
       x="242.11636"
       y="-58.960785"><tspan
         id="tspan2830"
         sodipodi:role="line"
         y="-58.960785"
         x="242.11636 251.15341 260.77197 268.94461 275.10553 285.06985 295.97717 309.52487 317.38318 327.3475 336.96606 345.1387 353.76712 361.62543 371.62119 381.61694">FastSRM_basc_444</tspan></text>
<path
       d="m 208.039,40.47177 h 9.524"
       style="fill:none;stroke:#d62728;stroke-width:4.28634691;stroke-linecap:square;stroke-linejoin:round;stroke-miterlimit:10;stroke-dasharray:none;stroke-opacity:1"
       id="path2836"
       inkscape:connector-curvature="0" /><text
       id="text2840"
       style="font-variant:normal;font-weight:normal;font-size:15.71660423px;font-family:'DejaVu Sans';-inkscape-font-specification:DejaVuSans;writing-mode:lr-tb;fill:#000000;fill-opacity:1;fill-rule:nonzero;stroke:none"
       transform="scale(1,-1)"
       x="242.11636"
       y="-34.969151"><tspan
         id="tspan2838"
         sodipodi:role="line"
         y="-34.969151"
         x="242.11636 251.15341 260.77197 268.94461 275.10553 285.06985 295.97717 309.52487 317.38318 332.69116 342.29401 352.25833 356.61182 364.47012 374.46588 384.46164 394.45743">FastSRM_modl_1024</tspan></text>
<path
       d="m 208.039,16.47977 h 9.524"
       style="fill:none;stroke:#9467bd;stroke-width:4.28634691;stroke-linecap:square;stroke-linejoin:round;stroke-miterlimit:10;stroke-dasharray:none;stroke-opacity:1"
       id="path2844"
       inkscape:connector-curvature="0" /><text
       id="text2848"
       style="font-variant:normal;font-weight:normal;font-size:15.71660423px;font-family:'DejaVu Sans';-inkscape-font-specification:DejaVuSans;writing-mode:lr-tb;fill:#000000;fill-opacity:1;fill-rule:nonzero;stroke:none"
       transform="scale(1,-1)"
       x="242.11636"
       y="-10.977519"><tspan
         id="tspan2846"
         sodipodi:role="line"
         y="-10.977519"
         x="242.11636 251.59348 258.05301 267.65585 277.62018 287.5845 298.49182">ProbSRM</tspan></text>
<path
       inkscape:connector-curvature="0"
       id="path2850"
       style="fill:#ffffff;fill-opacity:1;fill-rule:nonzero;stroke:none"
       d="M 394.246,785.21 H 558.844 V 648.046 H 394.246 Z" /><path
       inkscape:connector-curvature="0"
       id="path2852"
       style="fill:#ffffff;fill-opacity:1;fill-rule:nonzero;stroke:none"
       d="M 414.824,768.749 H 542.383 V 665.19 H 414.824 Z" /><path
       d="m 472.16,665.19077 v -6.856"
       style="fill:none;stroke:#000000;stroke-width:1.42878199;stroke-linecap:butt;stroke-linejoin:round;stroke-miterlimit:10;stroke-dasharray:none;stroke-opacity:1"
       id="path2856"
       inkscape:connector-curvature="0" /><text
       id="text2860"
       style="font-variant:normal;font-weight:normal;font-size:12.5732832px;font-family:'DejaVu Sans';-inkscape-font-specification:DejaVuSans;writing-mode:lr-tb;fill:#000000;fill-opacity:1;fill-rule:nonzero;stroke:none"
       transform="scale(1,-1)"
       x="464.15952"
       y="-645.82043"><tspan
         id="tspan2858"
         sodipodi:role="line"
         y="-645.82043"
         x="464.15952 472.15613">50</tspan></text>
<path
       d="m 536.586,665.19077 v -6.856"
       style="fill:none;stroke:#000000;stroke-width:1.42878199;stroke-linecap:butt;stroke-linejoin:round;stroke-miterlimit:10;stroke-dasharray:none;stroke-opacity:1"
       id="path2864"
       inkscape:connector-curvature="0" /><text
       id="text2868"
       style="font-variant:normal;font-weight:normal;font-size:12.5732832px;font-family:'DejaVu Sans';-inkscape-font-specification:DejaVuSans;writing-mode:lr-tb;fill:#000000;fill-opacity:1;fill-rule:nonzero;stroke:none"
       transform="scale(1,-1)"
       x="524.58398"
       y="-645.82043"><tspan
         id="tspan2866"
         sodipodi:role="line"
         y="-645.82043"
         x="524.58398 532.58063 540.57721">100</tspan></text>
<path
       d="m 414.824,665.19077 h -6.859"
       style="fill:none;stroke:#000000;stroke-width:1.42878199;stroke-linecap:butt;stroke-linejoin:round;stroke-miterlimit:10;stroke-dasharray:none;stroke-opacity:1"
       id="path2872"
       inkscape:connector-curvature="0" /><text
       id="text2876"
       style="font-variant:normal;font-weight:normal;font-size:12.5732832px;font-family:'DejaVu Sans';-inkscape-font-specification:DejaVuSans;writing-mode:lr-tb;fill:#000000;fill-opacity:1;fill-rule:nonzero;stroke:none"
       transform="scale(1,-1)"
       x="383.19861"
       y="-660.55951"><tspan
         id="tspan2874"
         sodipodi:role="line"
         y="-660.55951"
         x="383.19861 391.19522">10</tspan></text>
<text
       id="text2880"
       style="font-variant:normal;font-weight:normal;font-size:8.8012991px;font-family:'DejaVu Sans';-inkscape-font-specification:DejaVuSans;writing-mode:lr-tb;fill:#000000;fill-opacity:1;fill-rule:nonzero;stroke:none"
       transform="scale(1,-1)"
       x="399.32159"
       y="-665.51855"><tspan
         id="tspan2878"
         y="-665.51855"
         x="399.32159">3</tspan></text>
<path
       d="m 414.824,753.24477 h -6.859"
       style="fill:none;stroke:#000000;stroke-width:1.42878199;stroke-linecap:butt;stroke-linejoin:round;stroke-miterlimit:10;stroke-dasharray:none;stroke-opacity:1"
       id="path2884"
       inkscape:connector-curvature="0" /><text
       id="text2888"
       style="font-variant:normal;font-weight:normal;font-size:12.5732832px;font-family:'DejaVu Sans';-inkscape-font-specification:DejaVuSans;writing-mode:lr-tb;fill:#000000;fill-opacity:1;fill-rule:nonzero;stroke:none"
       transform="scale(1,-1)"
       x="383.19861"
       y="-748.73737"><tspan
         id="tspan2886"
         sodipodi:role="line"
         y="-748.73737"
         x="383.19861 391.19522">10</tspan></text>
<text
       id="text2892"
       style="font-variant:normal;font-weight:normal;font-size:8.8012991px;font-family:'DejaVu Sans';-inkscape-font-specification:DejaVuSans;writing-mode:lr-tb;fill:#000000;fill-opacity:1;fill-rule:nonzero;stroke:none"
       transform="scale(1,-1)"
       x="399.32159"
       y="-753.69641"><tspan
         id="tspan2890"
         y="-753.69641"
         x="399.32159">4</tspan></text>
<path
       d="M 414.824,691.69877 H 410.25"
       style="fill:none;stroke:#000000;stroke-width:1.14302599;stroke-linecap:butt;stroke-linejoin:round;stroke-miterlimit:10;stroke-dasharray:none;stroke-opacity:1"
       id="path2896"
       inkscape:connector-curvature="0" /><path
       d="M 414.824,707.20177 H 410.25"
       style="fill:none;stroke:#000000;stroke-width:1.14302599;stroke-linecap:butt;stroke-linejoin:round;stroke-miterlimit:10;stroke-dasharray:none;stroke-opacity:1"
       id="path2900"
       inkscape:connector-curvature="0" /><path
       d="M 414.824,718.20577 H 410.25"
       style="fill:none;stroke:#000000;stroke-width:1.14302599;stroke-linecap:butt;stroke-linejoin:round;stroke-miterlimit:10;stroke-dasharray:none;stroke-opacity:1"
       id="path2904"
       inkscape:connector-curvature="0" /><path
       d="M 414.824,726.73777 H 410.25"
       style="fill:none;stroke:#000000;stroke-width:1.14302599;stroke-linecap:butt;stroke-linejoin:round;stroke-miterlimit:10;stroke-dasharray:none;stroke-opacity:1"
       id="path2908"
       inkscape:connector-curvature="0" /><path
       d="M 414.824,733.70977 H 410.25"
       style="fill:none;stroke:#000000;stroke-width:1.14302599;stroke-linecap:butt;stroke-linejoin:round;stroke-miterlimit:10;stroke-dasharray:none;stroke-opacity:1"
       id="path2912"
       inkscape:connector-curvature="0" /><path
       d="M 414.824,739.60477 H 410.25"
       style="fill:none;stroke:#000000;stroke-width:1.14302599;stroke-linecap:butt;stroke-linejoin:round;stroke-miterlimit:10;stroke-dasharray:none;stroke-opacity:1"
       id="path2916"
       inkscape:connector-curvature="0" /><path
       d="M 414.824,744.70977 H 410.25"
       style="fill:none;stroke:#000000;stroke-width:1.14302599;stroke-linecap:butt;stroke-linejoin:round;stroke-miterlimit:10;stroke-dasharray:none;stroke-opacity:1"
       id="path2920"
       inkscape:connector-curvature="0" /><path
       d="M 414.824,749.21777 H 410.25"
       style="fill:none;stroke:#000000;stroke-width:1.14302599;stroke-linecap:butt;stroke-linejoin:round;stroke-miterlimit:10;stroke-dasharray:none;stroke-opacity:1"
       id="path2924"
       inkscape:connector-curvature="0" /><text
       id="text2928"
       style="font-variant:normal;font-weight:normal;font-size:13.71630859px;font-family:'DejaVu Sans';-inkscape-font-specification:DejaVuSans;writing-mode:lr-tb;fill:#000000;fill-opacity:1;fill-rule:nonzero;stroke:none"
       transform="matrix(0,1,1,0,0,0)"
       x="665.44"
       y="377.29303"><tspan
         id="tspan2926"
         sodipodi:role="line"
         y="377.29303"
         x="665.44 678.79968 687.23523 700.59491 708.97552 714.61298 722.7193 727.06738 735.74982 742.88226 751.27667 759.97278">memory usage</tspan></text>
<path
       d="m 420.621,730.35477 12.883,-0.422 38.656,-0.648 64.426,0.675"
       style="fill:none;stroke:#1f77b4;stroke-width:1.71453905;stroke-linecap:square;stroke-linejoin:round;stroke-miterlimit:10;stroke-dasharray:none;stroke-opacity:1"
       id="path2932"
       inkscape:connector-curvature="0" /><path
       d="m 420.621,721.53477 12.883,2.753 38.656,7.211 64.426,9.555"
       style="fill:none;stroke:#ff7f0e;stroke-width:1.71453905;stroke-linecap:square;stroke-linejoin:round;stroke-miterlimit:10;stroke-dasharray:none;stroke-opacity:1"
       id="path2936"
       inkscape:connector-curvature="0" /><path
       d="m 420.621,673.63577 12.883,0.844 38.656,3.719 64.426,4.3"
       style="fill:none;stroke:#2ca02c;stroke-width:1.71453905;stroke-linecap:square;stroke-linejoin:round;stroke-miterlimit:10;stroke-dasharray:none;stroke-opacity:1"
       id="path2940"
       inkscape:connector-curvature="0" /><path
       d="m 420.621,672.44877 12.883,1.418 38.656,2.878 64.426,4.457"
       style="fill:none;stroke:#d62728;stroke-width:1.71453905;stroke-linecap:square;stroke-linejoin:round;stroke-miterlimit:10;stroke-dasharray:none;stroke-opacity:1"
       id="path2944"
       inkscape:connector-curvature="0" /><path
       d="m 420.621,756.11277 12.883,-0.614 38.656,0.739 64.426,-0.485"
       style="fill:none;stroke:#9467bd;stroke-width:1.71453905;stroke-linecap:square;stroke-linejoin:round;stroke-miterlimit:10;stroke-dasharray:none;stroke-opacity:1"
       id="path2948"
       inkscape:connector-curvature="0" /><path
       d="m 414.824,665.19077 v 103.558"
       style="fill:none;stroke:#000000;stroke-width:1.42878199;stroke-linecap:square;stroke-linejoin:miter;stroke-miterlimit:10;stroke-dasharray:none;stroke-opacity:1"
       id="path2952"
       inkscape:connector-curvature="0" /><path
       d="m 542.383,665.19077 v 103.558"
       style="fill:none;stroke:#000000;stroke-width:1.42878199;stroke-linecap:square;stroke-linejoin:miter;stroke-miterlimit:10;stroke-dasharray:none;stroke-opacity:1"
       id="path2956"
       inkscape:connector-curvature="0" /><path
       d="M 414.824,665.19077 H 542.383"
       style="fill:none;stroke:#000000;stroke-width:1.42878199;stroke-linecap:square;stroke-linejoin:miter;stroke-miterlimit:10;stroke-dasharray:none;stroke-opacity:1"
       id="path2960"
       inkscape:connector-curvature="0" /><path
       d="M 414.824,768.74877 H 542.383"
       style="fill:none;stroke:#000000;stroke-width:1.42878199;stroke-linecap:square;stroke-linejoin:miter;stroke-miterlimit:10;stroke-dasharray:none;stroke-opacity:1"
       id="path2964"
       inkscape:connector-curvature="0" /><text
       id="text2968"
       style="font-variant:normal;font-weight:normal;font-size:13.71630859px;font-family:'DejaVu Sans';-inkscape-font-specification:DejaVuSans;writing-mode:lr-tb;fill:#000000;fill-opacity:1;fill-rule:nonzero;stroke:none"
       transform="scale(1,-1)"
       x="441.48459"
       y="-773.32257"><tspan
         id="tspan2966"
         sodipodi:role="line"
         y="-773.32257"
         x="441.48459 450.18073 460.48169 469.13669 478.65579 486.29578 497.09052 506.66449">SHERLOCK</tspan></text>
<path
       inkscape:connector-curvature="0"
       id="path2970"
       style="fill:#ffffff;fill-opacity:1;fill-rule:nonzero;stroke:none"
       d="M 394.246,312.995 H 558.844 V 175.835 H 394.246 Z" /><path
       inkscape:connector-curvature="0"
       id="path2972"
       style="fill:#ffffff;fill-opacity:1;fill-rule:nonzero;stroke:none"
       d="M 414.824,296.538 H 542.383 V 192.979 H 414.824 Z" /><path
       d="m 472.16,192.97977 v -6.86"
       style="fill:none;stroke:#000000;stroke-width:1.42878199;stroke-linecap:butt;stroke-linejoin:round;stroke-miterlimit:10;stroke-dasharray:none;stroke-opacity:1"
       id="path2976"
       inkscape:connector-curvature="0" /><text
       id="text2980"
       style="font-variant:normal;font-weight:normal;font-size:12.5732832px;font-family:'DejaVu Sans';-inkscape-font-specification:DejaVuSans;writing-mode:lr-tb;fill:#000000;fill-opacity:1;fill-rule:nonzero;stroke:none"
       transform="scale(1,-1)"
       x="464.15958"
       y="-173.60748"><tspan
         id="tspan2978"
         sodipodi:role="line"
         y="-173.60748"
         x="464.15958 472.15619">50</tspan></text>
<path
       d="m 536.586,192.97977 v -6.86"
       style="fill:none;stroke:#000000;stroke-width:1.42878199;stroke-linecap:butt;stroke-linejoin:round;stroke-miterlimit:10;stroke-dasharray:none;stroke-opacity:1"
       id="path2984"
       inkscape:connector-curvature="0" /><text
       id="text2988"
       style="font-variant:normal;font-weight:normal;font-size:12.5732832px;font-family:'DejaVu Sans';-inkscape-font-specification:DejaVuSans;writing-mode:lr-tb;fill:#000000;fill-opacity:1;fill-rule:nonzero;stroke:none"
       transform="scale(1,-1)"
       x="524.58405"
       y="-173.60748"><tspan
         id="tspan2986"
         sodipodi:role="line"
         y="-173.60748"
         x="524.58405 532.58063 540.57727">100</tspan></text>
<text
       id="text2992"
       style="font-variant:normal;font-weight:normal;font-size:13.71630859px;font-family:'DejaVu Sans';-inkscape-font-specification:DejaVuSans;writing-mode:lr-tb;fill:#000000;fill-opacity:1;fill-rule:nonzero;stroke:none"
       transform="scale(1,-1)"
       x="398.49622"
       y="-157.45033"><tspan
         id="tspan2990"
         sodipodi:role="line"
         y="-157.45033"
         x="398.49622 407.17862 415.86105 429.22073 437.91687 446.35242 451.98981 456.33789 464.71857 469.54669 473.89478 481.42502 489.80569 503.16537 511.86151 520.24219 528.92456 537.36011 546.04254 551.41931">number of components</tspan></text>
<path
       d="m 414.824,192.97977 h -6.859"
       style="fill:none;stroke:#000000;stroke-width:1.42878199;stroke-linecap:butt;stroke-linejoin:round;stroke-miterlimit:10;stroke-dasharray:none;stroke-opacity:1"
       id="path2996"
       inkscape:connector-curvature="0" /><text
       id="text3000"
       style="font-variant:normal;font-weight:normal;font-size:12.5732832px;font-family:'DejaVu Sans';-inkscape-font-specification:DejaVuSans;writing-mode:lr-tb;fill:#000000;fill-opacity:1;fill-rule:nonzero;stroke:none"
       transform="scale(1,-1)"
       x="383.19867"
       y="-188.34656"><tspan
         id="tspan2998"
         sodipodi:role="line"
         y="-188.34656"
         x="383.19867 391.19528">10</tspan></text>
<text
       id="text3004"
       style="font-variant:normal;font-weight:normal;font-size:8.8012991px;font-family:'DejaVu Sans';-inkscape-font-specification:DejaVuSans;writing-mode:lr-tb;fill:#000000;fill-opacity:1;fill-rule:nonzero;stroke:none"
       transform="scale(1,-1)"
       x="399.32166"
       y="-193.3056"><tspan
         id="tspan3002"
         y="-193.3056"
         x="399.32166">3</tspan></text>
<path
       d="m 414.824,281.03077 h -6.859"
       style="fill:none;stroke:#000000;stroke-width:1.42878199;stroke-linecap:butt;stroke-linejoin:round;stroke-miterlimit:10;stroke-dasharray:none;stroke-opacity:1"
       id="path3008"
       inkscape:connector-curvature="0" /><text
       id="text3012"
       style="font-variant:normal;font-weight:normal;font-size:12.5732832px;font-family:'DejaVu Sans';-inkscape-font-specification:DejaVuSans;writing-mode:lr-tb;fill:#000000;fill-opacity:1;fill-rule:nonzero;stroke:none"
       transform="scale(1,-1)"
       x="383.19867"
       y="-276.52438"><tspan
         id="tspan3010"
         sodipodi:role="line"
         y="-276.52438"
         x="383.19867 391.19528">10</tspan></text>
<text
       id="text3016"
       style="font-variant:normal;font-weight:normal;font-size:8.8012991px;font-family:'DejaVu Sans';-inkscape-font-specification:DejaVuSans;writing-mode:lr-tb;fill:#000000;fill-opacity:1;fill-rule:nonzero;stroke:none"
       transform="scale(1,-1)"
       x="399.32166"
       y="-281.48346"><tspan
         id="tspan3014"
         y="-281.48346"
         x="399.32166">4</tspan></text>
<path
       d="M 414.824,219.48777 H 410.25"
       style="fill:none;stroke:#000000;stroke-width:1.14302599;stroke-linecap:butt;stroke-linejoin:round;stroke-miterlimit:10;stroke-dasharray:none;stroke-opacity:1"
       id="path3020"
       inkscape:connector-curvature="0" /><path
       d="M 414.824,234.99177 H 410.25"
       style="fill:none;stroke:#000000;stroke-width:1.14302599;stroke-linecap:butt;stroke-linejoin:round;stroke-miterlimit:10;stroke-dasharray:none;stroke-opacity:1"
       id="path3024"
       inkscape:connector-curvature="0" /><path
       d="M 414.824,245.99177 H 410.25"
       style="fill:none;stroke:#000000;stroke-width:1.14302599;stroke-linecap:butt;stroke-linejoin:round;stroke-miterlimit:10;stroke-dasharray:none;stroke-opacity:1"
       id="path3028"
       inkscape:connector-curvature="0" /><path
       d="M 414.824,254.52677 H 410.25"
       style="fill:none;stroke:#000000;stroke-width:1.14302599;stroke-linecap:butt;stroke-linejoin:round;stroke-miterlimit:10;stroke-dasharray:none;stroke-opacity:1"
       id="path3032"
       inkscape:connector-curvature="0" /><path
       d="M 414.824,261.49877 H 410.25"
       style="fill:none;stroke:#000000;stroke-width:1.14302599;stroke-linecap:butt;stroke-linejoin:round;stroke-miterlimit:10;stroke-dasharray:none;stroke-opacity:1"
       id="path3036"
       inkscape:connector-curvature="0" /><path
       d="M 414.824,267.39377 H 410.25"
       style="fill:none;stroke:#000000;stroke-width:1.14302599;stroke-linecap:butt;stroke-linejoin:round;stroke-miterlimit:10;stroke-dasharray:none;stroke-opacity:1"
       id="path3040"
       inkscape:connector-curvature="0" /><path
       d="M 414.824,272.49877 H 410.25"
       style="fill:none;stroke:#000000;stroke-width:1.14302599;stroke-linecap:butt;stroke-linejoin:round;stroke-miterlimit:10;stroke-dasharray:none;stroke-opacity:1"
       id="path3044"
       inkscape:connector-curvature="0" /><path
       d="M 414.824,277.00277 H 410.25"
       style="fill:none;stroke:#000000;stroke-width:1.14302599;stroke-linecap:butt;stroke-linejoin:round;stroke-miterlimit:10;stroke-dasharray:none;stroke-opacity:1"
       id="path3048"
       inkscape:connector-curvature="0" /><text
       id="text3052"
       style="font-variant:normal;font-weight:normal;font-size:13.71630859px;font-family:'DejaVu Sans';-inkscape-font-specification:DejaVuSans;writing-mode:lr-tb;fill:#000000;fill-opacity:1;fill-rule:nonzero;stroke:none"
       transform="matrix(0,1,1,0,0,0)"
       x="193.22704"
       y="377.293"><tspan
         id="tspan3050"
         sodipodi:role="line"
         y="377.293"
         x="193.22704 206.58673 215.02226 228.38194 236.7626 242.40001 250.50635 254.85442 263.53683 270.66931 279.06369 287.75983">memory usage</tspan></text>
<path
       d="m 420.621,256.37377 12.883,1.375 38.656,0.164 64.426,-1.847"
       style="fill:none;stroke:#1f77b4;stroke-width:1.71453905;stroke-linecap:square;stroke-linejoin:round;stroke-miterlimit:10;stroke-dasharray:none;stroke-opacity:1"
       id="path3056"
       inkscape:connector-curvature="0" /><path
       d="m 420.621,261.62377 12.883,1.219 38.656,3.977 64.426,5.918"
       style="fill:none;stroke:#ff7f0e;stroke-width:1.71453905;stroke-linecap:square;stroke-linejoin:round;stroke-miterlimit:10;stroke-dasharray:none;stroke-opacity:1"
       id="path3060"
       inkscape:connector-curvature="0" /><path
       d="m 420.621,200.01477 12.883,0.871 38.656,3.828 64.426,4.324"
       style="fill:none;stroke:#2ca02c;stroke-width:1.71453905;stroke-linecap:square;stroke-linejoin:round;stroke-miterlimit:10;stroke-dasharray:none;stroke-opacity:1"
       id="path3064"
       inkscape:connector-curvature="0" /><path
       d="m 420.621,198.85877 12.883,1.535 38.656,2.93 64.426,4.472"
       style="fill:none;stroke:#d62728;stroke-width:1.71453905;stroke-linecap:square;stroke-linejoin:round;stroke-miterlimit:10;stroke-dasharray:none;stroke-opacity:1"
       id="path3068"
       inkscape:connector-curvature="0" /><path
       d="m 420.621,283.26477 12.883,0.535 38.656,-0.344 64.426,0.629"
       style="fill:none;stroke:#9467bd;stroke-width:1.71453905;stroke-linecap:square;stroke-linejoin:round;stroke-miterlimit:10;stroke-dasharray:none;stroke-opacity:1"
       id="path3072"
       inkscape:connector-curvature="0" /><path
       d="m 414.824,192.97977 v 103.558"
       style="fill:none;stroke:#000000;stroke-width:1.42878199;stroke-linecap:square;stroke-linejoin:miter;stroke-miterlimit:10;stroke-dasharray:none;stroke-opacity:1"
       id="path3076"
       inkscape:connector-curvature="0" /><path
       d="m 542.383,192.97977 v 103.558"
       style="fill:none;stroke:#000000;stroke-width:1.42878199;stroke-linecap:square;stroke-linejoin:miter;stroke-miterlimit:10;stroke-dasharray:none;stroke-opacity:1"
       id="path3080"
       inkscape:connector-curvature="0" /><path
       d="M 414.824,192.97977 H 542.383"
       style="fill:none;stroke:#000000;stroke-width:1.42878199;stroke-linecap:square;stroke-linejoin:miter;stroke-miterlimit:10;stroke-dasharray:none;stroke-opacity:1"
       id="path3084"
       inkscape:connector-curvature="0" /><path
       d="M 414.824,296.53777 H 542.383"
       style="fill:none;stroke:#000000;stroke-width:1.42878199;stroke-linecap:square;stroke-linejoin:miter;stroke-miterlimit:10;stroke-dasharray:none;stroke-opacity:1"
       id="path3088"
       inkscape:connector-curvature="0" /><text
       id="text3092"
       style="font-variant:normal;font-weight:normal;font-size:13.71630859px;font-family:'DejaVu Sans';-inkscape-font-specification:DejaVuSans;writing-mode:lr-tb;fill:#000000;fill-opacity:1;fill-rule:nonzero;stroke:none"
       transform="scale(1,-1)"
       x="448.38452"
       y="-301.10962"><tspan
         id="tspan3090"
         sodipodi:role="line"
         y="-301.10962"
         x="448.38452 457.90363 467.28558 471.31818 481.87973 490.53473 500.05383">RAIDERS</tspan></text>
<path
       inkscape:connector-curvature="0"
       id="path3094"
       style="fill:#ffffff;fill-opacity:1;fill-rule:nonzero;stroke:none"
       d="M 394.246,464.124 H 558.844 V 326.96 H 394.246 Z" /><path
       inkscape:connector-curvature="0"
       id="path3096"
       style="fill:#ffffff;fill-opacity:1;fill-rule:nonzero;stroke:none"
       d="M 414.824,447.663 H 542.383 V 344.108 H 414.824 Z" /><path
       d="m 472.16,344.10877 v -6.86"
       style="fill:none;stroke:#000000;stroke-width:1.42878199;stroke-linecap:butt;stroke-linejoin:round;stroke-miterlimit:10;stroke-dasharray:none;stroke-opacity:1"
       id="path3100"
       inkscape:connector-curvature="0" /><text
       id="text3104"
       style="font-variant:normal;font-weight:normal;font-size:12.5732832px;font-family:'DejaVu Sans';-inkscape-font-specification:DejaVuSans;writing-mode:lr-tb;fill:#000000;fill-opacity:1;fill-rule:nonzero;stroke:none"
       transform="scale(1,-1)"
       x="464.15952"
       y="-324.73471"><tspan
         id="tspan3102"
         sodipodi:role="line"
         y="-324.73471"
         x="464.15952 472.15613">50</tspan></text>
<path
       d="m 536.586,344.10877 v -6.86"
       style="fill:none;stroke:#000000;stroke-width:1.42878199;stroke-linecap:butt;stroke-linejoin:round;stroke-miterlimit:10;stroke-dasharray:none;stroke-opacity:1"
       id="path3108"
       inkscape:connector-curvature="0" /><text
       id="text3112"
       style="font-variant:normal;font-weight:normal;font-size:12.5732832px;font-family:'DejaVu Sans';-inkscape-font-specification:DejaVuSans;writing-mode:lr-tb;fill:#000000;fill-opacity:1;fill-rule:nonzero;stroke:none"
       transform="scale(1,-1)"
       x="524.58398"
       y="-324.73471"><tspan
         id="tspan3110"
         sodipodi:role="line"
         y="-324.73471"
         x="524.58398 532.58063 540.57721">100</tspan></text>
<path
       d="m 414.824,344.10877 h -6.859"
       style="fill:none;stroke:#000000;stroke-width:1.42878199;stroke-linecap:butt;stroke-linejoin:round;stroke-miterlimit:10;stroke-dasharray:none;stroke-opacity:1"
       id="path3116"
       inkscape:connector-curvature="0" /><text
       id="text3120"
       style="font-variant:normal;font-weight:normal;font-size:12.5732832px;font-family:'DejaVu Sans';-inkscape-font-specification:DejaVuSans;writing-mode:lr-tb;fill:#000000;fill-opacity:1;fill-rule:nonzero;stroke:none"
       transform="scale(1,-1)"
       x="383.19864"
       y="-339.47379"><tspan
         id="tspan3118"
         sodipodi:role="line"
         y="-339.47379"
         x="383.19864 391.19525">10</tspan></text>
<text
       id="text3124"
       style="font-variant:normal;font-weight:normal;font-size:8.8012991px;font-family:'DejaVu Sans';-inkscape-font-specification:DejaVuSans;writing-mode:lr-tb;fill:#000000;fill-opacity:1;fill-rule:nonzero;stroke:none"
       transform="scale(1,-1)"
       x="399.32162"
       y="-344.43286"><tspan
         id="tspan3122"
         y="-344.43286"
         x="399.32162">3</tspan></text>
<path
       d="m 414.824,432.15977 h -6.859"
       style="fill:none;stroke:#000000;stroke-width:1.42878199;stroke-linecap:butt;stroke-linejoin:round;stroke-miterlimit:10;stroke-dasharray:none;stroke-opacity:1"
       id="path3128"
       inkscape:connector-curvature="0" /><text
       id="text3132"
       style="font-variant:normal;font-weight:normal;font-size:12.5732832px;font-family:'DejaVu Sans';-inkscape-font-specification:DejaVuSans;writing-mode:lr-tb;fill:#000000;fill-opacity:1;fill-rule:nonzero;stroke:none"
       transform="scale(1,-1)"
       x="383.19864"
       y="-427.65161"><tspan
         id="tspan3130"
         sodipodi:role="line"
         y="-427.65161"
         x="383.19864 391.19525">10</tspan></text>
<text
       id="text3136"
       style="font-variant:normal;font-weight:normal;font-size:8.8012991px;font-family:'DejaVu Sans';-inkscape-font-specification:DejaVuSans;writing-mode:lr-tb;fill:#000000;fill-opacity:1;fill-rule:nonzero;stroke:none"
       transform="scale(1,-1)"
       x="399.32162"
       y="-432.61069"><tspan
         id="tspan3134"
         y="-432.61069"
         x="399.32162">4</tspan></text>
<path
       d="M 414.824,370.61277 H 410.25"
       style="fill:none;stroke:#000000;stroke-width:1.14302599;stroke-linecap:butt;stroke-linejoin:round;stroke-miterlimit:10;stroke-dasharray:none;stroke-opacity:1"
       id="path3140"
       inkscape:connector-curvature="0" /><path
       d="M 414.824,386.11977 H 410.25"
       style="fill:none;stroke:#000000;stroke-width:1.14302599;stroke-linecap:butt;stroke-linejoin:round;stroke-miterlimit:10;stroke-dasharray:none;stroke-opacity:1"
       id="path3144"
       inkscape:connector-curvature="0" /><path
       d="M 414.824,397.11977 H 410.25"
       style="fill:none;stroke:#000000;stroke-width:1.14302599;stroke-linecap:butt;stroke-linejoin:round;stroke-miterlimit:10;stroke-dasharray:none;stroke-opacity:1"
       id="path3148"
       inkscape:connector-curvature="0" /><path
       d="M 414.824,405.65177 H 410.25"
       style="fill:none;stroke:#000000;stroke-width:1.14302599;stroke-linecap:butt;stroke-linejoin:round;stroke-miterlimit:10;stroke-dasharray:none;stroke-opacity:1"
       id="path3152"
       inkscape:connector-curvature="0" /><path
       d="M 414.824,412.62377 H 410.25"
       style="fill:none;stroke:#000000;stroke-width:1.14302599;stroke-linecap:butt;stroke-linejoin:round;stroke-miterlimit:10;stroke-dasharray:none;stroke-opacity:1"
       id="path3156"
       inkscape:connector-curvature="0" /><path
       d="M 414.824,418.51877 H 410.25"
       style="fill:none;stroke:#000000;stroke-width:1.14302599;stroke-linecap:butt;stroke-linejoin:round;stroke-miterlimit:10;stroke-dasharray:none;stroke-opacity:1"
       id="path3160"
       inkscape:connector-curvature="0" /><path
       d="M 414.824,423.62777 H 410.25"
       style="fill:none;stroke:#000000;stroke-width:1.14302599;stroke-linecap:butt;stroke-linejoin:round;stroke-miterlimit:10;stroke-dasharray:none;stroke-opacity:1"
       id="path3164"
       inkscape:connector-curvature="0" /><path
       d="M 414.824,428.13177 H 410.25"
       style="fill:none;stroke:#000000;stroke-width:1.14302599;stroke-linecap:butt;stroke-linejoin:round;stroke-miterlimit:10;stroke-dasharray:none;stroke-opacity:1"
       id="path3168"
       inkscape:connector-curvature="0" /><text
       id="text3172"
       style="font-variant:normal;font-weight:normal;font-size:13.71630859px;font-family:'DejaVu Sans';-inkscape-font-specification:DejaVuSans;writing-mode:lr-tb;fill:#000000;fill-opacity:1;fill-rule:nonzero;stroke:none"
       transform="matrix(0,1,1,0,0,0)"
       x="344.35428"
       y="377.293"><tspan
         id="tspan3170"
         sodipodi:role="line"
         y="377.293"
         x="344.35428 357.71396 366.14948 379.50916 387.88983 393.52722 401.63358 405.98166 414.66406 421.79654 430.19092 438.88705">memory usage</tspan></text>
<path
       d="m 420.621,409.53077 12.883,-1.821 38.656,2.075 64.426,-0.516"
       style="fill:none;stroke:#1f77b4;stroke-width:1.71453905;stroke-linecap:square;stroke-linejoin:round;stroke-miterlimit:10;stroke-dasharray:none;stroke-opacity:1"
       id="path3176"
       inkscape:connector-curvature="0" /><path
       d="m 420.621,414.83077 12.883,2.286 38.656,5.867 64.426,8.004"
       style="fill:none;stroke:#ff7f0e;stroke-width:1.71453905;stroke-linecap:square;stroke-linejoin:round;stroke-miterlimit:10;stroke-dasharray:none;stroke-opacity:1"
       id="path3180"
       inkscape:connector-curvature="0" /><path
       d="m 420.621,364.29577 12.883,0.453 38.656,2.786 64.426,2.8"
       style="fill:none;stroke:#2ca02c;stroke-width:1.71453905;stroke-linecap:square;stroke-linejoin:round;stroke-miterlimit:10;stroke-dasharray:none;stroke-opacity:1"
       id="path3184"
       inkscape:connector-curvature="0" /><path
       d="m 420.621,362.70177 12.883,1.004 38.656,2.164 64.426,2.915"
       style="fill:none;stroke:#d62728;stroke-width:1.71453905;stroke-linecap:square;stroke-linejoin:round;stroke-miterlimit:10;stroke-dasharray:none;stroke-opacity:1"
       id="path3188"
       inkscape:connector-curvature="0" /><path
       d="m 420.621,435.29177 12.883,0.012 38.656,-0.039 64.426,0.07"
       style="fill:none;stroke:#9467bd;stroke-width:1.71453905;stroke-linecap:square;stroke-linejoin:round;stroke-miterlimit:10;stroke-dasharray:none;stroke-opacity:1"
       id="path3192"
       inkscape:connector-curvature="0" /><path
       d="m 414.824,344.10877 v 103.554"
       style="fill:none;stroke:#000000;stroke-width:1.42878199;stroke-linecap:square;stroke-linejoin:miter;stroke-miterlimit:10;stroke-dasharray:none;stroke-opacity:1"
       id="path3196"
       inkscape:connector-curvature="0" /><path
       d="m 542.383,344.10877 v 103.554"
       style="fill:none;stroke:#000000;stroke-width:1.42878199;stroke-linecap:square;stroke-linejoin:miter;stroke-miterlimit:10;stroke-dasharray:none;stroke-opacity:1"
       id="path3200"
       inkscape:connector-curvature="0" /><path
       d="M 414.824,344.10877 H 542.383"
       style="fill:none;stroke:#000000;stroke-width:1.42878199;stroke-linecap:square;stroke-linejoin:miter;stroke-miterlimit:10;stroke-dasharray:none;stroke-opacity:1"
       id="path3204"
       inkscape:connector-curvature="0" /><path
       d="M 414.824,447.66277 H 542.383"
       style="fill:none;stroke:#000000;stroke-width:1.42878199;stroke-linecap:square;stroke-linejoin:miter;stroke-miterlimit:10;stroke-dasharray:none;stroke-opacity:1"
       id="path3208"
       inkscape:connector-curvature="0" /><text
       id="text3212"
       style="font-variant:normal;font-weight:normal;font-size:13.71630859px;font-family:'DejaVu Sans';-inkscape-font-specification:DejaVuSans;writing-mode:lr-tb;fill:#000000;fill-opacity:1;fill-rule:nonzero;stroke:none"
       transform="scale(1,-1)"
       x="446.84256"
       y="-452.23685"><tspan
         id="tspan3210"
         sodipodi:role="line"
         y="-452.23685"
         x="446.84256 454.72943 465.52417 475.04327 484.56241 493.21738 501.91354">FORREST</tspan></text>
<path
       inkscape:connector-curvature="0"
       id="path3214"
       style="fill:#ffffff;fill-opacity:1;fill-rule:nonzero;stroke:none"
       d="M 394.246,624.667 H 558.844 V 487.503 H 394.246 Z" /><path
       inkscape:connector-curvature="0"
       id="path3216"
       style="fill:#ffffff;fill-opacity:1;fill-rule:nonzero;stroke:none"
       d="M 414.824,608.206 H 542.383 V 504.651 H 414.824 Z" /><path
       d="m 472.16,504.65177 v -6.86"
       style="fill:none;stroke:#000000;stroke-width:1.42878199;stroke-linecap:butt;stroke-linejoin:round;stroke-miterlimit:10;stroke-dasharray:none;stroke-opacity:1"
       id="path3220"
       inkscape:connector-curvature="0" /><text
       id="text3224"
       style="font-variant:normal;font-weight:normal;font-size:12.5732832px;font-family:'DejaVu Sans';-inkscape-font-specification:DejaVuSans;writing-mode:lr-tb;fill:#000000;fill-opacity:1;fill-rule:nonzero;stroke:none"
       transform="scale(1,-1)"
       x="464.15948"
       y="-485.27777"><tspan
         id="tspan3222"
         sodipodi:role="line"
         y="-485.27777"
         x="464.15948 472.1561">50</tspan></text>
<path
       d="m 536.586,504.65177 v -6.86"
       style="fill:none;stroke:#000000;stroke-width:1.42878199;stroke-linecap:butt;stroke-linejoin:round;stroke-miterlimit:10;stroke-dasharray:none;stroke-opacity:1"
       id="path3228"
       inkscape:connector-curvature="0" /><text
       id="text3232"
       style="font-variant:normal;font-weight:normal;font-size:12.5732832px;font-family:'DejaVu Sans';-inkscape-font-specification:DejaVuSans;writing-mode:lr-tb;fill:#000000;fill-opacity:1;fill-rule:nonzero;stroke:none"
       transform="scale(1,-1)"
       x="524.58405"
       y="-485.27777"><tspan
         id="tspan3230"
         sodipodi:role="line"
         y="-485.27777"
         x="524.58405 532.58063 540.57727">100</tspan></text>
<path
       d="m 414.824,504.65177 h -6.859"
       style="fill:none;stroke:#000000;stroke-width:1.42878199;stroke-linecap:butt;stroke-linejoin:round;stroke-miterlimit:10;stroke-dasharray:none;stroke-opacity:1"
       id="path3236"
       inkscape:connector-curvature="0" /><text
       id="text3240"
       style="font-variant:normal;font-weight:normal;font-size:12.5732832px;font-family:'DejaVu Sans';-inkscape-font-specification:DejaVuSans;writing-mode:lr-tb;fill:#000000;fill-opacity:1;fill-rule:nonzero;stroke:none"
       transform="scale(1,-1)"
       x="383.19867"
       y="-500.01685"><tspan
         id="tspan3238"
         sodipodi:role="line"
         y="-500.01685"
         x="383.19867 391.19528">10</tspan></text>
<text
       id="text3244"
       style="font-variant:normal;font-weight:normal;font-size:8.8012991px;font-family:'DejaVu Sans';-inkscape-font-specification:DejaVuSans;writing-mode:lr-tb;fill:#000000;fill-opacity:1;fill-rule:nonzero;stroke:none"
       transform="scale(1,-1)"
       x="399.32166"
       y="-504.97592"><tspan
         id="tspan3242"
         y="-504.97592"
         x="399.32166">3</tspan></text>
<path
       d="m 414.824,592.70177 h -6.859"
       style="fill:none;stroke:#000000;stroke-width:1.42878199;stroke-linecap:butt;stroke-linejoin:round;stroke-miterlimit:10;stroke-dasharray:none;stroke-opacity:1"
       id="path3248"
       inkscape:connector-curvature="0" /><text
       id="text3252"
       style="font-variant:normal;font-weight:normal;font-size:12.5732832px;font-family:'DejaVu Sans';-inkscape-font-specification:DejaVuSans;writing-mode:lr-tb;fill:#000000;fill-opacity:1;fill-rule:nonzero;stroke:none"
       transform="scale(1,-1)"
       x="383.19867"
       y="-588.1947"><tspan
         id="tspan3250"
         sodipodi:role="line"
         y="-588.1947"
         x="383.19867 391.19528">10</tspan></text>
<text
       id="text3256"
       style="font-variant:normal;font-weight:normal;font-size:8.8012991px;font-family:'DejaVu Sans';-inkscape-font-specification:DejaVuSans;writing-mode:lr-tb;fill:#000000;fill-opacity:1;fill-rule:nonzero;stroke:none"
       transform="scale(1,-1)"
       x="399.32166"
       y="-593.15375"><tspan
         id="tspan3254"
         y="-593.15375"
         x="399.32166">4</tspan></text>
<path
       d="M 414.824,531.15577 H 410.25"
       style="fill:none;stroke:#000000;stroke-width:1.14302599;stroke-linecap:butt;stroke-linejoin:round;stroke-miterlimit:10;stroke-dasharray:none;stroke-opacity:1"
       id="path3260"
       inkscape:connector-curvature="0" /><path
       d="M 414.824,546.66277 H 410.25"
       style="fill:none;stroke:#000000;stroke-width:1.14302599;stroke-linecap:butt;stroke-linejoin:round;stroke-miterlimit:10;stroke-dasharray:none;stroke-opacity:1"
       id="path3264"
       inkscape:connector-curvature="0" /><path
       d="M 414.824,557.66277 H 410.25"
       style="fill:none;stroke:#000000;stroke-width:1.14302599;stroke-linecap:butt;stroke-linejoin:round;stroke-miterlimit:10;stroke-dasharray:none;stroke-opacity:1"
       id="path3268"
       inkscape:connector-curvature="0" /><path
       d="M 414.824,566.19477 H 410.25"
       style="fill:none;stroke:#000000;stroke-width:1.14302599;stroke-linecap:butt;stroke-linejoin:round;stroke-miterlimit:10;stroke-dasharray:none;stroke-opacity:1"
       id="path3272"
       inkscape:connector-curvature="0" /><path
       d="M 414.824,573.16677 H 410.25"
       style="fill:none;stroke:#000000;stroke-width:1.14302599;stroke-linecap:butt;stroke-linejoin:round;stroke-miterlimit:10;stroke-dasharray:none;stroke-opacity:1"
       id="path3276"
       inkscape:connector-curvature="0" /><path
       d="M 414.824,579.06177 H 410.25"
       style="fill:none;stroke:#000000;stroke-width:1.14302599;stroke-linecap:butt;stroke-linejoin:round;stroke-miterlimit:10;stroke-dasharray:none;stroke-opacity:1"
       id="path3280"
       inkscape:connector-curvature="0" /><path
       d="M 414.824,584.17077 H 410.25"
       style="fill:none;stroke:#000000;stroke-width:1.14302599;stroke-linecap:butt;stroke-linejoin:round;stroke-miterlimit:10;stroke-dasharray:none;stroke-opacity:1"
       id="path3284"
       inkscape:connector-curvature="0" /><path
       d="M 414.824,588.67477 H 410.25"
       style="fill:none;stroke:#000000;stroke-width:1.14302599;stroke-linecap:butt;stroke-linejoin:round;stroke-miterlimit:10;stroke-dasharray:none;stroke-opacity:1"
       id="path3288"
       inkscape:connector-curvature="0" /><text
       id="text3292"
       style="font-variant:normal;font-weight:normal;font-size:13.71630859px;font-family:'DejaVu Sans';-inkscape-font-specification:DejaVuSans;writing-mode:lr-tb;fill:#000000;fill-opacity:1;fill-rule:nonzero;stroke:none"
       transform="matrix(0,1,1,0,0,0)"
       x="504.89734"
       y="377.29303"><tspan
         id="tspan3290"
         sodipodi:role="line"
         y="377.29303"
         x="504.89734 518.25702 526.69257 540.05225 548.43292 554.07031 562.17664 566.52472 575.20715 582.3396 590.73401 599.43011">memory usage</tspan></text>
<path
       d="m 420.621,564.72977 12.883,3.824 38.656,0.789 64.426,-0.461"
       style="fill:none;stroke:#1f77b4;stroke-width:1.71453905;stroke-linecap:square;stroke-linejoin:round;stroke-miterlimit:10;stroke-dasharray:none;stroke-opacity:1"
       id="path3296"
       inkscape:connector-curvature="0" /><path
       d="m 420.621,595.17477 12.883,0.762 38.656,2.379 64.426,3.683"
       style="fill:none;stroke:#ff7f0e;stroke-width:1.71453905;stroke-linecap:square;stroke-linejoin:round;stroke-miterlimit:10;stroke-dasharray:none;stroke-opacity:1"
       id="path3300"
       inkscape:connector-curvature="0" /><path
       d="m 420.621,508.45977 12.883,1.965 38.656,3.586 64.426,5.301"
       style="fill:none;stroke:#2ca02c;stroke-width:1.71453905;stroke-linecap:square;stroke-linejoin:round;stroke-miterlimit:10;stroke-dasharray:none;stroke-opacity:1"
       id="path3304"
       inkscape:connector-curvature="0" /><path
       d="m 420.621,506.15977 12.883,1.812 38.656,3.816 64.426,5.688"
       style="fill:none;stroke:#d62728;stroke-width:1.71453905;stroke-linecap:square;stroke-linejoin:round;stroke-miterlimit:10;stroke-dasharray:none;stroke-opacity:1"
       id="path3308"
       inkscape:connector-curvature="0" /><path
       d="m 420.621,595.71377 12.883,-0.586 38.656,0.356 64.426,0.218"
       style="fill:none;stroke:#9467bd;stroke-width:1.71453905;stroke-linecap:square;stroke-linejoin:round;stroke-miterlimit:10;stroke-dasharray:none;stroke-opacity:1"
       id="path3312"
       inkscape:connector-curvature="0" /><path
       d="m 414.824,504.65177 v 103.554"
       style="fill:none;stroke:#000000;stroke-width:1.42878199;stroke-linecap:square;stroke-linejoin:miter;stroke-miterlimit:10;stroke-dasharray:none;stroke-opacity:1"
       id="path3316"
       inkscape:connector-curvature="0" /><path
       d="m 542.383,504.65177 v 103.554"
       style="fill:none;stroke:#000000;stroke-width:1.42878199;stroke-linecap:square;stroke-linejoin:miter;stroke-miterlimit:10;stroke-dasharray:none;stroke-opacity:1"
       id="path3320"
       inkscape:connector-curvature="0" /><path
       d="M 414.824,504.65177 H 542.383"
       style="fill:none;stroke:#000000;stroke-width:1.42878199;stroke-linecap:square;stroke-linejoin:miter;stroke-miterlimit:10;stroke-dasharray:none;stroke-opacity:1"
       id="path3324"
       inkscape:connector-curvature="0" /><path
       d="M 414.824,608.20577 H 542.383"
       style="fill:none;stroke:#000000;stroke-width:1.42878199;stroke-linecap:square;stroke-linejoin:miter;stroke-miterlimit:10;stroke-dasharray:none;stroke-opacity:1"
       id="path3328"
       inkscape:connector-curvature="0" /><text
       id="text3332"
       style="font-variant:normal;font-weight:normal;font-size:13.71630859px;font-family:'DejaVu Sans';-inkscape-font-specification:DejaVuSans;writing-mode:lr-tb;fill:#000000;fill-opacity:1;fill-rule:nonzero;stroke:none"
       transform="scale(1,-1)"
       x="446.95334"
       y="-612.77991"><tspan
         id="tspan3330"
         sodipodi:role="line"
         y="-612.77991"
         x="446.95334">GALLANT</tspan></text>
<text
       id="text3336"
       style="font-variant:normal;font-weight:normal;font-size:28.57564545px;font-family:'DejaVu Sans';-inkscape-font-specification:DejaVuSans;writing-mode:lr-tb;fill:#000000;fill-opacity:1;fill-rule:nonzero;stroke:none"
       transform="scale(1,-1)"
       x="152.50705"
       y="-805.6687"><tspan
         id="tspan3334"
         sodipodi:role="line"
         y="-805.6687"
         x="152.50705 177.13925 194.71327 222.54596 240.00568 251.75027 268.63846 277.69696 295.87106 310.73041 328.21869 346.33566 363.90967 372.96817 384.11267 392.02811 410.11649 419.26068 443.89291 463.49579">Memory usage (in MB)</tspan></text>
</g></svg>